{
   "security": [
      {"apiKeyHeader": []},
      {"apiKeyQuery": []}
   ],
   "basePath": "/v1/secm",
   "paths": {
      "/user/{userId}/applications/{appCode}/roles/{roleCode}/permissions": {
         "patch": {
            "produces": ["application/json"],
            "operationId": "/user/{userId}/applications/{appCode}/roles/{roleCode}/permissions getPermissionPatch",
            "responses": {"200": {"description": "200 OK"}},
            "parameters": [
               {
                  "in": "path",
                  "name": "userId",
                  "type": "string",
                  "required": true
               },
               {
                  "in": "path",
                  "name": "appCode",
                  "type": "string",
                  "required": true
               },
               {
                  "in": "path",
                  "name": "roleCode",
                  "type": "string",
                  "required": true
               }
            ]
         },
         "post": {
            "produces": ["application/json"],
            "operationId": "/user/{userId}/applications/{appCode}/roles/{roleCode}/permissions getPermissionPost",
            "responses": {"200": {"description": "200 OK"}},
            "parameters": [
               {
                  "in": "path",
                  "name": "userId",
                  "type": "string",
                  "required": true
               },
               {
                  "in": "path",
                  "name": "appCode",
                  "type": "string",
                  "required": true
               },
               {
                  "in": "path",
                  "name": "roleCode",
                  "type": "string",
                  "required": true
               }
            ]
         },
         "get": {
            "produces": ["application/json"],
            "operationId": "/user/{userId}/applications/{appCode}/roles/{roleCode}/permissions getPermissionGet",
            "responses": {"200": {"description": "200 OK"}},
            "parameters": [
               {
                  "in": "path",
                  "name": "userId",
                  "type": "string",
                  "required": true
               },
               {
                  "in": "path",
                  "name": "appCode",
                  "type": "string",
                  "required": true
               },
               {
                  "in": "path",
                  "name": "roleCode",
                  "type": "string",
                  "required": true
               }
            ]
         }
      },
      "/user/{userId}/applications/{appCode}/roles/{roleCode}": {
         "patch": {
            "produces": ["application/json"],
            "operationId": "/user/{userId}/applications/{appCode}/roles/{roleCode} setRoleCodePatch",
            "responses": {"200": {"description": "200 OK"}},
            "parameters": [
               {
                  "in": "path",
                  "name": "userId",
                  "type": "string",
                  "required": true
               },
               {
                  "in": "path",
                  "name": "appCode",
                  "type": "string",
                  "required": true
               },
               {
                  "in": "path",
                  "name": "roleCode",
                  "type": "string",
                  "required": true
               }
            ]
         },
         "get": {
            "produces": ["application/json"],
            "operationId": "/user/{userId}/applications/{appCode}/roles/{roleCode} getRolesGET",
            "responses": {"200": {"description": "200 OK"}},
            "parameters": [
               {
                  "in": "path",
                  "name": "userId",
                  "type": "string",
                  "required": true
               },
               {
                  "in": "path",
                  "name": "appCode",
                  "type": "string",
                  "required": true
               },
               {
                  "in": "path",
                  "name": "roleCode",
                  "type": "string",
                  "required": true
               }
            ]
         }
      },
      "/user/changePassword": {"get": {
         "description": "generate token to change password",
         "operationId": "/user/changePassword SF_UserId",
         "responses": {},
         "parameters": [
            {
               "in": "query",
               "name": "userId",
               "description": "date object",
               "type": "string",
               "required": true
            },
            {
               "in": "header",
               "name": "accept",
               "type": "string"
            },
            {
               "in": "header",
               "name": "accept-language",
               "type": "string",
               "required": true
            },
            {
               "in": "header",
               "name": "app-code",
               "type": "string",
               "required": true
            },
            {
               "in": "header",
               "name": "jwt",
               "type": "string"
            },
            {
               "in": "header",
               "name": "Authorization",
               "type": "string"
            }
         ]
      }},
      "/mysettings/notifications": {
         "post": {
            "produces": ["application/json"],
            "description": "Create the auth user notification settings\r\n",
            "operationId": "/mysettings/notifications postNotifications",
            "responses": {
               "200": {"description": "OK"},
               "500": {
                  "examples": {"application/json": {
                     "moreInformation": {"type": "string"},
                     "httpMessage": {"type": "string"},
                     "reasonCode": {"type": "string"},
                     "httpCode": {"type": "string"}
                  }},
                  "description": "Internal Server Error"
               }
            },
            "parameters": [{
               "schema": {"example": "{\"notifications\":{\"type\":\"object\",\"properties\":{\"orders\":{\"type\":\"object\",\"properties\":{\"reminder\":{\"type\":\"integer\",\"format\":\"int32\"},\"statusChange\":{\"type\":\"integer\",\"format\":\"int32\"},\"orderSummary\":{\"type\":\"integer\",\"format\":\"int32\"},\"modifications\":{\"type\":\"integer\",\"format\":\"int32\"}}},\"loads\":{\"type\":\"object\",\"properties\":{\"firstBatched\":{\"type\":\"integer\",\"format\":\"int32\"},\"lastBatched\":{\"type\":\"integer\",\"format\":\"int32\"},\"everyTruck\":{\"type\":\"integer\",\"format\":\"int32\"},\"variance\":{\"type\":\"integer\",\"format\":\"int32\"}}}}},\"devices\":{\"type\":\"object\",\"properties\":{\"deviceId\":{\"type\":\"string\"},\"uuid\":{\"type\":\"string\"},\"platform\":{\"type\":\"string\"},\"token\":{\"type\":\"string\"}}}}"},
               "in": "body",
               "name": "body",
               "description": "settings payload"
            }],
            "consumes": ["application/json"]
         },
         "get": {
            "produces": ["application/json"],
            "description": "Get the auth user settings \r\n",
            "operationId": "/mysettings/notifications getNotifications",
            "responses": {
               "200": {
                  "examples": {"application/json": {
                     "devices": {
                        "type": "object",
                        "properties": {
                           "deviceId": {"type": "string"},
                           "uuid": {"type": "string"},
                           "platform": {"type": "string"},
                           "token": {"type": "string"}
                        }
                     },
                     "notifications": {
                        "type": "object",
                        "properties": {
                           "loads": {
                              "type": "object",
                              "properties": {
                                 "everyTruck": {
                                    "format": "int32",
                                    "type": "integer"
                                 },
                                 "variance": {
                                    "format": "int32",
                                    "type": "integer"
                                 },
                                 "firstBatched": {
                                    "format": "int32",
                                    "type": "integer"
                                 },
                                 "lastBatched": {
                                    "format": "int32",
                                    "type": "integer"
                                 }
                              }
                           },
                           "orders": {
                              "type": "object",
                              "properties": {
                                 "reminder": {
                                    "format": "int32",
                                    "type": "integer"
                                 },
                                 "statusChange": {
                                    "format": "int32",
                                    "type": "integer"
                                 },
                                 "orderSummary": {
                                    "format": "int32",
                                    "type": "integer"
                                 },
                                 "modifications": {
                                    "format": "int32",
                                    "type": "integer"
                                 }
                              }
                           }
                        }
                     }
                  }},
                  "description": "Succesful response"
               },
               "500": {
                  "examples": {"application/json": {
                     "moreInformation": {"type": "string"},
                     "httpMessage": {"type": "string"},
                     "reasonCode": {"type": "string"},
                     "httpCode": {"type": "string"}
                  }},
                  "description": "Internal Server Error"
               }
            }
         },
         "put": {
            "produces": ["application/json"],
            "description": "Update the auth user notification settings\r\n",
            "operationId": "/mysettings/notifications putNotifications",
            "responses": {
               "200": {"description": "Ok"},
               "500": {
                  "examples": {"application/json": {
                     "moreInformation": {"type": "string"},
                     "httpMessage": {"type": "string"},
                     "reasonCode": {"type": "string"},
                     "httpCode": {"type": "string"}
                  }},
                  "description": "Internal Server Error"
               }
            },
            "parameters": [{
               "schema": {"example": "{\"notifications\":{\"type\":\"object\",\"properties\":{\"orders\":{\"type\":\"object\",\"properties\":{\"reminder\":{\"type\":\"integer\",\"format\":\"int32\"},\"statusChange\":{\"type\":\"integer\",\"format\":\"int32\"},\"orderSummary\":{\"type\":\"integer\",\"format\":\"int32\"},\"modifications\":{\"type\":\"integer\",\"format\":\"int32\"}}},\"loads\":{\"type\":\"object\",\"properties\":{\"firstBatched\":{\"type\":\"integer\",\"format\":\"int32\"},\"lastBatched\":{\"type\":\"integer\",\"format\":\"int32\"},\"everyTruck\":{\"type\":\"integer\",\"format\":\"int32\"},\"variance\":{\"type\":\"integer\",\"format\":\"int32\"}}}}},\"devices\":{\"type\":\"object\",\"properties\":{\"deviceId\":{\"type\":\"string\"},\"uuid\":{\"type\":\"string\"},\"platform\":{\"type\":\"string\"},\"token\":{\"type\":\"string\"}}}}"},
               "in": "body",
               "name": "body",
               "description": "settings payload"
            }],
            "consumes": ["application/json"]
         }
      },
      "/mysettings/devices/{deviceId}": {
         "delete": {
            "produces": ["application/json"],
            "description": "Delete device configurations for the auth user\r\n",
            "operationId": "/mysettings/devices/{deviceId} deleteDevicesById",
            "responses": {
               "200": {"description": "Ok"},
               "500": {
                  "examples": {"application/json": {
                     "moreInformation": {"type": "string"},
                     "httpMessage": {"type": "string"},
                     "reasonCode": {"type": "string"},
                     "httpCode": {"type": "string"}
                  }},
                  "description": "Internal Server Error"
               }
            },
            "parameters": [{
               "in": "path",
               "name": "deviceId",
               "description": "Device Id",
               "type": "string",
               "required": true
            }]
         },
         "put": {
            "produces": ["application/json"],
            "description": "Update device configurations for the auth user\r\n",
            "operationId": "/mysettings/devices/{deviceId} putDevicesById",
            "responses": {
               "200": {"description": "OK"},
               "500": {
                  "examples": {"application/json": {
                     "moreInformation": {"type": "string"},
                     "httpMessage": {"type": "string"},
                     "reasonCode": {"type": "string"},
                     "httpCode": {"type": "string"}
                  }},
                  "description": "Internal Server Error"
               }
            },
            "parameters": [
               {
                  "in": "path",
                  "name": "deviceId",
                  "description": "Device Id",
                  "type": "string",
                  "required": true
               },
               {
                  "schema": {"example": "{\"notifications\":{\"type\":\"object\",\"properties\":{\"orders\":{\"type\":\"object\",\"properties\":{\"reminder\":{\"type\":\"integer\",\"format\":\"int32\"},\"statusChange\":{\"type\":\"integer\",\"format\":\"int32\"},\"orderSummary\":{\"type\":\"integer\",\"format\":\"int32\"},\"modifications\":{\"type\":\"integer\",\"format\":\"int32\"}}},\"loads\":{\"type\":\"object\",\"properties\":{\"firstBatched\":{\"type\":\"integer\",\"format\":\"int32\"},\"lastBatched\":{\"type\":\"integer\",\"format\":\"int32\"},\"everyTruck\":{\"type\":\"integer\",\"format\":\"int32\"},\"variance\":{\"type\":\"integer\",\"format\":\"int32\"}}}}},\"devices\":{\"type\":\"object\",\"properties\":{\"deviceId\":{\"type\":\"string\"},\"uuid\":{\"type\":\"string\"},\"platform\":{\"type\":\"string\"},\"token\":{\"type\":\"string\"}}}}"},
                  "in": "body",
                  "name": "body",
                  "description": "settings payload"
               }
            ],
            "consumes": ["application/json"]
         }
      },
      "/user/changePassword/token": {"post": {
         "description": "Change the password of user",
         "operationId": "/user/changePassword/token SF_generateToken",
         "responses": {},
         "parameters": [
            {
               "in": "header",
               "name": "accept",
               "type": "string"
            },
            {
               "in": "header",
               "name": "accept-language",
               "type": "string",
               "required": true
            },
            {
               "in": "header",
               "name": "app-code",
               "type": "string",
               "required": true
            },
            {
               "in": "header",
               "name": "jwt",
               "type": "string"
            },
            {
               "in": "header",
               "name": "Authorization",
               "type": "string"
            }
         ]
      }},
      "/request/dataRequest": {"post": {
         "produces": ["application/json"],
         "operationId": "/request/dataRequest saveDataAccessReq",
         "responses": {"200": {"description": "200 OK"}},
         "parameters": [
            {
               "in": "header",
               "name": "accept",
               "description": "Advertises which content types expressed as MIME types the client is able to understand.",
               "type": "string"
            },
            {
               "in": "header",
               "name": "accept-language",
               "description": "Advertises which languages and locale variant the client is able to understand.",
               "type": "string",
               "required": true
            },
            {
               "in": "header",
               "name": "app-code",
               "description": "Advertises which application is requesting the information.",
               "type": "string",
               "required": true
            },
            {
               "in": "header",
               "name": "jwt",
               "description": "JSON Web Token JWT, represent claims to be transferred between two parties RFC 7519.",
               "type": "string",
               "required": true
            },
            {
               "in": "header",
               "name": "Authorization",
               "description": "Access Token",
               "type": "string",
               "required": true
            }
         ]
      }},
      "/user/applications/{appCode}/roles": {"get": {
         "produces": ["application/json"],
         "operationId": "/user/applications/{appCode}/roles getRolesByApp",
         "responses": {"200": {"description": "200 OK"}},
         "parameters": [{
            "in": "path",
            "name": "appCode",
            "type": "string",
            "required": true
         }]
      }},
      "/user/{userId}/applications/{appCode}/roles": {
         "post": {
            "produces": ["application/json"],
            "operationId": "/user/{userId}/applications/{appCode}/roles rolesByAppCodePost",
            "responses": {"200": {"description": "200 OK"}},
            "parameters": [
               {
                  "in": "path",
                  "name": "userId",
                  "type": "string",
                  "required": true
               },
               {
                  "in": "path",
                  "name": "appCode",
                  "type": "string",
                  "required": true
               }
            ]
         },
         "get": {
            "produces": ["application/json"],
            "operationId": "/user/{userId}/applications/{appCode}/roles rolesByAppCodeGet",
            "responses": {"200": {"description": "200 OK"}},
            "parameters": [
               {
                  "in": "path",
                  "name": "userId",
                  "type": "string",
                  "required": true
               },
               {
                  "in": "path",
                  "name": "appCode",
                  "type": "string",
                  "required": true
               }
            ]
         },
         "put": {
            "produces": ["application/json"],
            "operationId": "/user/{userId}/applications/{appCode}/roles rolesByAppCodePut",
            "responses": {"200": {"description": "200 OK"}},
            "parameters": [
               {
                  "in": "path",
                  "name": "userId",
                  "type": "string",
                  "required": true
               },
               {
                  "in": "path",
                  "name": "appCode",
                  "type": "string",
                  "required": true
               }
            ]
         }
      },
      "/myinfo": {"get": {
         "produces": ["application/json"],
         "description": "Get User Auth info",
         "operationId": "/myinfo getUserAuth",
         "responses": {
            "200": {
               "examples": {"application/json": {
                  "lastName": {"type": "string"},
                  "country": {"type": "string"},
                  "regions": {
                     "type": "array",
                     "items": {
                        "type": "object",
                        "properties": {
                           "regionId": {
                              "format": "int32",
                              "type": "integer"
                           },
                           "regionDesc": {"type": "string"}
                        }
                     }
                  },
                  "fullName": {"type": "string"},
                  "userId": {
                     "format": "int32",
                     "type": "integer"
                  },
                  "userSelectedId": {"type": "string"},
                  "powerUser": {"type": "string"},
                  "firstName": {"type": "string"},
                  "phone": {"type": "string"},
                  "countryCode": {"type": "string"},
                  "email": {"type": "string"},
                  "jobsites": {
                     "type": "array",
                     "items": {
                        "type": "object",
                        "properties": {
                           "address": {
                              "type": "object",
                              "properties": {
                                 "countryDesc": {"type": "string"},
                                 "cityDesc": {"type": "string"},
                                 "regionId": {"type": "integer"},
                                 "regionDesc": {"type": "string"},
                                 "countryCode": {"type": "string"},
                                 "addressId": {"type": "integer"}
                              }
                           },
                           "jobsiteDesc": {"type": "string"},
                           "jobsiteId": {
                              "format": "int32",
                              "type": "integer"
                           }
                        }
                     }
                  },
                  "status": {"type": "string"},
                  "customer": {
                     "type": "object",
                     "properties": {
                        "customerId": {
                           "format": "int32",
                           "type": "integer"
                        },
                        "customerName": {"type": "string"}
                     }
                  },
                  "applications": {
                     "type": "array",
                     "items": {
                        "type": "object",
                        "properties": {
                           "userAuth": {"type": "string"},
                           "applicationId": {
                              "format": "int32",
                              "type": "integer"
                           },
                           "applicationName": {"type": "string"}
                        }
                     }
                  }
               }},
               "description": "Successful response"
            },
            "500": {
               "examples": {"application/json": {
                  "moreInformation": {"type": "string"},
                  "httpMessage": {"type": "string"},
                  "reasonCode": {"type": "string"},
                  "httpCode": {"type": "string"}
               }},
               "description": "Internal Server Error"
            }
         },
         "parameters": [
            {
               "in": "header",
               "name": "accept",
               "description": "Advertises which content types expressed as MIME types the client is able to understand.",
               "type": "string"
            },
            {
               "in": "header",
               "name": "accept-language",
               "description": "Advertises which languages and locale variant the client is able to understand.",
               "type": "string",
               "required": true
            },
            {
               "in": "header",
               "name": "app-code",
               "description": "Advertises which application is requesting the information.",
               "type": "string",
               "required": true
            },
            {
               "in": "header",
               "name": "jwt",
               "description": "JSON Web Token JWT, represent claims to be transferred between two parties RFC 7519.",
               "type": "string",
               "required": true
            },
            {
               "in": "header",
               "name": "Authorization",
               "description": "Access Token",
               "type": "string",
               "required": true
            }
         ]
      }},
      "/requestaccess/confirm": {"patch": {
         "produces": ["application/json"],
         "description": "confirm register first user",
         "operationId": "patchrequestaccessconfirm",
         "responses": {
            "200": {"description": "Succesful Response"},
            "500": {
               "examples": {"application/json": {
                  "moreInformation": {"type": "string"},
                  "httpMessage": {"type": "string"},
                  "reasonCode": {"type": "string"},
                  "httpCode": {"type": "string"}
               }},
               "description": "Internal Error"
            }
         },
         "parameters": [{
            "schema": {"example": "{\"email\":{\"type\":\"string\"},\"userStatus\":{\"type\":\"string\"}}"},
            "in": "body",
            "name": "body",
            "description": "data user"
         }],
         "consumes": ["application/json"]
      }},
      "/users/{userId}": {
         "patch": {
            "produces": ["application/json"],
            "description": "Update the user info (partial)\r\n",
            "operationId": "/users/{userId} patchUser",
            "responses": {
               "200": {"description": "OK"},
               "500": {
                  "examples": {"application/json": {
                     "moreInformation": {"type": "string"},
                     "httpMessage": {"type": "string"},
                     "reasonCode": {"type": "string"},
                     "httpCode": {"type": "string"}
                  }},
                  "description": "Internal Server Error"
               }
            },
            "parameters": [
               {
                  "in": "path",
                  "name": "userId",
                  "description": "User id",
                  "type": "integer",
                  "required": true
               },
               {
                  "schema": {"example": "{\"userId\":{\"type\":\"integer\",\"format\":\"int32\"},\"firstName\":{\"type\":\"string\"},\"lastName\":{\"type\":\"string\"},\"fullName\":{\"type\":\"string\"},\"email\":{\"type\":\"string\"},\"phone\":{\"type\":\"string\"},\"powerUser\":{\"type\":\"string\"},\"status\":{\"type\":\"string\"},\"country\":{\"type\":\"string\"},\"countryCode\":{\"type\":\"string\"},\"userSelectedId\":{\"type\":\"string\"},\"customer\":{\"type\":\"object\",\"properties\":{\"customerId\":{\"type\":\"integer\",\"format\":\"int32\"},\"customerName\":{\"type\":\"string\"}}},\"regions\":{\"type\":\"array\",\"items\":{\"type\":\"object\",\"properties\":{\"regionId\":{\"type\":\"integer\",\"format\":\"int32\"},\"regionDesc\":{\"type\":\"string\"}}}},\"applications\":{\"type\":\"array\",\"items\":{\"type\":\"object\",\"properties\":{\"applicationId\":{\"type\":\"integer\",\"format\":\"int32\"},\"applicationName\":{\"type\":\"string\"},\"userAuth\":{\"type\":\"string\"}}}},\"jobsites\":{\"type\":\"array\",\"items\":{\"type\":\"object\",\"properties\":{\"jobsiteId\":{\"type\":\"integer\",\"format\":\"int32\"},\"jobsiteDesc\":{\"type\":\"string\"},\"address\":{\"type\":\"object\",\"properties\":{\"addressId\":{\"type\":\"integer\"},\"cityDesc\":{\"type\":\"string\"},\"regionId\":{\"type\":\"integer\"},\"regionDesc\":{\"type\":\"string\"},\"countryCode\":{\"type\":\"string\"},\"countryDesc\":{\"type\":\"string\"}}}}}}}"},
                  "in": "body",
                  "name": "body",
                  "description": "user payload"
               }
            ],
            "consumes": ["application/json"]
         },
         "get": {
            "produces": ["application/json"],
            "description": "Get user by user id\r\n",
            "operationId": "/users/{userId} getUserById",
            "responses": {
               "200": {
                  "examples": {"application/json": {
                     "lastName": {"type": "string"},
                     "country": {"type": "string"},
                     "regions": {
                        "type": "array",
                        "items": {
                           "type": "object",
                           "properties": {
                              "regionId": {
                                 "format": "int32",
                                 "type": "integer"
                              },
                              "regionDesc": {"type": "string"}
                           }
                        }
                     },
                     "fullName": {"type": "string"},
                     "userId": {
                        "format": "int32",
                        "type": "integer"
                     },
                     "userSelectedId": {"type": "string"},
                     "powerUser": {"type": "string"},
                     "firstName": {"type": "string"},
                     "phone": {"type": "string"},
                     "countryCode": {"type": "string"},
                     "email": {"type": "string"},
                     "jobsites": {
                        "type": "array",
                        "items": {
                           "type": "object",
                           "properties": {
                              "address": {
                                 "type": "object",
                                 "properties": {
                                    "countryDesc": {"type": "string"},
                                    "cityDesc": {"type": "string"},
                                    "regionId": {"type": "integer"},
                                    "regionDesc": {"type": "string"},
                                    "countryCode": {"type": "string"},
                                    "addressId": {"type": "integer"}
                                 }
                              },
                              "jobsiteDesc": {"type": "string"},
                              "jobsiteId": {
                                 "format": "int32",
                                 "type": "integer"
                              }
                           }
                        }
                     },
                     "status": {"type": "string"},
                     "customer": {
                        "type": "object",
                        "properties": {
                           "customerId": {
                              "format": "int32",
                              "type": "integer"
                           },
                           "customerName": {"type": "string"}
                        }
                     },
                     "applications": {
                        "type": "array",
                        "items": {
                           "type": "object",
                           "properties": {
                              "userAuth": {"type": "string"},
                              "applicationId": {
                                 "format": "int32",
                                 "type": "integer"
                              },
                              "applicationName": {"type": "string"}
                           }
                        }
                     }
                  }},
                  "description": "Successful response"
               },
               "500": {
                  "examples": {"application/json": {
                     "moreInformation": {"type": "string"},
                     "httpMessage": {"type": "string"},
                     "reasonCode": {"type": "string"},
                     "httpCode": {"type": "string"}
                  }},
                  "description": "Internal Server Error"
               }
            },
            "parameters": [{
               "in": "path",
               "name": "userId",
               "description": "User id",
               "type": "integer",
               "required": true
            }]
         },
         "delete": {
            "produces": ["application/json"],
            "description": "Delete all user info\r\n",
            "operationId": "/users/{userId} deleteUserById",
            "responses": {
               "200": {"description": "OK"},
               "500": {
                  "examples": {"application/json": {
                     "moreInformation": {"type": "string"},
                     "httpMessage": {"type": "string"},
                     "reasonCode": {"type": "string"},
                     "httpCode": {"type": "string"}
                  }},
                  "description": "Internal Server Error"
               }
            },
            "parameters": [{
               "in": "path",
               "name": "userId",
               "description": "User id",
               "type": "integer",
               "required": true
            }]
         },
         "put": {
            "produces": ["application/json"],
            "description": "Update all user info\r\n",
            "operationId": "/users/{userId} putUserById",
            "responses": {
               "200": {"description": "OK"},
               "500": {
                  "examples": {"application/json": {
                     "moreInformation": {"type": "string"},
                     "httpMessage": {"type": "string"},
                     "reasonCode": {"type": "string"},
                     "httpCode": {"type": "string"}
                  }},
                  "description": "Internal Server Error"
               }
            },
            "parameters": [
               {
                  "in": "path",
                  "name": "userId",
                  "description": "User id",
                  "type": "integer",
                  "required": true
               },
               {
                  "schema": {"example": "{\"userId\":{\"type\":\"integer\",\"format\":\"int32\"},\"firstName\":{\"type\":\"string\"},\"lastName\":{\"type\":\"string\"},\"fullName\":{\"type\":\"string\"},\"email\":{\"type\":\"string\"},\"phone\":{\"type\":\"string\"},\"powerUser\":{\"type\":\"string\"},\"status\":{\"type\":\"string\"},\"country\":{\"type\":\"string\"},\"countryCode\":{\"type\":\"string\"},\"userSelectedId\":{\"type\":\"string\"},\"customer\":{\"type\":\"object\",\"properties\":{\"customerId\":{\"type\":\"integer\",\"format\":\"int32\"},\"customerName\":{\"type\":\"string\"}}},\"regions\":{\"type\":\"array\",\"items\":{\"type\":\"object\",\"properties\":{\"regionId\":{\"type\":\"integer\",\"format\":\"int32\"},\"regionDesc\":{\"type\":\"string\"}}}},\"applications\":{\"type\":\"array\",\"items\":{\"type\":\"object\",\"properties\":{\"applicationId\":{\"type\":\"integer\",\"format\":\"int32\"},\"applicationName\":{\"type\":\"string\"},\"userAuth\":{\"type\":\"string\"}}}},\"jobsites\":{\"type\":\"array\",\"items\":{\"type\":\"object\",\"properties\":{\"jobsiteId\":{\"type\":\"integer\",\"format\":\"int32\"},\"jobsiteDesc\":{\"type\":\"string\"},\"address\":{\"type\":\"object\",\"properties\":{\"addressId\":{\"type\":\"integer\"},\"cityDesc\":{\"type\":\"string\"},\"regionId\":{\"type\":\"integer\"},\"regionDesc\":{\"type\":\"string\"},\"countryCode\":{\"type\":\"string\"},\"countryDesc\":{\"type\":\"string\"}}}}}}}"},
                  "in": "body",
                  "name": "body",
                  "description": "user payload"
               }
            ],
            "consumes": ["application/json"]
         }
      },
      "/applications/{appCode}/menu": {
         "patch": {
            "produces": ["application/json"],
            "operationId": "/applications/{appCode}/menu patchMenuByAppCode",
            "responses": {"200": {"description": "200 OK"}},
            "parameters": [{
               "in": "path",
               "name": "appCode",
               "type": "string",
               "required": true
            }]
         },
         "get": {
            "produces": ["application/json"],
            "operationId": "/applications/{appCode}/menu getMenuByAppCode",
            "responses": {"200": {"description": "200 OK"}},
            "parameters": [{
               "in": "path",
               "name": "appCode",
               "description": "",
               "type": "string",
               "required": true
            }]
         },
         "options": {
            "operationId": "/applications/{appCode}/menu parametersapplications/{appCode}/menu",
            "responses": {},
            "parameters": [
               {
                  "in": "path",
                  "name": "appCode",
                  "type": "string",
                  "required": true
               },
               {
                  "in": "header",
                  "name": "accept",
                  "description": "Advertises which content types expressed as MIME types the client is able to understand.",
                  "type": "string"
               },
               {
                  "in": "header",
                  "name": "accept-language",
                  "description": "Advertises which languages and locale variant the client is able to understand.",
                  "type": "string",
                  "required": true
               },
               {
                  "in": "header",
                  "name": "app-code",
                  "description": "Advertises which application is requesting the information.",
                  "type": "string",
                  "required": true
               },
               {
                  "in": "header",
                  "name": "jwt",
                  "description": "JSON Web Token JWT, represent claims to be transferred between two parties RFC 7519.",
                  "type": "string",
                  "required": true
               },
               {
                  "in": "header",
                  "name": "Authorization",
                  "description": "Access Token",
                  "type": "string",
                  "required": true
               }
            ]
         },
         "delete": {
            "produces": ["application/json"],
            "operationId": "/applications/{appCode}/menu deleteMenuByAppCode",
            "responses": {"200": {"description": "200 OK"}},
            "parameters": [{
               "in": "path",
               "name": "appCode",
               "description": "",
               "type": "string",
               "required": true
            }]
         },
         "put": {
            "produces": ["application/json"],
            "operationId": "/applications/{appCode}/menu saveMenuByAppCode",
            "responses": {"200": {"description": "200 OK"}},
            "parameters": [{
               "in": "path",
               "name": "appCode",
               "type": "string",
               "required": true
            }]
         }
      },
      "/users": {
         "post": {
            "produces": ["application/json"],
            "description": "Save a new created user\r\n",
            "operationId": "/users postUser",
            "responses": {
               "201": {"description": "Created"},
               "500": {
                  "examples": {"application/json": {
                     "moreInformation": {"type": "string"},
                     "httpMessage": {"type": "string"},
                     "reasonCode": {"type": "string"},
                     "httpCode": {"type": "string"}
                  }},
                  "description": "Internal Server Error"
               }
            },
            "parameters": [{
               "schema": {"example": "{\"userId\":{\"type\":\"integer\",\"format\":\"int32\"},\"firstName\":{\"type\":\"string\"},\"lastName\":{\"type\":\"string\"},\"fullName\":{\"type\":\"string\"},\"email\":{\"type\":\"string\"},\"phone\":{\"type\":\"string\"},\"powerUser\":{\"type\":\"string\"},\"status\":{\"type\":\"string\"},\"country\":{\"type\":\"string\"},\"countryCode\":{\"type\":\"string\"},\"userSelectedId\":{\"type\":\"string\"},\"customer\":{\"type\":\"object\",\"properties\":{\"customerId\":{\"type\":\"integer\",\"format\":\"int32\"},\"customerName\":{\"type\":\"string\"}}},\"regions\":{\"type\":\"array\",\"items\":{\"type\":\"object\",\"properties\":{\"regionId\":{\"type\":\"integer\",\"format\":\"int32\"},\"regionDesc\":{\"type\":\"string\"}}}},\"applications\":{\"type\":\"array\",\"items\":{\"type\":\"object\",\"properties\":{\"applicationId\":{\"type\":\"integer\",\"format\":\"int32\"},\"applicationName\":{\"type\":\"string\"},\"userAuth\":{\"type\":\"string\"}}}},\"jobsites\":{\"type\":\"array\",\"items\":{\"type\":\"object\",\"properties\":{\"jobsiteId\":{\"type\":\"integer\",\"format\":\"int32\"},\"jobsiteDesc\":{\"type\":\"string\"},\"address\":{\"type\":\"object\",\"properties\":{\"addressId\":{\"type\":\"integer\"},\"cityDesc\":{\"type\":\"string\"},\"regionId\":{\"type\":\"integer\"},\"regionDesc\":{\"type\":\"string\"},\"countryCode\":{\"type\":\"string\"},\"countryDesc\":{\"type\":\"string\"}}}}}}}"},
               "in": "body",
               "name": "body",
               "description": "user payload"
            }],
            "consumes": ["application/json"]
         },
         "get": {
            "produces": ["application/json"],
            "description": "Get users \r\n",
            "operationId": "/users getUsers",
            "responses": {
               "200": {
                  "examples": {"application/json": {"users": {
                     "type": "array",
                     "items": {
                        "type": "object",
                        "properties": {
                           "lastName": {"type": "string"},
                           "country": {"type": "string"},
                           "regions": {
                              "type": "array",
                              "items": {
                                 "type": "object",
                                 "properties": {
                                    "regionId": {
                                       "format": "int32",
                                       "type": "integer"
                                    },
                                    "regionDesc": {"type": "string"}
                                 }
                              }
                           },
                           "fullName": {"type": "string"},
                           "userId": {
                              "format": "int32",
                              "type": "integer"
                           },
                           "userSelectedId": {"type": "string"},
                           "powerUser": {"type": "string"},
                           "firstName": {"type": "string"},
                           "phone": {"type": "string"},
                           "countryCode": {"type": "string"},
                           "email": {"type": "string"},
                           "jobsites": {
                              "type": "array",
                              "items": {
                                 "type": "object",
                                 "properties": {
                                    "address": {
                                       "type": "object",
                                       "properties": {
                                          "countryDesc": {"type": "string"},
                                          "cityDesc": {"type": "string"},
                                          "regionId": {"type": "integer"},
                                          "regionDesc": {"type": "string"},
                                          "countryCode": {"type": "string"},
                                          "addressId": {"type": "integer"}
                                       }
                                    },
                                    "jobsiteDesc": {"type": "string"},
                                    "jobsiteId": {
                                       "format": "int32",
                                       "type": "integer"
                                    }
                                 }
                              }
                           },
                           "status": {"type": "string"},
                           "customer": {
                              "type": "object",
                              "properties": {
                                 "customerId": {
                                    "format": "int32",
                                    "type": "integer"
                                 },
                                 "customerName": {"type": "string"}
                              }
                           },
                           "applications": {
                              "type": "array",
                              "items": {
                                 "type": "object",
                                 "properties": {
                                    "userAuth": {"type": "string"},
                                    "applicationId": {
                                       "format": "int32",
                                       "type": "integer"
                                    },
                                    "applicationName": {"type": "string"}
                                 }
                              }
                           }
                        }
                     }
                  }}},
                  "description": "Successful response"
               },
               "500": {
                  "examples": {"application/json": {
                     "moreInformation": {"type": "string"},
                     "httpMessage": {"type": "string"},
                     "reasonCode": {"type": "string"},
                     "httpCode": {"type": "string"}
                  }},
                  "description": "Internal Server Error"
               }
            },
            "parameters": [
               {
                  "in": "header",
                  "name": "accept",
                  "description": "Advertises which content types expressed as MIME types the client is able to understand.",
                  "type": "string"
               },
               {
                  "in": "header",
                  "name": "accept-language",
                  "description": "Advertises which languages and locale variant the client is able to understand.",
                  "type": "string",
                  "required": true
               },
               {
                  "in": "header",
                  "name": "app-code",
                  "description": "Advertises which application is requesting the information.",
                  "type": "string",
                  "required": true
               },
               {
                  "in": "header",
                  "name": "jwt",
                  "description": "JSON Web Token JWT, represent claims to be transferred between two parties RFC 7519.",
                  "type": "string",
                  "required": true
               },
               {
                  "in": "header",
                  "name": "Authorization",
                  "description": "Access Token",
                  "type": "string",
                  "required": true
               }
            ]
         }
      },
      "/requestaccess": {"post": {
         "produces": ["application/json"],
         "description": "request first user",
         "operationId": "/requestaccess postrequestaccess",
         "responses": {
            "200": {"description": "Succesful Response"},
            "500": {
               "examples": {"application/json": {
                  "moreInformation": {"type": "string"},
                  "httpMessage": {"type": "string"},
                  "reasonCode": {"type": "string"},
                  "httpCode": {"type": "string"}
               }},
               "description": "Internal Error"
            }
         },
         "parameters": [{
            "schema": {"example": "{\"firstName\":{\"type\":\"string\"},\"lastName\":{\"type\":\"string\"},\"phone\":{\"type\":\"string\"},\"email\":{\"type\":\"string\"},\"customerNumber\":{\"type\":\"string\"},\"country\":{\"type\":\"string\"}}"},
            "in": "body",
            "name": "body",
            "description": "data user"
         }],
         "consumes": ["application/json"]
      }},
      "/user/applications": {"get": {
         "produces": ["application/json"],
         "operationId": "/user/applications getApplications",
         "responses": {"200": {"description": "200 OK"}},
         "parameters": [{
            "in": "query",
            "name": "userAccount",
            "description": "",
            "type": "string",
            "required": true
         }]
      }},
      "/user/{userId}/applications/{appCode}": {
         "get": {
            "produces": ["application/json"],
            "operationId": "/user/{userId}/applications/{appCode} getUserPermissionsByAppCode",
            "responses": {"200": {"description": "200 OK"}},
            "parameters": [
               {
                  "in": "path",
                  "name": "userId",
                  "type": "string",
                  "required": true
               },
               {
                  "in": "path",
                  "name": "appCode",
                  "type": "string",
                  "required": true
               }
            ]
         },
         "delete": {
            "produces": ["application/json"],
            "operationId": "/user/{userId}/applications/{appCode} deletePermissionByAppCode",
            "responses": {"200": {"description": "200 OK"}},
            "parameters": [
               {
                  "in": "path",
                  "name": "userId",
                  "description": "",
                  "type": "string",
                  "required": true
               },
               {
                  "in": "path",
                  "name": "appCode",
                  "description": "",
                  "type": "string",
                  "required": true
               }
            ]
         }
      },
      "/mysettings/devices": {"post": {
         "produces": ["application/json"],
         "description": "Create device configurations for the auth user \r\n",
         "operationId": "/mysettings/devices postDevices",
         "responses": {
            "200": {"description": "OK"},
            "500": {
               "examples": {"application/json": {
                  "moreInformation": {"type": "string"},
                  "httpMessage": {"type": "string"},
                  "reasonCode": {"type": "string"},
                  "httpCode": {"type": "string"}
               }},
               "description": "Internal Server Error"
            }
         },
         "parameters": [{
            "schema": {"example": "{\"notifications\":{\"type\":\"object\",\"properties\":{\"orders\":{\"type\":\"object\",\"properties\":{\"reminder\":{\"type\":\"integer\",\"format\":\"int32\"},\"statusChange\":{\"type\":\"integer\",\"format\":\"int32\"},\"orderSummary\":{\"type\":\"integer\",\"format\":\"int32\"},\"modifications\":{\"type\":\"integer\",\"format\":\"int32\"}}},\"loads\":{\"type\":\"object\",\"properties\":{\"firstBatched\":{\"type\":\"integer\",\"format\":\"int32\"},\"lastBatched\":{\"type\":\"integer\",\"format\":\"int32\"},\"everyTruck\":{\"type\":\"integer\",\"format\":\"int32\"},\"variance\":{\"type\":\"integer\",\"format\":\"int32\"}}}}},\"devices\":{\"type\":\"object\",\"properties\":{\"deviceId\":{\"type\":\"string\"},\"uuid\":{\"type\":\"string\"},\"platform\":{\"type\":\"string\"},\"token\":{\"type\":\"string\"}}}}"},
            "in": "body",
            "name": "body",
            "description": "settings payload"
         }],
         "consumes": ["application/json"]
      }},
      "/user/applications/{appCode}/roles/{roleCode}/permissions": {"get": {
         "produces": ["application/json"],
         "operationId": "/user/applications/{appCode}/roles/{roleCode}/permissions getPermissions",
         "responses": {"200": {"description": "200 OK"}},
         "parameters": [
            {
               "in": "path",
               "name": "appCode",
               "type": "string",
               "required": true
            },
            {
               "in": "path",
               "name": "roleCode",
               "type": "string",
               "required": true
            }
         ]
      }},
      "/applications/menu": {"get": {
         "produces": ["application/json"],
         "operationId": "/applications/menu getMyMenu",
         "responses": {"200": {"description": "200 OK"}}
      }},
      "/user/applications/{appCode}/roles/{roleCode}": {
         "post": {
            "produces": ["application/json"],
            "operationId": "/user/applications/{appCode}/roles/{roleCode} getRolePost",
            "responses": {"200": {"description": "200 OK"}},
            "parameters": [
               {
                  "in": "path",
                  "name": "appCode",
                  "type": "string",
                  "required": true
               },
               {
                  "in": "path",
                  "name": "roleCode",
                  "type": "string",
                  "required": true
               }
            ]
         },
         "get": {
            "produces": ["application/json"],
            "operationId": "/user/applications/{appCode}/roles/{roleCode} getRoleGet",
            "responses": {"200": {"description": "200 OK"}},
            "parameters": [
               {
                  "in": "path",
                  "name": "appCode",
                  "type": "string",
                  "required": true
               },
               {
                  "in": "path",
                  "name": "roleCode",
                  "type": "string",
                  "required": true
               }
            ]
         },
         "put": {
            "produces": ["application/json"],
            "operationId": "/user/applications/{appCode}/roles/{roleCode} getRolePut",
            "responses": {"200": {"description": "200 OK"}},
            "parameters": [
               {
                  "in": "path",
                  "name": "appCode",
                  "type": "string",
                  "required": true
               },
               {
                  "in": "path",
                  "name": "roleCode",
                  "type": "string",
                  "required": true
               }
            ]
         }
      },
      "/applications": {"get": {
         "produces": ["application/json"],
         "operationId": "/applications getApplicationCatalog",
         "responses": {"200": {"description": "200 OK"}}
      }},
      "/user/applications/{appCode}": {"get": {
         "produces": ["application/json"],
         "operationId": "/user/applications/{appCode} getUserApplicationsByAppCode",
         "responses": {"200": {"description": "200 OK"}},
         "parameters": [{
            "in": "path",
            "name": "appCode",
            "type": "string",
            "required": true
         }]
      }},
      "/request/accessRequest": {"post": {
         "produces": ["application/json"],
         "operationId": "/request/accessRequest saveApplicationAccessReq",
         "responses": {"200": {"description": "200 OK"}},
         "parameters": [
            {
               "in": "header",
               "name": "accept",
               "description": "Advertises which content types expressed as MIME types the client is able to understand.",
               "type": "string"
            },
            {
               "in": "header",
               "name": "accept-language",
               "description": "Advertises which languages and locale variant the client is able to understand.",
               "type": "string",
               "required": true
            },
            {
               "in": "header",
               "name": "app-code",
               "description": "Advertises which application is requesting the information.",
               "type": "string",
               "required": true
            },
            {
               "in": "header",
               "name": "jwt",
               "description": "JSON Web Token JWT, represent claims to be transferred between two parties RFC 7519.",
               "type": "string",
               "required": true
            },
            {
               "in": "header",
               "name": "Authorization",
               "description": "Access Token",
               "type": "string",
               "required": true
            }
         ]
      }},
      "/user/{userId}/applications": {
         "patch": {
            "produces": ["application/json"],
            "operationId": "/user/{userId}/applications updateApplicationsByUserId",
            "responses": {"200": {"description": "200 OK"}},
            "parameters": [{
               "in": "path",
               "name": "userId",
               "description": "",
               "type": "string",
               "required": true
            }]
         },
         "get": {
            "produces": ["application/json"],
            "operationId": "/user/{userId}/applications getApplicationsByUserId",
            "responses": {"200": {"description": "200 OK"}},
            "parameters": [{
               "in": "path",
               "name": "userId",
               "description": "",
               "type": "string",
               "required": true
            }]
         }
      }
   },
   "x-servers": [
      {"url": "https://www.cemexgo.com"},
      {"url": "https://api.cemexgo.com"},
      {"url": "https://eu.cemexgo.com"}
   ],
   "host": "www.cemexgo.com",
   "schemes": ["https"],
   "securityDefinitions": {
      "apiKeyQuery": {
         "in": "query",
         "name": "subscription-key",
         "type": "apiKey"
      },
      "apiKeyHeader": {
         "in": "header",
         "name": "Ocp-Apim-Subscription-Key",
         "type": "apiKey"
      }
   },
   "swagger": "2.0",
   "info": {
      "description": "null #Merged with applicationandpermission_1.0.0.yaml #Merged with userManagement_1.1.0.yaml #Merged with applicationmenu_1.0.0.yaml #Merged with requestacess_1.0.0.yaml",
      "title": "[secm] Security Management v1",
      "version": "1.0"
   }
}
