{
   "security": [
      {"apiKeyHeader": []},
      {"apiKeyQuery": []}
   ],
   "basePath": "/v1/bl",
   "paths": {"/businesslines": {"get": {
      "produces": ["application/json"],
      "description": "Return a list of Business Lines. Using {include} query string to include material structure and the properties (element, unit of measure, transportMethod) for each material.",
      "operationId": "/businesslines getBusinessLines",
      "responses": {
         "200": {
            "examples": {"application/json": {"businesslines": {
               "type": "array",
               "items": {
                  "type": "object",
                  "properties": {
                     "businessLineDesc": {"type": "string"},
                     "businessLineCode": {"type": "string"},
                     "businessLineConfiguration": {
                        "additionalProperties": false,
                        "properties": {
                           "maximumDeliveryUnit": {
                              "additionalProperties": false,
                              "properties": {
                                 "unitDesc": {"type": "string"},
                                 "unitCode": {"type": "string"},
                                 "unitId": {
                                    "format": "int32",
                                    "type": "integer"
                                 }
                              }
                           },
                           "minimumLotDeliveryUnit": {
                              "additionalProperties": false,
                              "properties": {
                                 "unitDesc": {"type": "string"},
                                 "unitCode": {"type": "string"},
                                 "unitId": {
                                    "format": "int32",
                                    "type": "integer"
                                 }
                              }
                           },
                           "maximumVehicleUnit": {
                              "additionalProperties": false,
                              "properties": {
                                 "unitDesc": {"type": "string"},
                                 "unitCode": {"type": "string"},
                                 "unitId": {
                                    "format": "int32",
                                    "type": "integer"
                                 }
                              }
                           }
                        }
                     },
                     "businessLineId": {"type": "integer"}
                  }
               }
            }}},
            "description": "Successful response"
         },
         "500": {
            "examples": {"application/json": {"message": {"type": "string"}}},
            "description": "Internal Error"
         }
      },
      "parameters": [
         {
            "in": "query",
            "name": "include",
            "type": "string"
         },
         {
            "in": "header",
            "name": "accept",
            "description": "Advertises which content types expressed as MIME types the client is able to understand.",
            "type": "string"
         },
         {
            "in": "header",
            "name": "accept-language",
            "description": "Advertises which languages and locale variant the client is able to understand.",
            "type": "string",
            "required": true
         },
         {
            "in": "header",
            "name": "app-code",
            "description": "Advertises which application is requesting the information.",
            "type": "string",
            "required": true
         },
         {
            "in": "header",
            "name": "jwt",
            "description": "JSON Web Token JWT, represent claims to be transferred between two parties RFC 7519.",
            "type": "string",
            "required": true
         },
         {
            "in": "header",
            "name": "Authorization",
            "description": "Access Token",
            "type": "string",
            "required": true
         }
      ]
   }}},
   "x-servers": [
      {"url": "https://www.cemexgo.com"},
      {"url": "https://api.cemexgo.com"},
      {"url": "https://eu.cemexgo.com"}
   ],
   "host": "www.cemexgo.com",
   "schemes": ["https"],
   "securityDefinitions": {
      "apiKeyQuery": {
         "in": "query",
         "name": "subscription-key",
         "type": "apiKey"
      },
      "apiKeyHeader": {
         "in": "header",
         "name": "Ocp-Apim-Subscription-Key",
         "type": "apiKey"
      }
   },
   "swagger": "2.0",
   "info": {
      "description": "API to retrieve all the catalogs with a generic response #Merged with businesslinemanagement_1.1.0.yaml",
      "title": "[bl] Business Line v1",
      "version": "1.0"
   }
}
