{
   "security": [
      {"apiKeyHeader": []},
      {"apiKeyQuery": []}
   ],
   "basePath": "/v1/apm",
   "paths": {
      "/vendorcompany": {"get": {
         "produces": ["application/json"],
         "description": "API Vendors  project, AccountsPayableManagement",
         "operationId": "/vendorcompany getvendorcompany",
         "responses": {
            "200": {
               "examples": {"application/json": {
                  "pi_logging": {"type": "string"},
                  "dummy1": {"type": "string"},
                  "pi_vendor": {"type": "string"},
                  "address_tab_r": {"type": "string"},
                  "co_code": {"type": "string"},
                  "pmnt_terms": {"type": "string"},
                  "vendor_no": {"type": "string"},
                  "co_name": {"type": "string"}
               }},
               "description": "Successful Response"
            },
            "500": {
               "examples": {"application/json": {
                  "moreInformation": {"type": "string"},
                  "httpMessage": {"type": "string"},
                  "reasonCode": {"type": "string"},
                  "httpCode": {"type": "string"}
               }},
               "description": "Internal Error"
            }
         },
         "parameters": [
            {
               "in": "query",
               "name": "pi_vendor",
               "description": "vendor id",
               "type": "string",
               "required": true
            },
            {
               "in": "header",
               "name": "accept",
               "description": "Advertises which content types expressed as MIME types the client is able to understand.",
               "type": "string"
            },
            {
               "in": "header",
               "name": "accept-language",
               "description": "Advertises which languages and locale variant the client is able to understand.",
               "type": "string",
               "required": true
            },
            {
               "in": "header",
               "name": "app-code",
               "description": "Advertises which application is requesting the information.",
               "type": "string",
               "required": true
            },
            {
               "in": "header",
               "name": "jwt",
               "description": "JSON Web Token JWT, represent claims to be transferred between two parties RFC 7519.",
               "type": "string",
               "required": true
            },
            {
               "in": "header",
               "name": "Authorization",
               "description": "Access Token",
               "type": "string",
               "required": true
            }
         ]
      }},
      "/vendorinformation": {"get": {
         "produces": ["application/json"],
         "description": "API Vendors project, AccountsPayableManagement",
         "operationId": "/vendorinformation getvendorinformation",
         "responses": {
            "200": {
               "examples": {"application/json": {
                  "pfort": {"type": "string"},
                  "country": {"type": "string"},
                  "dummy2": {"type": "string"},
                  "city": {"type": "string"},
                  "po_box": {"type": "string"},
                  "zip_code": {"type": "string"},
                  "phone_no2": {"type": "string"},
                  "phone_no1": {"type": "string"},
                  "name4": {"type": "string"},
                  "name3": {"type": "string"},
                  "pi_vendor": {"type": "string"},
                  "street": {"type": "string"},
                  "pstl2": {"type": "string"},
                  "state": {"type": "string"},
                  "name2": {"type": "string"},
                  "faxnumber": {"type": "string"},
                  "vendor_no": {"type": "string"},
                  "name1": {"type": "string"}
               }},
               "description": "Successful Response"
            },
            "500": {
               "examples": {"application/json": {
                  "moreInformation": {"type": "string"},
                  "httpMessage": {"type": "string"},
                  "reasonCode": {"type": "string"},
                  "httpCode": {"type": "string"}
               }},
               "description": "Internal Error"
            }
         },
         "parameters": [
            {
               "in": "query",
               "name": "pi_vendor",
               "description": "vendor id",
               "type": "string",
               "required": true
            },
            {
               "in": "header",
               "name": "accept",
               "description": "Advertises which content types expressed as MIME types the client is able to understand.",
               "type": "string"
            },
            {
               "in": "header",
               "name": "accept-language",
               "description": "Advertises which languages and locale variant the client is able to understand.",
               "type": "string",
               "required": true
            },
            {
               "in": "header",
               "name": "app-code",
               "description": "Advertises which application is requesting the information.",
               "type": "string",
               "required": true
            },
            {
               "in": "header",
               "name": "jwt",
               "description": "JSON Web Token JWT, represent claims to be transferred between two parties RFC 7519.",
               "type": "string",
               "required": true
            },
            {
               "in": "header",
               "name": "Authorization",
               "description": "Access Token",
               "type": "string",
               "required": true
            }
         ]
      }}
   },
   "x-servers": [
      {"url": "https://www.cemexgo.com"},
      {"url": "https://api.cemexgo.com"},
      {"url": "https://eu.cemexgo.com"}
   ],
   "host": "www.cemexgo.com",
   "schemes": ["https"],
   "securityDefinitions": {
      "apiKeyQuery": {
         "in": "query",
         "name": "subscription-key",
         "type": "apiKey"
      },
      "apiKeyHeader": {
         "in": "header",
         "name": "Ocp-Apim-Subscription-Key",
         "type": "apiKey"
      }
   },
   "swagger": "2.0",
   "info": {
      "description": "API Vendors, Get company vendor #Merged with vendorinformation_1.0.0.yaml",
      "title": "[apm] Accounts Payable Management v1",
      "version": "1.0"
   }
}
