{
   "security": [
      {"apiKeyHeader": []},
      {"apiKeyQuery": []}
   ],
   "basePath": "/v5/sm/summary",
   "paths": {
      "/jobsites/orders/{orderid}": {"get": {
         "produces": ["application/json"],
         "description": "API for Order Business Entity",
         "operationId": "/jobsites/orders/{orderid} SF_GetOrderId",
         "responses": {
            "200": {
               "examples": {"application/json": {"Order": {
                  "type": "array",
                  "items": {
                     "type": "object",
                     "properties": {
                        "orderType": {"type": "string"},
                        "actualOrderDateTime": {"type": "string"},
                        "startOrderDateTime": {
                           "format": "date-time",
                           "type": "string"
                        },
                        "orderId": {"type": "integer"},
                        "actualTimeMinutesNum": {"type": "integer"},
                        "orderStatusDesc": {"type": "string"},
                        "routeTime": {"type": "string"},
                        "orderTypeId": {"type": "integer"},
                        "orderBy": {"type": "string"},
                        "AddressItem": {
                           "type": "object",
                           "properties": {
                              "addressCode": {"type": "string"},
                              "altitude": {"type": "string"},
                              "cityDesc": {"type": "string"},
                              "domicileNum": {"type": "string"},
                              "settlementDesc": {"type": "string"},
                              "cityCode": {"type": "string"},
                              "streetCode": {"type": "string"},
                              "postalCode": {"type": "string"},
                              "latitude": {"type": "string"},
                              "timeZone": {"type": "string"},
                              "conurbationCode": {"type": "string"},
                              "settlementCode": {"type": "string"},
                              "addressId": {"type": "integer"},
                              "conurbationDesc": {"type": "string"},
                              "streetName": {"type": "string"},
                              "referenceStreetComplDesc": {"type": "string"},
                              "regionCode": {"type": "string"},
                              "regionDesc": {"type": "string"},
                              "countryCode": {"type": "string"},
                              "domicileComp": {"type": "string"},
                              "zoneDesc": {"type": "string"},
                              "referenceStreetDesc": {"type": "string"},
                              "zoneCode": {"type": "string"},
                              "longitude": {"type": "string"}
                           }
                        },
                        "targetRate": {"type": "integer"},
                        "isReadyMix": {"type": "string"},
                        "DataGraph": {
                           "type": "array",
                           "items": {
                              "type": "object",
                              "properties": {
                                 "pourRate": {"type": "integer"},
                                 "time": {"type": "string"},
                                 "batchRate": {"type": "integer"}
                              }
                           }
                        },
                        "orderReferenceCode": {"type": "string"},
                        "countryCode": {"type": "string"},
                        "referenceDocumentTypeCode": {"type": "string"},
                        "customerId": {"type": "integer"},
                        "referenceDocumentCode": {"type": "string"},
                        "isOrderTruckStatus": {"type": "string"},
                        "requestedOrderDateTime": {"type": "string"},
                        "orderStatusGroupCode": {"type": "string"},
                        "shippingConditionCode": {"type": "string"},
                        "programmedOrderDateTime": {"type": "string"},
                        "routeCode": {"type": "string"},
                        "salesAreaId": {"type": "integer"},
                        "jobsiteId": {"type": "integer"},
                        "instructionsDesc": {"type": "string"},
                        "estimatedTimeMinutesNum": {"type": "integer"},
                        "endOrderDateTime": {
                           "format": "date-time",
                           "type": "string"
                        },
                        "orderStatusId": {"type": "string"},
                        "orderReferenceComp": {"type": "string"},
                        "createdOrderDateTime": {"type": "string"},
                        "spacingNum": {"type": "integer"},
                        "PointOfDelivery": {
                           "type": "object",
                           "properties": {
                              "orderPointOfDeliveryId": {"type": "integer"},
                              "pointOfDeliveryCode": {"type": "string"},
                              "AddressItem": {
                                 "type": "object",
                                 "properties": {
                                    "addressCode": {"type": "string"},
                                    "altitude": {"type": "string"},
                                    "cityDesc": {"type": "string"},
                                    "domicileNum": {"type": "string"},
                                    "settlementDesc": {"type": "string"},
                                    "cityCode": {"type": "string"},
                                    "streetCode": {"type": "string"},
                                    "postalCode": {"type": "string"},
                                    "latitude": {"type": "string"},
                                    "timeZone": {"type": "string"},
                                    "conurbationCode": {"type": "string"},
                                    "settlementCode": {"type": "string"},
                                    "addressId": {"type": "integer"},
                                    "conurbationDesc": {"type": "string"},
                                    "streetName": {"type": "string"},
                                    "referenceStreetComplDesc": {"type": "string"},
                                    "regionCode": {"type": "string"},
                                    "regionDesc": {"type": "string"},
                                    "countryCode": {"type": "string"},
                                    "domicileComp": {"type": "string"},
                                    "zoneDesc": {"type": "string"},
                                    "referenceStreetDesc": {"type": "string"},
                                    "zoneCode": {"type": "string"},
                                    "longitude": {"type": "string"}
                                 }
                              },
                              "pointOfDeliveryDesc": {"type": "string"}
                           }
                        },
                        "OrderItem": {
                           "type": "array",
                           "items": {
                              "type": "object",
                              "properties": {
                                 "orderDetStatusGroupCode": {"type": "string"},
                                 "referenceDocumentHdrCode": {"type": "string"},
                                 "itemSeeqNum": {"type": "integer"},
                                 "ETANum": {"type": "integer"},
                                 "plantId": {"type": "string"},
                                 "loadNumber": {"type": "string"},
                                 "statusOrderDetDateTime": {
                                    "format": "date-time",
                                    "type": "string"
                                 },
                                 "productDesc": {"type": "string"},
                                 "isReadyMix": {"type": "string"},
                                 "orderDetId": {"type": "integer"},
                                 "referenceDocumentHdrTypeCode": {"type": "string"},
                                 "productTypeDesc": {"type": "string"},
                                 "productQuantity": {"type": "number"},
                                 "productCode": {"type": "string"},
                                 "TicketGroupBy": {
                                    "type": "array",
                                    "items": {
                                       "type": "object",
                                       "properties": {
                                          "truckId": {"type": "string"},
                                          "isDelivered": {"type": "string"},
                                          "deliveredQuantity": {"type": "number"},
                                          "ticketStatusGroupCode": {"type": "string"},
                                          "deliveryDateTime": {
                                             "format": "date-time",
                                             "type": "string"
                                          },
                                          "ticketStatus": {"type": "string"},
                                          "ticketId": {"type": "string"},
                                          "ticketStatusDateTime": {"type": "string"}
                                       }
                                    }
                                 },
                                 "orderDetStatus": {"type": "string"},
                                 "programmedOrderDetDateTime": {
                                    "format": "date-time",
                                    "type": "string"
                                 },
                                 "slump": {"type": "string"},
                                 "higherLavelItemSeqNum": {"type": "integer"},
                                 "unitId": {"type": "string"},
                                 "referenceDocumentItemCode": {"type": "string"},
                                 "productTypeCode": {"type": "string"},
                                 "element": {"type": "string"}
                              }
                           }
                        },
                        "JobsiteItem": {
                           "type": "object",
                           "properties": {
                              "jobsiteCode": {"type": "string"},
                              "jobsiteDesc": {"type": "string"},
                              "AddressItem": {
                                 "type": "object",
                                 "properties": {
                                    "addressCode": {"type": "string"},
                                    "altitude": {"type": "string"},
                                    "cityDesc": {"type": "string"},
                                    "domicileNum": {"type": "string"},
                                    "settlementDesc": {"type": "string"},
                                    "cityCode": {"type": "string"},
                                    "streetCode": {"type": "string"},
                                    "postalCode": {"type": "string"},
                                    "latitude": {"type": "string"},
                                    "timeZone": {"type": "string"},
                                    "conurbationCode": {"type": "string"},
                                    "settlementCode": {"type": "string"},
                                    "addressId": {"type": "integer"},
                                    "conurbationDesc": {"type": "string"},
                                    "streetName": {"type": "string"},
                                    "referenceStreetComplDesc": {"type": "string"},
                                    "regionCode": {"type": "string"},
                                    "regionDesc": {"type": "string"},
                                    "countryCode": {"type": "string"},
                                    "domicileComp": {"type": "string"},
                                    "zoneDesc": {"type": "string"},
                                    "referenceStreetDesc": {"type": "string"},
                                    "zoneCode": {"type": "string"},
                                    "longitude": {"type": "string"}
                                 }
                              },
                              "statusNotification": {"type": "string"}
                           }
                        },
                        "purchaseOrder": {"type": "string"},
                        "orderCode": {"type": "string"},
                        "shippingConditionId": {"type": "integer"},
                        "statusOrderDateTime": {"type": "string"},
                        "spacingDesc": {"type": "integer"},
                        "isDataGraph": {"type": "string"},
                        "updatedOrderDateTime": {"type": "string"}
                     }
                  }
               }}},
               "description": "Successful response"
            },
            "500": {
               "examples": {"application/json": {"message": {"type": "string"}}},
               "description": "Internal Error"
            }
         },
         "parameters": [
            {
               "in": "path",
               "name": "orderid",
               "description": "oder object",
               "type": "string",
               "required": true
            },
            {
               "in": "query",
               "name": "include",
               "description": "String that can be used by the Data Services to retrieve specific ticket information and should be used like this (include=shipment,shipment.driver,ticketItems,order,order.jobSite,weight)",
               "type": "string"
            },
            {
               "in": "header",
               "name": "accept",
               "description": "Advertises which content types expressed as MIME types the client is able to understand.",
               "type": "string"
            },
            {
               "in": "header",
               "name": "accept-language",
               "description": "Advertises which languages and locale variant the client is able to understand.",
               "type": "string",
               "required": true
            },
            {
               "in": "header",
               "name": "app-code",
               "description": "Advertises which application is requesting the information.",
               "type": "string",
               "required": true
            },
            {
               "in": "header",
               "name": "jwt",
               "description": "JSON Web Token JWT, represent claims to be transferred between two parties RFC 7519.",
               "type": "string",
               "required": true
            },
            {
               "in": "header",
               "name": "Authorization",
               "description": "Access Token",
               "type": "string",
               "required": true
            }
         ]
      }},
      "/jobsites/{jobsiteid}/orders": {"get": {
         "produces": ["application/json"],
         "description": "API for Order Business Entity",
         "operationId": "/jobsites/{jobsiteid}/orders SF_GetOrders",
         "responses": {
            "200": {
               "examples": {"application/json": {
                  "Orders": {
                     "type": "array",
                     "items": {
                        "type": "object",
                        "properties": {
                           "orderType": {"type": "string"},
                           "actualOrderDateTime": {"type": "string"},
                           "startOrderDateTime": {
                              "format": "date-time",
                              "type": "string"
                           },
                           "orderId": {"type": "integer"},
                           "actualTimeMinutesNum": {"type": "integer"},
                           "orderStatusDesc": {"type": "string"},
                           "routeTime": {"type": "string"},
                           "orderTypeId": {"type": "integer"},
                           "orderBy": {"type": "string"},
                           "AddressItem": {
                              "type": "object",
                              "properties": {
                                 "addressCode": {"type": "string"},
                                 "altitude": {"type": "string"},
                                 "cityDesc": {"type": "string"},
                                 "domicileNum": {"type": "string"},
                                 "settlementDesc": {"type": "string"},
                                 "cityCode": {"type": "string"},
                                 "streetCode": {"type": "string"},
                                 "postalCode": {"type": "string"},
                                 "latitude": {"type": "string"},
                                 "timeZone": {"type": "string"},
                                 "conurbationCode": {"type": "string"},
                                 "settlementCode": {"type": "string"},
                                 "addressId": {"type": "integer"},
                                 "conurbationDesc": {"type": "string"},
                                 "streetName": {"type": "string"},
                                 "referenceStreetComplDesc": {"type": "string"},
                                 "regionCode": {"type": "string"},
                                 "regionDesc": {"type": "string"},
                                 "countryCode": {"type": "string"},
                                 "domicileComp": {"type": "string"},
                                 "zoneDesc": {"type": "string"},
                                 "referenceStreetDesc": {"type": "string"},
                                 "zoneCode": {"type": "string"},
                                 "longitude": {"type": "string"}
                              }
                           },
                           "targetRate": {"type": "integer"},
                           "isReadyMix": {"type": "string"},
                           "DataGraph": {
                              "type": "array",
                              "items": {
                                 "type": "object",
                                 "properties": {
                                    "pourRate": {"type": "integer"},
                                    "time": {"type": "string"},
                                    "batchRate": {"type": "integer"}
                                 }
                              }
                           },
                           "orderReferenceCode": {"type": "string"},
                           "countryCode": {"type": "string"},
                           "referenceDocumentTypeCode": {"type": "string"},
                           "customerId": {"type": "integer"},
                           "referenceDocumentCode": {"type": "string"},
                           "isOrderTruckStatus": {"type": "string"},
                           "requestedOrderDateTime": {"type": "string"},
                           "orderStatusGroupCode": {"type": "string"},
                           "shippingConditionCode": {"type": "string"},
                           "programmedOrderDateTime": {"type": "string"},
                           "routeCode": {"type": "string"},
                           "salesAreaId": {"type": "integer"},
                           "jobsiteId": {"type": "integer"},
                           "instructionsDesc": {"type": "string"},
                           "estimatedTimeMinutesNum": {"type": "integer"},
                           "endOrderDateTime": {
                              "format": "date-time",
                              "type": "string"
                           },
                           "orderStatusId": {"type": "string"},
                           "orderReferenceComp": {"type": "string"},
                           "createdOrderDateTime": {"type": "string"},
                           "spacingNum": {"type": "integer"},
                           "PointOfDelivery": {
                              "type": "object",
                              "properties": {
                                 "orderPointOfDeliveryId": {"type": "integer"},
                                 "pointOfDeliveryCode": {"type": "string"},
                                 "AddressItem": {
                                    "type": "object",
                                    "properties": {
                                       "addressCode": {"type": "string"},
                                       "altitude": {"type": "string"},
                                       "cityDesc": {"type": "string"},
                                       "domicileNum": {"type": "string"},
                                       "settlementDesc": {"type": "string"},
                                       "cityCode": {"type": "string"},
                                       "streetCode": {"type": "string"},
                                       "postalCode": {"type": "string"},
                                       "latitude": {"type": "string"},
                                       "timeZone": {"type": "string"},
                                       "conurbationCode": {"type": "string"},
                                       "settlementCode": {"type": "string"},
                                       "addressId": {"type": "integer"},
                                       "conurbationDesc": {"type": "string"},
                                       "streetName": {"type": "string"},
                                       "referenceStreetComplDesc": {"type": "string"},
                                       "regionCode": {"type": "string"},
                                       "regionDesc": {"type": "string"},
                                       "countryCode": {"type": "string"},
                                       "domicileComp": {"type": "string"},
                                       "zoneDesc": {"type": "string"},
                                       "referenceStreetDesc": {"type": "string"},
                                       "zoneCode": {"type": "string"},
                                       "longitude": {"type": "string"}
                                    }
                                 },
                                 "pointOfDeliveryDesc": {"type": "string"}
                              }
                           },
                           "OrderItem": {
                              "type": "array",
                              "items": {
                                 "type": "object",
                                 "properties": {
                                    "orderDetStatusGroupCode": {"type": "string"},
                                    "referenceDocumentHdrCode": {"type": "string"},
                                    "itemSeeqNum": {"type": "integer"},
                                    "ETANum": {"type": "integer"},
                                    "plantId": {"type": "string"},
                                    "loadNumber": {"type": "string"},
                                    "statusOrderDetDateTime": {
                                       "format": "date-time",
                                       "type": "string"
                                    },
                                    "productDesc": {"type": "string"},
                                    "isReadyMix": {"type": "string"},
                                    "orderDetId": {"type": "integer"},
                                    "referenceDocumentHdrTypeCode": {"type": "string"},
                                    "productTypeDesc": {"type": "string"},
                                    "productQuantity": {"type": "number"},
                                    "productCode": {"type": "string"},
                                    "TicketGroupBy": {
                                       "type": "array",
                                       "items": {
                                          "type": "object",
                                          "properties": {
                                             "truckId": {"type": "string"},
                                             "isDelivered": {"type": "string"},
                                             "deliveredQuantity": {"type": "number"},
                                             "ticketStatusGroupCode": {"type": "string"},
                                             "deliveryDateTime": {
                                                "format": "date-time",
                                                "type": "string"
                                             },
                                             "ticketStatus": {"type": "string"},
                                             "ticketId": {"type": "string"},
                                             "ticketStatusDateTime": {"type": "string"}
                                          }
                                       }
                                    },
                                    "orderDetStatus": {"type": "string"},
                                    "programmedOrderDetDateTime": {
                                       "format": "date-time",
                                       "type": "string"
                                    },
                                    "slump": {"type": "string"},
                                    "higherLavelItemSeqNum": {"type": "integer"},
                                    "unitId": {"type": "string"},
                                    "referenceDocumentItemCode": {"type": "string"},
                                    "productTypeCode": {"type": "string"},
                                    "element": {"type": "string"}
                                 }
                              }
                           },
                           "purchaseOrder": {"type": "string"},
                           "orderCode": {"type": "string"},
                           "shippingConditionId": {"type": "integer"},
                           "statusOrderDateTime": {"type": "string"},
                           "spacingDesc": {"type": "integer"},
                           "isDataGraph": {"type": "string"},
                           "updatedOrderDateTime": {"type": "string"}
                        }
                     }
                  },
                  "JobsiteItem": {
                     "type": "object",
                     "properties": {
                        "jobsiteCode": {"type": "string"},
                        "jobsiteDesc": {"type": "string"},
                        "AddressItem": {
                           "type": "object",
                           "properties": {
                              "addressCode": {"type": "string"},
                              "altitude": {"type": "string"},
                              "cityDesc": {"type": "string"},
                              "domicileNum": {"type": "string"},
                              "settlementDesc": {"type": "string"},
                              "cityCode": {"type": "string"},
                              "streetCode": {"type": "string"},
                              "postalCode": {"type": "string"},
                              "latitude": {"type": "string"},
                              "timeZone": {"type": "string"},
                              "conurbationCode": {"type": "string"},
                              "settlementCode": {"type": "string"},
                              "addressId": {"type": "integer"},
                              "conurbationDesc": {"type": "string"},
                              "streetName": {"type": "string"},
                              "referenceStreetComplDesc": {"type": "string"},
                              "regionCode": {"type": "string"},
                              "regionDesc": {"type": "string"},
                              "countryCode": {"type": "string"},
                              "domicileComp": {"type": "string"},
                              "zoneDesc": {"type": "string"},
                              "referenceStreetDesc": {"type": "string"},
                              "zoneCode": {"type": "string"},
                              "longitude": {"type": "string"}
                           }
                        },
                        "statusNotification": {"type": "string"}
                     }
                  }
               }},
               "description": "Successful response"
            },
            "500": {
               "examples": {"application/json": {"message": {"type": "string"}}},
               "description": "Internal Error"
            }
         },
         "parameters": [
            {
               "in": "path",
               "name": "jobsiteid",
               "description": "oder object",
               "type": "string",
               "required": true
            },
            {
               "in": "query",
               "name": "startdate",
               "description": "date object",
               "type": "string"
            },
            {
               "in": "query",
               "name": "enddate",
               "description": "date object",
               "type": "string"
            },
            {
               "in": "query",
               "name": "include",
               "description": "String that can be used by the Data Services to retrieve specific ticket information and should be used like this (include=jobsite.address)",
               "type": "string"
            },
            {
               "in": "header",
               "name": "accept",
               "description": "Advertises which content types expressed as MIME types the client is able to understand.",
               "type": "string"
            },
            {
               "in": "header",
               "name": "accept-language",
               "description": "Advertises which languages and locale variant the client is able to understand.",
               "type": "string",
               "required": true
            },
            {
               "in": "header",
               "name": "app-code",
               "description": "Advertises which application is requesting the information.",
               "type": "string",
               "required": true
            },
            {
               "in": "header",
               "name": "jwt",
               "description": "JSON Web Token JWT, represent claims to be transferred between two parties RFC 7519.",
               "type": "string",
               "required": true
            },
            {
               "in": "header",
               "name": "Authorization",
               "description": "Access Token",
               "type": "string",
               "required": true
            }
         ]
      }}
   },
   "x-servers": [
      {"url": "https://www.cemexgo.com"},
      {"url": "https://api.cemexgo.com"},
      {"url": "https://eu.cemexgo.com"}
   ],
   "host": "www.cemexgo.com",
   "schemes": ["https"],
   "securityDefinitions": {
      "apiKeyQuery": {
         "in": "query",
         "name": "subscription-key",
         "type": "apiKey"
      },
      "apiKeyHeader": {
         "in": "header",
         "name": "Ocp-Apim-Subscription-Key",
         "type": "apiKey"
      }
   },
   "swagger": "2.0",
   "info": {
      "description": "Read Orders API either by jobsiteId or by orderId. #Merged with orderdetail_5.0.0.yaml",
      "title": "v5/sm/summary",
      "version": "1.0"
   }
}
