{
   "security": [
      {"apiKeyHeader": []},
      {"apiKeyQuery": []}
   ],
   "basePath": "/v3/crm",
   "paths": {
      "/contacts/{contactId}": {"get": {
         "produces": ["application/json"],
         "description": "API to retrieve contacts information related specific authenticated contact",
         "operationId": "/contacts/{contactId} GetAuthContactById",
         "responses": {
            "200": {
               "examples": {"application/json": {
                  "extension": {"type": "string"},
                  "contactId": {"type": "integer"},
                  "contactCode": {"type": "string"},
                  "phone": {"type": "string"},
                  "name": {"type": "string"},
                  "links": {
                     "additionalProperties": false,
                     "properties": {"self": {"type": "string"}}
                  },
                  "countryAreaCode": {"type": "string"},
                  "email": {"type": "string"}
               }},
               "description": "Successful response"
            },
            "500": {
               "examples": {"application/json": {"message": {"type": "string"}}},
               "description": "Internal Error"
            }
         },
         "parameters": [
            {
               "in": "path",
               "name": "contactId",
               "description": "QueryString Parameter Used to filter the contact",
               "type": "integer",
               "required": true
            },
            {
               "in": "header",
               "name": "accept",
               "description": "Advertises which content types expressed as MIME types the client is able to understand.",
               "type": "string"
            },
            {
               "in": "header",
               "name": "accept-language",
               "description": "Advertises which languages and locale variant the client is able to understand.",
               "type": "string",
               "required": true
            },
            {
               "in": "header",
               "name": "app-code",
               "description": "Advertises which application is requesting the information.",
               "type": "string",
               "required": true
            },
            {
               "in": "header",
               "name": "jwt",
               "description": "JSON Web Token JWT, represent claims to be transferred between two parties RFC 7519.",
               "type": "string",
               "required": true
            },
            {
               "in": "header",
               "name": "Authorization",
               "description": "Access Token",
               "type": "string",
               "required": true
            }
         ]
      }},
      "/mycontacts": {"get": {
         "produces": ["application/json"],
         "description": "API to retrieve all contact related to the authenticated user",
         "operationId": "/mycontacts GetAuthMyContacts",
         "responses": {
            "200": {
               "examples": {"application/json": {
                  "count": {
                     "format": "int32",
                     "type": "integer"
                  },
                  "links": {
                     "additionalProperties": false,
                     "properties": {"self": {"type": "string"}}
                  },
                  "totalCount": {
                     "format": "int32",
                     "type": "integer"
                  },
                  "contacts": {
                     "type": "array",
                     "items": {
                        "type": "object",
                        "properties": {
                           "extension": {"type": "string"},
                           "contactId": {"type": "integer"},
                           "contactCode": {"type": "string"},
                           "phone": {"type": "string"},
                           "name": {"type": "string"},
                           "links": {
                              "additionalProperties": false,
                              "properties": {"self": {"type": "string"}}
                           },
                           "contactType": {
                              "type": "object",
                              "properties": {
                                 "contactDepartment": {"type": "string"},
                                 "contactTypeCode": {"type": "string"},
                                 "contactMainContactFlag": {"type": "boolean"},
                                 "contactRole": {
                                    "type": "object",
                                    "properties": {
                                       "contactPersonRoleDesc": {"type": "string"},
                                       "contactPersonRoleId": {"type": "integer"}
                                    }
                                 },
                                 "links": {
                                    "additionalProperties": false,
                                    "properties": {"self": {"type": "string"}}
                                 },
                                 "contactTypeId": {"type": "integer"}
                              }
                           },
                           "countryAreaCode": {"type": "string"},
                           "email": {"type": "string"}
                        }
                     }
                  }
               }},
               "description": "Successful response"
            },
            "500": {
               "examples": {"application/json": {"message": {"type": "string"}}},
               "description": "Internal Error"
            }
         },
         "parameters": [
            {
               "in": "query",
               "name": "contactId",
               "description": "QueryString Parameter Used to filter the Authenticated user Contacts by ContactId",
               "type": "string"
            },
            {
               "in": "query",
               "name": "contactTypeCode",
               "description": "QueryString Parameter Used to filter the Authenticated user Contacts by ContactType",
               "type": "string"
            },
            {
               "in": "query",
               "name": "legalEntityId",
               "description": "QueryString Parameter Used to filter the Authenticated user Contacts by LegalEntityId",
               "type": "string"
            },
            {
               "in": "query",
               "name": "shipmentLocationId",
               "description": "QueryString Parameter Used to filter the Authenticated user Contacts by ShipmentLocationId",
               "type": "string"
            },
            {
               "in": "query",
               "name": "orderBy",
               "description": "QueryString used to order the array response by a specific attribute or criteria",
               "type": "string"
            },
            {
               "in": "query",
               "name": "page",
               "description": "Optional parameter used on pagination defines the pagination page to be fetch",
               "type": "integer"
            },
            {
               "in": "query",
               "name": "fetch",
               "description": "Optional parameter used on pagination defines the records to be fetch",
               "type": "integer"
            },
            {
               "in": "header",
               "name": "accept",
               "description": "Advertises which content types expressed as MIME types the client is able to understand.",
               "type": "string"
            },
            {
               "in": "header",
               "name": "accept-language",
               "description": "Advertises which languages and locale variant the client is able to understand.",
               "type": "string",
               "required": true
            },
            {
               "in": "header",
               "name": "app-code",
               "description": "Advertises which application is requesting the information.",
               "type": "string",
               "required": true
            },
            {
               "in": "header",
               "name": "jwt",
               "description": "JSON Web Token JWT, represent claims to be transferred between two parties RFC 7519.",
               "type": "string",
               "required": true
            },
            {
               "in": "header",
               "name": "Authorization",
               "description": "Access Token",
               "type": "string",
               "required": true
            }
         ]
      }},
      "/jobsitecontacts/{jobsiteContactId}": {"get": {
         "produces": ["application/json"],
         "description": "API to retrieve contacts information related specific authenticated jobsites contact",
         "operationId": "/jobsitecontacts/{jobsiteContactId} GetAuthJobsiteContactById",
         "responses": {
            "200": {
               "examples": {"application/json": {
                  "contactDepartment": {"type": "string"},
                  "jobsiteContactId": {"type": "integer"},
                  "contactId": {
                     "type": "object",
                     "properties": {
                        "extension": {"type": "string"},
                        "contactId": {"type": "integer"},
                        "contactCode": {"type": "string"},
                        "phone": {"type": "string"},
                        "name": {"type": "string"},
                        "links": {
                           "additionalProperties": false,
                           "properties": {"self": {"type": "string"}}
                        },
                        "countryAreaCode": {"type": "string"},
                        "email": {"type": "string"}
                     }
                  },
                  "jobsiteId": {
                     "type": "object",
                     "properties": {
                        "jobsiteId": {"type": "integer"},
                        "links": {
                           "additionalProperties": false,
                           "properties": {"self": {"type": "string"}}
                        }
                     }
                  },
                  "links": {
                     "additionalProperties": false,
                     "properties": {"self": {"type": "string"}}
                  },
                  "contactDepartmentCode": {"type": "string"},
                  "isPrimaryContact": {"type": "boolean"},
                  "contactPersonRole": {
                     "type": "object",
                     "properties": {
                        "contactPersonRoleDesc": {"type": "string"},
                        "contactPersonRoleId": {"type": "integer"}
                     }
                  }
               }},
               "description": "Successful response"
            },
            "500": {
               "examples": {"application/json": {"message": {"type": "string"}}},
               "description": "Internal Error"
            }
         },
         "parameters": [
            {
               "in": "path",
               "name": "jobsiteContactId",
               "description": "QueryString Parameter Used to filter the jobsites contact",
               "type": "integer",
               "required": true
            },
            {
               "in": "header",
               "name": "accept",
               "description": "Advertises which content types expressed as MIME types the client is able to understand.",
               "type": "string"
            },
            {
               "in": "header",
               "name": "accept-language",
               "description": "Advertises which languages and locale variant the client is able to understand.",
               "type": "string",
               "required": true
            },
            {
               "in": "header",
               "name": "app-code",
               "description": "Advertises which application is requesting the information.",
               "type": "string",
               "required": true
            },
            {
               "in": "header",
               "name": "jwt",
               "description": "JSON Web Token JWT, represent claims to be transferred between two parties RFC 7519.",
               "type": "string",
               "required": true
            },
            {
               "in": "header",
               "name": "Authorization",
               "description": "Access Token",
               "type": "string",
               "required": true
            }
         ]
      }},
      "/jobsitecontacts": {"get": {
         "produces": ["application/json"],
         "description": "API to retrieve all contacts related to the authenticated jobsites",
         "operationId": "/jobsitecontacts GetAuthJobsiteContacts",
         "responses": {
            "200": {
               "examples": {"application/json": {
                  "count": {
                     "format": "int32",
                     "type": "integer"
                  },
                  "links": {
                     "additionalProperties": false,
                     "properties": {"self": {"type": "string"}}
                  },
                  "totalCount": {
                     "format": "int32",
                     "type": "integer"
                  },
                  "jobsitecontact": {
                     "type": "array",
                     "items": {
                        "type": "object",
                        "properties": {
                           "contactDepartment": {"type": "string"},
                           "jobsiteContactId": {"type": "integer"},
                           "contactId": {
                              "type": "object",
                              "properties": {
                                 "extension": {"type": "string"},
                                 "contactId": {"type": "integer"},
                                 "contactCode": {"type": "string"},
                                 "phone": {"type": "string"},
                                 "name": {"type": "string"},
                                 "links": {
                                    "additionalProperties": false,
                                    "properties": {"self": {"type": "string"}}
                                 },
                                 "countryAreaCode": {"type": "string"},
                                 "email": {"type": "string"}
                              }
                           },
                           "jobsiteId": {
                              "type": "object",
                              "properties": {
                                 "jobsiteId": {"type": "integer"},
                                 "links": {
                                    "additionalProperties": false,
                                    "properties": {"self": {"type": "string"}}
                                 }
                              }
                           },
                           "links": {
                              "additionalProperties": false,
                              "properties": {"self": {"type": "string"}}
                           },
                           "contactDepartmentCode": {"type": "string"},
                           "isPrimaryContact": {"type": "boolean"},
                           "contactPersonRole": {
                              "type": "object",
                              "properties": {
                                 "contactPersonRoleDesc": {"type": "string"},
                                 "contactPersonRoleId": {"type": "integer"}
                              }
                           }
                        }
                     }
                  }
               }},
               "description": "Successful response"
            },
            "500": {
               "examples": {"application/json": {"message": {"type": "string"}}},
               "description": "Internal Error"
            }
         },
         "parameters": [
            {
               "in": "query",
               "name": "jobsiteId",
               "description": "QueryString Parameter Used to filter the Authenticated user Jobsites",
               "type": "string"
            },
            {
               "in": "query",
               "name": "orderBy",
               "description": "QueryString used to order the array response by a specific attribute or criteria",
               "type": "string"
            },
            {
               "in": "query",
               "name": "page",
               "description": "Optional parameter used on pagination defines the pagination page to be fetch",
               "type": "integer"
            },
            {
               "in": "query",
               "name": "fetch",
               "description": "Optional parameter used on pagination defines the records to be fetch",
               "type": "integer"
            },
            {
               "in": "header",
               "name": "accept",
               "description": "Advertises which content types expressed as MIME types the client is able to understand.",
               "type": "string"
            },
            {
               "in": "header",
               "name": "accept-language",
               "description": "Advertises which languages and locale variant the client is able to understand.",
               "type": "string",
               "required": true
            },
            {
               "in": "header",
               "name": "app-code",
               "description": "Advertises which application is requesting the information.",
               "type": "string",
               "required": true
            },
            {
               "in": "header",
               "name": "jwt",
               "description": "JSON Web Token JWT, represent claims to be transferred between two parties RFC 7519.",
               "type": "string",
               "required": true
            },
            {
               "in": "header",
               "name": "Authorization",
               "description": "Access Token",
               "type": "string",
               "required": true
            }
         ]
      }},
      "/contactrequests": {
         "post": {
            "produces": ["application/json"],
            "operationId": "/contactrequests postContactRequests",
            "responses": {
               "200": {
                  "examples": {"application/json": {
                     "extension": {"type": "string"},
                     "contactRequestId": {
                        "format": "int32",
                        "type": "integer"
                     },
                     "countryCallingCode": {"type": "string"},
                     "phone": {"type": "string"},
                     "name": {"type": "string"},
                     "link": {
                        "additionalProperties": false,
                        "properties": {
                           "next": {"type": "string"},
                           "previous": {"type": "string"},
                           "self": {"type": "string"}
                        }
                     },
                     "contactRole": {
                        "type": "object",
                        "properties": {"contactRoleDesc": {"type": "string"}}
                     },
                     "countryAreaCode": {"type": "string"},
                     "isPrimaryContact": {"type": "boolean"},
                     "contactRequestType": {
                        "additionalProperties": false,
                        "properties": {
                           "contactRequestTypeId": {
                              "format": "int32",
                              "type": "integer"
                           },
                           "links": {
                              "additionalProperties": false,
                              "properties": {
                                 "next": {"type": "string"},
                                 "previous": {"type": "string"},
                                 "self": {"type": "string"}
                              }
                           },
                           "contactRequestTypeDesc": {"type": "string"}
                        }
                     },
                     "email": {"type": "string"}
                  }},
                  "description": "Successful response"
               },
               "401": {
                  "examples": {"application/json": {"message": {"type": "string"}}},
                  "description": "Unauthorized"
               },
               "500": {
                  "examples": {"application/json": {"message": {"type": "string"}}},
                  "description": "Internal server error"
               }
            },
            "parameters": [
               {
                  "in": "header",
                  "name": "accept",
                  "description": "Advertises which content types expressed as MIME types the client is able to understand.",
                  "type": "string"
               },
               {
                  "in": "header",
                  "name": "accept-language",
                  "description": "Advertises which languages and locale variant the client is able to understand.",
                  "type": "string",
                  "required": true
               },
               {
                  "in": "header",
                  "name": "app-code",
                  "description": "Advertises which application is requesting the information.",
                  "type": "string",
                  "required": true
               },
               {
                  "in": "header",
                  "name": "jwt",
                  "description": "JSON Web Token JWT, represent claims to be transferred between two parties RFC 7519.",
                  "type": "string",
                  "required": true
               },
               {
                  "in": "header",
                  "name": "Authorization",
                  "description": "Access Token",
                  "type": "string",
                  "required": true
               }
            ]
         },
         "get": {
            "produces": ["application/json"],
            "operationId": "/contactrequests getContactrequests",
            "responses": {
               "200": {
                  "examples": {"application/json": {
                     "count": {
                        "format": "int32",
                        "type": "integer"
                     },
                     "links": {
                        "additionalProperties": false,
                        "properties": {
                           "next": {"type": "string"},
                           "previous": {"type": "string"},
                           "self": {"type": "string"}
                        }
                     },
                     "totalCount": {
                        "format": "int32",
                        "type": "integer"
                     },
                     "contactRequests": {
                        "type": "array",
                        "items": {
                           "additionalProperties": false,
                           "properties": {
                              "extension": {"type": "string"},
                              "contactRequestId": {
                                 "format": "int32",
                                 "type": "integer"
                              },
                              "countryCallingCode": {"type": "string"},
                              "phone": {"type": "string"},
                              "name": {"type": "string"},
                              "link": {
                                 "additionalProperties": false,
                                 "properties": {
                                    "next": {"type": "string"},
                                    "previous": {"type": "string"},
                                    "self": {"type": "string"}
                                 }
                              },
                              "contactRole": {
                                 "type": "object",
                                 "properties": {"contactRoleDesc": {"type": "string"}}
                              },
                              "countryAreaCode": {"type": "string"},
                              "isPrimaryContact": {"type": "boolean"},
                              "contactRequestType": {
                                 "additionalProperties": false,
                                 "properties": {
                                    "contactRequestTypeId": {
                                       "format": "int32",
                                       "type": "integer"
                                    },
                                    "links": {
                                       "additionalProperties": false,
                                       "properties": {
                                          "next": {"type": "string"},
                                          "previous": {"type": "string"},
                                          "self": {"type": "string"}
                                       }
                                    },
                                    "contactRequestTypeDesc": {"type": "string"}
                                 }
                              },
                              "email": {"type": "string"}
                           }
                        }
                     }
                  }},
                  "description": "Successful response"
               },
               "401": {
                  "examples": {"application/json": {"message": {"type": "string"}}},
                  "description": "Unauthorized"
               },
               "500": {
                  "examples": {"application/json": {"message": {"type": "string"}}},
                  "description": "Internal server error"
               },
               "204": {
                  "examples": {"application/json": {"message": {"type": "string"}}},
                  "description": "No Content"
               }
            },
            "parameters": [
               {
                  "in": "query",
                  "name": "orderBy",
                  "description": "QueryString used to order the array response by a specific attribute or criteria",
                  "type": "string"
               },
               {
                  "in": "query",
                  "name": "offsetId",
                  "description": "Optional parameter used on pagination defines the initial index to be fetch",
                  "type": "integer"
               },
               {
                  "in": "query",
                  "name": "page",
                  "description": "Optional parameter used on pagination defines the pagination page to be fetch",
                  "type": "integer"
               },
               {
                  "in": "query",
                  "name": "fetch",
                  "description": "Optional parameter used on pagination defines the records to be fetch",
                  "type": "integer"
               },
               {
                  "in": "query",
                  "name": "limit",
                  "description": "Optional parameter used on pagination defines maximum no of records to be fetch",
                  "type": "integer"
               },
               {
                  "in": "header",
                  "name": "accept",
                  "description": "Advertises which content types expressed as MIME types the client is able to understand.",
                  "type": "string"
               },
               {
                  "in": "header",
                  "name": "accept-language",
                  "description": "Advertises which languages and locale variant the client is able to understand.",
                  "type": "string",
                  "required": true
               },
               {
                  "in": "header",
                  "name": "app-code",
                  "description": "Advertises which application is requesting the information.",
                  "type": "string",
                  "required": true
               },
               {
                  "in": "header",
                  "name": "jwt",
                  "description": "JSON Web Token JWT, represent claims to be transferred between two parties RFC 7519.",
                  "type": "string",
                  "required": true
               },
               {
                  "in": "header",
                  "name": "Authorization",
                  "description": "Access Token",
                  "type": "string",
                  "required": true
               }
            ]
         }
      },
      "/contactrequests/{contactRequestId}": {
         "patch": {
            "produces": ["application/json"],
            "operationId": "/contactrequests/{contactRequestId} patchContactRequests",
            "responses": {
               "200": {
                  "examples": {"application/json": {
                     "extension": {"type": "string"},
                     "contactRequestId": {
                        "format": "int32",
                        "type": "integer"
                     },
                     "countryCallingCode": {"type": "string"},
                     "phone": {"type": "string"},
                     "name": {"type": "string"},
                     "link": {
                        "additionalProperties": false,
                        "properties": {
                           "next": {"type": "string"},
                           "previous": {"type": "string"},
                           "self": {"type": "string"}
                        }
                     },
                     "contactRole": {
                        "type": "object",
                        "properties": {"contactRoleDesc": {"type": "string"}}
                     },
                     "countryAreaCode": {"type": "string"},
                     "isPrimaryContact": {"type": "boolean"},
                     "contactRequestType": {
                        "additionalProperties": false,
                        "properties": {
                           "contactRequestTypeId": {
                              "format": "int32",
                              "type": "integer"
                           },
                           "links": {
                              "additionalProperties": false,
                              "properties": {
                                 "next": {"type": "string"},
                                 "previous": {"type": "string"},
                                 "self": {"type": "string"}
                              }
                           },
                           "contactRequestTypeDesc": {"type": "string"}
                        }
                     },
                     "email": {"type": "string"}
                  }},
                  "description": "Successful response"
               },
               "401": {
                  "examples": {"application/json": {"message": {"type": "string"}}},
                  "description": "Unauthorized"
               },
               "500": {
                  "examples": {"application/json": {"message": {"type": "string"}}},
                  "description": "Internal server error"
               },
               "204": {
                  "examples": {"application/json": {"message": {"type": "string"}}},
                  "description": "No Content"
               }
            },
            "parameters": [
               {
                  "in": "path",
                  "name": "contactRequestId",
                  "type": "integer",
                  "required": true
               },
               {
                  "in": "header",
                  "name": "accept",
                  "description": "Advertises which content types expressed as MIME types the client is able to understand.",
                  "type": "string"
               },
               {
                  "in": "header",
                  "name": "accept-language",
                  "description": "Advertises which languages and locale variant the client is able to understand.",
                  "type": "string",
                  "required": true
               },
               {
                  "in": "header",
                  "name": "app-code",
                  "description": "Advertises which application is requesting the information.",
                  "type": "string",
                  "required": true
               },
               {
                  "in": "header",
                  "name": "jwt",
                  "description": "JSON Web Token JWT, represent claims to be transferred between two parties RFC 7519.",
                  "type": "string",
                  "required": true
               },
               {
                  "in": "header",
                  "name": "Authorization",
                  "description": "Access Token",
                  "type": "string",
                  "required": true
               }
            ]
         },
         "get": {
            "produces": ["application/json"],
            "operationId": "/contactrequests/{contactRequestId} getContactRequestById",
            "responses": {
               "200": {
                  "examples": {"application/json": {
                     "extension": {"type": "string"},
                     "contactRequestId": {
                        "format": "int32",
                        "type": "integer"
                     },
                     "countryCallingCode": {"type": "string"},
                     "phone": {"type": "string"},
                     "name": {"type": "string"},
                     "link": {
                        "additionalProperties": false,
                        "properties": {
                           "next": {"type": "string"},
                           "previous": {"type": "string"},
                           "self": {"type": "string"}
                        }
                     },
                     "contactRole": {
                        "type": "object",
                        "properties": {"contactRoleDesc": {"type": "string"}}
                     },
                     "countryAreaCode": {"type": "string"},
                     "isPrimaryContact": {"type": "boolean"},
                     "contactRequestType": {
                        "additionalProperties": false,
                        "properties": {
                           "contactRequestTypeId": {
                              "format": "int32",
                              "type": "integer"
                           },
                           "links": {
                              "additionalProperties": false,
                              "properties": {
                                 "next": {"type": "string"},
                                 "previous": {"type": "string"},
                                 "self": {"type": "string"}
                              }
                           },
                           "contactRequestTypeDesc": {"type": "string"}
                        }
                     },
                     "email": {"type": "string"}
                  }},
                  "description": "Successful response"
               },
               "401": {
                  "examples": {"application/json": {"message": {"type": "string"}}},
                  "description": "Unauthorized"
               },
               "500": {
                  "examples": {"application/json": {"message": {"type": "string"}}},
                  "description": "Internal server error"
               },
               "204": {
                  "examples": {"application/json": {"message": {"type": "string"}}},
                  "description": "No Content"
               }
            },
            "parameters": [
               {
                  "in": "path",
                  "name": "contactRequestId",
                  "type": "integer",
                  "required": true
               },
               {
                  "in": "header",
                  "name": "accept",
                  "description": "Advertises which content types expressed as MIME types the client is able to understand.",
                  "type": "string"
               },
               {
                  "in": "header",
                  "name": "accept-language",
                  "description": "Advertises which languages and locale variant the client is able to understand.",
                  "type": "string",
                  "required": true
               },
               {
                  "in": "header",
                  "name": "app-code",
                  "description": "Advertises which application is requesting the information.",
                  "type": "string",
                  "required": true
               },
               {
                  "in": "header",
                  "name": "jwt",
                  "description": "JSON Web Token JWT, represent claims to be transferred between two parties RFC 7519.",
                  "type": "string",
                  "required": true
               },
               {
                  "in": "header",
                  "name": "Authorization",
                  "description": "Access Token",
                  "type": "string",
                  "required": true
               }
            ]
         },
         "delete": {
            "produces": ["application/json"],
            "operationId": "/contactrequests/{contactRequestId} deleteContactRequests",
            "responses": {"200": {"description": "Successful response"}},
            "parameters": [
               {
                  "in": "path",
                  "name": "contactRequestId",
                  "type": "integer",
                  "required": true
               },
               {
                  "in": "header",
                  "name": "accept",
                  "description": "Advertises which content types expressed as MIME types the client is able to understand.",
                  "type": "string"
               },
               {
                  "in": "header",
                  "name": "accept-language",
                  "description": "Advertises which languages and locale variant the client is able to understand.",
                  "type": "string",
                  "required": true
               },
               {
                  "in": "header",
                  "name": "app-code",
                  "description": "Advertises which application is requesting the information.",
                  "type": "string",
                  "required": true
               },
               {
                  "in": "header",
                  "name": "jwt",
                  "description": "JSON Web Token JWT, represent claims to be transferred between two parties RFC 7519.",
                  "type": "string",
                  "required": true
               },
               {
                  "in": "header",
                  "name": "Authorization",
                  "description": "Access Token",
                  "type": "string",
                  "required": true
               }
            ]
         }
      },
      "/contacts": {"get": {
         "produces": ["application/json"],
         "description": "API to retrieve all contact related to the authenticated user",
         "operationId": "/contacts GetAuthContacts",
         "responses": {
            "200": {
               "examples": {"application/json": {
                  "count": {
                     "format": "int32",
                     "type": "integer"
                  },
                  "links": {
                     "additionalProperties": false,
                     "properties": {"self": {"type": "string"}}
                  },
                  "totalCount": {
                     "format": "int32",
                     "type": "integer"
                  },
                  "contacts": {
                     "type": "array",
                     "items": {
                        "type": "object",
                        "properties": {
                           "extension": {"type": "string"},
                           "contactId": {"type": "integer"},
                           "contactCode": {"type": "string"},
                           "phone": {"type": "string"},
                           "name": {"type": "string"},
                           "links": {
                              "additionalProperties": false,
                              "properties": {"self": {"type": "string"}}
                           },
                           "countryAreaCode": {"type": "string"},
                           "email": {"type": "string"}
                        }
                     }
                  }
               }},
               "description": "Successful response"
            },
            "500": {
               "examples": {"application/json": {"message": {"type": "string"}}},
               "description": "Internal Error"
            }
         },
         "parameters": [
            {
               "in": "query",
               "name": "contactId",
               "description": "QueryString Parameter Used to filter the Authenticated user Contacts by ContactId",
               "type": "string"
            },
            {
               "in": "query",
               "name": "orderBy",
               "description": "QueryString used to order the array response by a specific attribute or criteria",
               "type": "string"
            },
            {
               "in": "query",
               "name": "page",
               "description": "Optional parameter used on pagination defines the pagination page to be fetch",
               "type": "integer"
            },
            {
               "in": "query",
               "name": "fetch",
               "description": "Optional parameter used on pagination defines the records to be fetch",
               "type": "integer"
            },
            {
               "in": "header",
               "name": "accept",
               "description": "Advertises which content types expressed as MIME types the client is able to understand.",
               "type": "string"
            },
            {
               "in": "header",
               "name": "accept-language",
               "description": "Advertises which languages and locale variant the client is able to understand.",
               "type": "string",
               "required": true
            },
            {
               "in": "header",
               "name": "app-code",
               "description": "Advertises which application is requesting the information.",
               "type": "string",
               "required": true
            },
            {
               "in": "header",
               "name": "jwt",
               "description": "JSON Web Token JWT, represent claims to be transferred between two parties RFC 7519.",
               "type": "string",
               "required": true
            },
            {
               "in": "header",
               "name": "Authorization",
               "description": "Access Token",
               "type": "string",
               "required": true
            }
         ]
      }}
   },
   "x-servers": [
      {"url": "https://www.cemexgo.com"},
      {"url": "https://api.cemexgo.com"},
      {"url": "https://eu.cemexgo.com"}
   ],
   "host": "www.cemexgo.com",
   "schemes": ["https"],
   "securityDefinitions": {
      "apiKeyQuery": {
         "in": "query",
         "name": "subscription-key",
         "type": "apiKey"
      },
      "apiKeyHeader": {
         "in": "header",
         "name": "Ocp-Apim-Subscription-Key",
         "type": "apiKey"
      }
   },
   "swagger": "2.0",
   "info": {
      "description": "Return a list of contacts based on the parameters used by the application, ?name=x&customerId=n #Merged with contactmanagement_3.0.0.yaml #Merged with contactrequestmanagement_3.0.0.yaml",
      "title": "[crm] Customer Relationship Management v3",
      "version": "1.0"
   }
}
