{
   "security": [
      {"apiKeyHeader": []},
      {"apiKeyQuery": []}
   ],
   "basePath": "/v1/im",
   "paths": {
      "/paymentterms": {"get": {
         "produces": ["application/json"],
         "operationId": "/paymentterms getPaymentTerms",
         "responses": {
            "401": {
               "examples": {"application/json": {"message": {"type": "string"}}},
               "description": "Unauthorized"
            },
            "500": {
               "examples": {"application/json": {"message": {"type": "string"}}},
               "description": "Internal server error"
            }
         },
         "parameters": [
            {
               "in": "query",
               "name": "paymentTermId",
               "description": "paymentTermId to fetch a particular Payment Term.",
               "type": "integer"
            },
            {
               "in": "query",
               "name": "orderBy",
               "description": "queryString used to order the array response by a specific attribute or criteria",
               "type": "string"
            },
            {
               "in": "query",
               "name": "offsetId",
               "description": "Optional parameter used on pagination defines the initial index to be fetch",
               "type": "integer"
            },
            {
               "in": "query",
               "name": "page",
               "description": "Optional parameter used on pagination defines the pagination page to be fetch",
               "type": "integer"
            },
            {
               "in": "query",
               "name": "fetch",
               "description": "Optional parameter used on pagination defines the records to be fetch",
               "type": "integer"
            },
            {
               "in": "header",
               "name": "accept",
               "description": "Advertises which content types expressed as MIME types the client is able to understand.",
               "type": "string"
            },
            {
               "in": "header",
               "name": "accept-language",
               "description": "Advertises which languages and locale variant the client is able to understand.",
               "type": "string",
               "required": true
            },
            {
               "in": "header",
               "name": "app-code",
               "description": "Advertises which application is requesting the information.",
               "type": "string",
               "required": true
            },
            {
               "in": "header",
               "name": "jwt",
               "description": "JSON Web Token JWT, represent claims to be transferred between two parties RFC 7519.",
               "type": "string",
               "required": true
            },
            {
               "in": "header",
               "name": "Authorization",
               "description": "Access Token",
               "type": "string",
               "required": true
            }
         ]
      }},
      "/legalentitytypes": {"get": {
         "produces": ["application/json"],
         "operationId": "/legalentitytypes getLegalEntityTypes",
         "responses": {
            "401": {
               "examples": {"application/json": {"message": {"type": "string"}}},
               "description": "Unauthorized"
            },
            "500": {
               "examples": {"application/json": {"message": {"type": "string"}}},
               "description": "Internal server error"
            }
         },
         "parameters": [
            {
               "in": "query",
               "name": "legalEntityTypeId",
               "description": "legalEntityTypeId id to fetch a particular legalEntityType",
               "type": "integer"
            },
            {
               "in": "query",
               "name": "orderBy",
               "description": "QueryString used to order the array response by a specific attribute or criteria",
               "type": "string"
            },
            {
               "in": "query",
               "name": "offsetId",
               "description": "Optional parameter used on pagination defines the initial index to be fetch",
               "type": "integer"
            },
            {
               "in": "query",
               "name": "page",
               "description": "Optional parameter used on pagination defines the pagination page to be fetch",
               "type": "integer"
            },
            {
               "in": "query",
               "name": "fetch",
               "description": "Optional parameter used on pagination defines the records to be fetch",
               "type": "integer"
            },
            {
               "in": "header",
               "name": "accept",
               "description": "Advertises which content types expressed as MIME types the client is able to understand.",
               "type": "string"
            },
            {
               "in": "header",
               "name": "accept-language",
               "description": "Advertises which languages and locale variant the client is able to understand.",
               "type": "string",
               "required": true
            },
            {
               "in": "header",
               "name": "app-code",
               "description": "Advertises which application is requesting the information.",
               "type": "string",
               "required": true
            },
            {
               "in": "header",
               "name": "jwt",
               "description": "JSON Web Token JWT, represent claims to be transferred between two parties RFC 7519.",
               "type": "string",
               "required": true
            },
            {
               "in": "header",
               "name": "Authorization",
               "description": "Access Token",
               "type": "string",
               "required": true
            }
         ]
      }},
      "/currencies/{currencyId}": {"get": {
         "produces": ["application/json"],
         "description": "Returns a particular currency using the currency id provided in the path.",
         "operationId": "/currencies/{currencyId} getCurrencyById",
         "responses": {
            "200": {
               "examples": {"application/json": {
                  "currencyDesc": {"type": "string"},
                  "links": {
                     "additionalProperties": false,
                     "properties": {
                        "next": {"type": "string"},
                        "previous": {"type": "string"},
                        "self": {"type": "string"}
                     }
                  },
                  "currencyId": {
                     "format": "int32",
                     "type": "integer"
                  },
                  "currencyCode": {"type": "string"}
               }},
               "description": "Successful response"
            },
            "401": {
               "examples": {"application/json": {"message": {"type": "string"}}},
               "description": "Unauthorized"
            },
            "500": {
               "examples": {"application/json": {"message": {"type": "string"}}},
               "description": "200 OK"
            },
            "404": {
               "examples": {"application/json": {"message": {"type": "string"}}},
               "description": "Not Found"
            }
         },
         "parameters": [
            {
               "in": "path",
               "name": "currencyId",
               "description": "currencyId to fetch a particular currency.",
               "type": "integer",
               "required": true
            },
            {
               "in": "header",
               "name": "accept",
               "description": "Advertises which content types expressed as MIME types the client is able to understand.",
               "type": "string"
            },
            {
               "in": "header",
               "name": "accept-language",
               "description": "Advertises which languages and locale variant the client is able to understand.",
               "type": "string",
               "required": true
            },
            {
               "in": "header",
               "name": "app-code",
               "description": "Advertises which application is requesting the information.",
               "type": "string",
               "required": true
            },
            {
               "in": "header",
               "name": "jwt",
               "description": "JSON Web Token JWT, represent claims to be transferred between two parties RFC 7519.",
               "type": "string",
               "required": true
            },
            {
               "in": "header",
               "name": "Authorization",
               "description": "Access Token",
               "type": "string",
               "required": true
            }
         ]
      }},
      "/productlines/{productLineId}": {"get": {
         "produces": ["application/json"],
         "operationId": "/productlines/{productLineId} getProductLineById",
         "responses": {
            "200": {
               "examples": {"application/json": {
                  "count": {
                     "format": "int32",
                     "type": "integer"
                  },
                  "productLines": {
                     "type": "array",
                     "items": {
                        "additionalProperties": false,
                        "properties": {
                           "productLineDesc": {"type": "string"},
                           "links": {
                              "additionalProperties": false,
                              "properties": {"self": {"type": "string"}}
                           },
                           "productLineId": {
                              "format": "int32",
                              "type": "integer"
                           }
                        }
                     }
                  },
                  "links": {
                     "additionalProperties": false,
                     "properties": {"self": {"type": "string"}}
                  },
                  "totalCount": {
                     "format": "int32",
                     "type": "integer"
                  }
               }},
               "description": "Successful response"
            },
            "401": {
               "examples": {"application/json": {"message": {"type": "string"}}},
               "description": "Unauthorized"
            },
            "500": {
               "examples": {"application/json": {"message": {"type": "string"}}},
               "description": "Internal server error"
            },
            "404": {
               "examples": {"application/json": {"message": {"type": "string"}}},
               "description": "Not Found"
            }
         },
         "parameters": [
            {
               "in": "path",
               "name": "productLineId",
               "type": "string",
               "required": true
            },
            {
               "in": "header",
               "name": "accept",
               "description": "Advertises which content types expressed as MIME types the client is able to understand.",
               "type": "string"
            },
            {
               "in": "header",
               "name": "accept-language",
               "description": "Advertises which languages and locale variant the client is able to understand.",
               "type": "string",
               "required": true
            },
            {
               "in": "header",
               "name": "app-code",
               "description": "Advertises which application is requesting the information.",
               "type": "string",
               "required": true
            },
            {
               "in": "header",
               "name": "jwt",
               "description": "JSON Web Token JWT, represent claims to be transferred between two parties RFC 7519.",
               "type": "string",
               "required": true
            },
            {
               "in": "header",
               "name": "Authorization",
               "description": "Access Token",
               "type": "string",
               "required": true
            }
         ]
      }},
      "/productlines": {"get": {
         "produces": ["application/json"],
         "operationId": "/productlines getProductLines",
         "responses": {
            "200": {
               "examples": {"application/json": {
                  "count": {
                     "format": "int32",
                     "type": "integer"
                  },
                  "productLines": {
                     "type": "array",
                     "items": {
                        "additionalProperties": false,
                        "properties": {
                           "productLineDesc": {"type": "string"},
                           "links": {
                              "additionalProperties": false,
                              "properties": {"self": {"type": "string"}}
                           },
                           "productLineId": {
                              "format": "int32",
                              "type": "integer"
                           }
                        }
                     }
                  },
                  "links": {
                     "additionalProperties": false,
                     "properties": {"self": {"type": "string"}}
                  },
                  "totalCount": {
                     "format": "int32",
                     "type": "integer"
                  }
               }},
               "description": "Successful response"
            },
            "401": {
               "examples": {"application/json": {"message": {"type": "string"}}},
               "description": "Unauthorized"
            },
            "500": {
               "examples": {"application/json": {"message": {"type": "string"}}},
               "description": "Internal server error"
            },
            "404": {
               "examples": {"application/json": {"message": {"type": "string"}}},
               "description": "Not Found"
            }
         },
         "parameters": [
            {
               "in": "query",
               "name": "orderBy",
               "description": "queryString used to order the array response by a specific attribute or criteria",
               "type": "string"
            },
            {
               "in": "query",
               "name": "limit",
               "description": "Optional parameter used on pagination defines maximum no of records to be fetch",
               "type": "integer"
            },
            {
               "in": "query",
               "name": "offsetId",
               "description": "Optional parameter used on pagination defines the initial index to be fetch",
               "type": "integer"
            },
            {
               "in": "query",
               "name": "page",
               "description": "Optional parameter used on pagination defines the pagination page to be fetch",
               "type": "string"
            },
            {
               "in": "query",
               "name": "fetch",
               "description": "Optional parameter used on pagination defines the records to be fetch",
               "type": "string"
            },
            {
               "in": "query",
               "name": "productLineId",
               "type": "string"
            },
            {
               "in": "header",
               "name": "accept",
               "description": "Advertises which content types expressed as MIME types the client is able to understand.",
               "type": "string"
            },
            {
               "in": "header",
               "name": "accept-language",
               "description": "Advertises which languages and locale variant the client is able to understand.",
               "type": "string",
               "required": true
            },
            {
               "in": "header",
               "name": "app-code",
               "description": "Advertises which application is requesting the information.",
               "type": "string",
               "required": true
            },
            {
               "in": "header",
               "name": "jwt",
               "description": "JSON Web Token JWT, represent claims to be transferred between two parties RFC 7519.",
               "type": "string",
               "required": true
            },
            {
               "in": "header",
               "name": "Authorization",
               "description": "Access Token",
               "type": "string",
               "required": true
            }
         ]
      }},
      "/agreementstatuses/{agreementStatusId}": {"get": {
         "produces": ["application/json"],
         "operationId": "/agreementstatuses/{agreementStatusId} getagreementstatusById",
         "responses": {
            "200": {
               "examples": {"application/json": {
                  "agreementStatusId": {
                     "format": "int32",
                     "type": "integer"
                  },
                  "agreementStatusDesc": {"type": "string"},
                  "agreementStatusCode": {"type": "string"},
                  "links": {
                     "additionalProperties": false,
                     "properties": {
                        "next": {"type": "string"},
                        "previous": {"type": "string"},
                        "self": {"type": "string"}
                     }
                  }
               }},
               "description": "Successful response"
            },
            "401": {
               "examples": {"application/json": {"message": {"type": "string"}}},
               "description": "Unauthorized"
            },
            "500": {
               "examples": {"application/json": {"message": {"type": "string"}}},
               "description": "Internal server error"
            },
            "404": {
               "examples": {"application/json": {"message": {"type": "string"}}},
               "description": "Not Found"
            }
         },
         "parameters": [
            {
               "in": "path",
               "name": "agreementStatusId",
               "description": "agreementstatus id to fetch a particular agreementstatus",
               "type": "integer",
               "required": true
            },
            {
               "in": "header",
               "name": "accept",
               "description": "Advertises which content types expressed as MIME types the client is able to understand.",
               "type": "string"
            },
            {
               "in": "header",
               "name": "accept-language",
               "description": "Advertises which languages and locale variant the client is able to understand.",
               "type": "string",
               "required": true
            },
            {
               "in": "header",
               "name": "app-code",
               "description": "Advertises which application is requesting the information.",
               "type": "string",
               "required": true
            },
            {
               "in": "header",
               "name": "jwt",
               "description": "JSON Web Token JWT, represent claims to be transferred between two parties RFC 7519.",
               "type": "string",
               "required": true
            },
            {
               "in": "header",
               "name": "Authorization",
               "description": "Access Token",
               "type": "string",
               "required": true
            }
         ]
      }},
      "/units/{unitId}": {"get": {
         "produces": ["application/json"],
         "description": "Returns a particular unit using the unit id provided in the path.",
         "operationId": "/units/{unitId} getUnitById",
         "responses": {
            "200": {
               "examples": {"application/json": {
                  "unitDesc": {"type": "string"},
                  "unitCode": {"type": "string"},
                  "unitId": {
                     "format": "int32",
                     "type": "integer"
                  },
                  "links": {
                     "additionalProperties": false,
                     "properties": {
                        "next": {"type": "string"},
                        "previous": {"type": "string"},
                        "self": {"type": "string"}
                     }
                  }
               }},
               "description": "Successful response"
            },
            "401": {
               "examples": {"application/json": {"message": {"type": "string"}}},
               "description": "Unauthorized"
            },
            "500": {
               "examples": {"application/json": {"message": {"type": "string"}}},
               "description": "Internal server error"
            },
            "404": {
               "examples": {"application/json": {"message": {"type": "string"}}},
               "description": "Not Found"
            }
         },
         "parameters": [
            {
               "in": "path",
               "name": "unitId",
               "description": "Unit id to fetch a particular unit",
               "type": "integer",
               "required": true
            },
            {
               "in": "query",
               "name": "customerId",
               "description": "Customer unique Id",
               "type": "integer"
            },
            {
               "in": "header",
               "name": "accept",
               "description": "Advertises which content types expressed as MIME types the client is able to understand.",
               "type": "string"
            },
            {
               "in": "header",
               "name": "accept-language",
               "description": "Advertises which languages and locale variant the client is able to understand.",
               "type": "string",
               "required": true
            },
            {
               "in": "header",
               "name": "app-code",
               "description": "Advertises which application is requesting the information.",
               "type": "string",
               "required": true
            },
            {
               "in": "header",
               "name": "jwt",
               "description": "JSON Web Token JWT, represent claims to be transferred between two parties RFC 7519.",
               "type": "string",
               "required": true
            },
            {
               "in": "header",
               "name": "Authorization",
               "description": "Access Token",
               "type": "string",
               "required": true
            }
         ]
      }},
      "/shipmentlocationtypes": {"get": {
         "produces": ["application/json"],
         "operationId": "/shipmentlocationtypes getLocationTypes",
         "responses": {
            "200": {
               "examples": {"application/json": {
                  "count": {
                     "format": "int32",
                     "type": "integer"
                  },
                  "links": {
                     "additionalProperties": false,
                     "properties": {
                        "next": {"type": "string"},
                        "previous": {"type": "string"},
                        "self": {"type": "string"}
                     }
                  },
                  "shipmentLocationTypes": {
                     "type": "array",
                     "items": {
                        "additionalProperties": false,
                        "properties": {
                           "shipmentLocationTypeCode": {"type": "string"},
                           "link": {
                              "additionalProperties": false,
                              "properties": {
                                 "next": {"type": "string"},
                                 "previous": {"type": "string"},
                                 "self": {"type": "string"}
                              }
                           },
                           "shipmentLocationTypeId": {
                              "format": "int32",
                              "type": "integer"
                           },
                           "shipmentLocationTypeDesc": {"type": "string"}
                        }
                     }
                  },
                  "totalCount": {
                     "format": "int32",
                     "type": "integer"
                  }
               }},
               "description": "Successful response"
            },
            "401": {
               "examples": {"application/json": {"message": {"type": "string"}}},
               "description": "Unauthorized"
            },
            "500": {
               "examples": {"application/json": {"message": {"type": "string"}}},
               "description": "Internal server error"
            }
         },
         "parameters": [
            {
               "in": "query",
               "name": "shipmentLocationTypeId",
               "description": "shipmentLocationTypeId for fetching a particular shipment location type.",
               "type": "integer",
               "required": true
            },
            {
               "in": "query",
               "name": "orderBy",
               "description": "queryString used to order the array response by a specific attribute or criteria",
               "type": "string"
            },
            {
               "in": "query",
               "name": "limit",
               "description": "Optional parameter used on pagination defines maximum no of records to be fetch",
               "type": "integer"
            },
            {
               "in": "query",
               "name": "offsetId",
               "description": "Optional parameter used on pagination defines the initial index to be fetch",
               "type": "integer"
            },
            {
               "in": "query",
               "name": "page",
               "description": "Optional parameter used on pagination defines the pagination page to be fetch",
               "type": "integer"
            },
            {
               "in": "query",
               "name": "fetch",
               "description": "Optional parameter used on pagination defines the records to be fetch",
               "type": "integer"
            },
            {
               "in": "header",
               "name": "accept",
               "description": "Advertises which content types expressed as MIME types the client is able to understand.",
               "type": "string"
            },
            {
               "in": "header",
               "name": "accept-language",
               "description": "Advertises which languages and locale variant the client is able to understand.",
               "type": "string",
               "required": true
            },
            {
               "in": "header",
               "name": "app-code",
               "description": "Advertises which application is requesting the information.",
               "type": "string",
               "required": true
            },
            {
               "in": "header",
               "name": "jwt",
               "description": "JSON Web Token JWT, represent claims to be transferred between two parties RFC 7519.",
               "type": "string",
               "required": true
            },
            {
               "in": "header",
               "name": "Authorization",
               "description": "Access Token",
               "type": "string",
               "required": true
            }
         ]
      }},
      "/shippingconditions/{shippingConditionId}": {"get": {
         "produces": ["application/json"],
         "description": "Returns particular shipping condition as per the given id.",
         "operationId": "/shippingconditions/{shippingConditionId} getShippingConditionById",
         "responses": {
            "200": {
               "examples": {"application/json": {
                  "shippingConditionCode": {"type": "string"},
                  "shippingConditionDesc": {"type": "string"},
                  "shippingConditionId": {
                     "format": "int32",
                     "type": "integer"
                  }
               }},
               "description": "Successful response"
            },
            "401": {
               "examples": {"application/json": {"message": {"type": "string"}}},
               "description": "Unauthorized"
            },
            "500": {
               "examples": {"application/json": {"message": {"type": "string"}}},
               "description": "Internal server error"
            },
            "404": {
               "examples": {"application/json": {"message": {"type": "string"}}},
               "description": "Not Found"
            }
         },
         "parameters": [
            {
               "in": "path",
               "name": "shippingConditionId",
               "description": "shippingConditionId to fetch a particular shipping condition.",
               "type": "integer",
               "required": true
            },
            {
               "in": "header",
               "name": "accept",
               "description": "Advertises which content types expressed as MIME types the client is able to understand.",
               "type": "string"
            },
            {
               "in": "header",
               "name": "accept-language",
               "description": "Advertises which languages and locale variant the client is able to understand.",
               "type": "string",
               "required": true
            },
            {
               "in": "header",
               "name": "app-code",
               "description": "Advertises which application is requesting the information.",
               "type": "string",
               "required": true
            },
            {
               "in": "header",
               "name": "jwt",
               "description": "JSON Web Token JWT, represent claims to be transferred between two parties RFC 7519.",
               "type": "string",
               "required": true
            },
            {
               "in": "header",
               "name": "Authorization",
               "description": "Access Token",
               "type": "string",
               "required": true
            }
         ]
      }},
      "/shipmentlocationtypes/{shipmentLocationTypeId}": {"get": {
         "produces": ["application/json"],
         "description": "Returns a shipment location type using the shipment location type id",
         "operationId": "/shipmentlocationtypes/{shipmentLocationTypeId} getLocationTypeById",
         "responses": {
            "200": {
               "examples": {"application/json": {
                  "shipmentLocationTypeCode": {"type": "string"},
                  "link": {
                     "additionalProperties": false,
                     "properties": {
                        "next": {"type": "string"},
                        "previous": {"type": "string"},
                        "self": {"type": "string"}
                     }
                  },
                  "shipmentLocationTypeId": {
                     "format": "int32",
                     "type": "integer"
                  },
                  "shipmentLocationTypeDesc": {"type": "string"}
               }},
               "description": "Successful response"
            },
            "401": {
               "examples": {"application/json": {"message": {"type": "string"}}},
               "description": "Unauthorized"
            },
            "500": {
               "examples": {"application/json": {"message": {"type": "string"}}},
               "description": "Internal server error"
            },
            "404": {
               "examples": {"application/json": {"message": {"type": "string"}}},
               "description": "Not Found"
            }
         },
         "parameters": [
            {
               "in": "path",
               "name": "shipmentLocationTypeId",
               "description": "shipmentLocationTypeId for fetching a particular shipment location type.",
               "type": "integer",
               "required": true
            },
            {
               "in": "header",
               "name": "accept",
               "description": "Advertises which content types expressed as MIME types the client is able to understand.",
               "type": "string"
            },
            {
               "in": "header",
               "name": "accept-language",
               "description": "Advertises which languages and locale variant the client is able to understand.",
               "type": "string",
               "required": true
            },
            {
               "in": "header",
               "name": "app-code",
               "description": "Advertises which application is requesting the information.",
               "type": "string",
               "required": true
            },
            {
               "in": "header",
               "name": "jwt",
               "description": "JSON Web Token JWT, represent claims to be transferred between two parties RFC 7519.",
               "type": "string",
               "required": true
            },
            {
               "in": "header",
               "name": "Authorization",
               "description": "Access Token",
               "type": "string",
               "required": true
            }
         ]
      }},
      "/salesareas/{salesAreaId}": {"get": {
         "produces": ["application/json"],
         "description": "Returns sales areas as per the sales area id.",
         "operationId": "/salesareas/{salesAreaId} getSalesAreaById",
         "responses": {
            "401": {
               "examples": {"application/json": {"message": {"type": "string"}}},
               "description": "Unauthorized"
            },
            "500": {
               "examples": {"application/json": {"message": {"type": "string"}}},
               "description": "Internal server error"
            },
            "404": {
               "examples": {"application/json": {"message": {"type": "string"}}},
               "description": "Not Found"
            }
         },
         "parameters": [
            {
               "in": "path",
               "name": "salesAreaId",
               "description": "Sales area id used to get the particular sales area.",
               "type": "integer",
               "required": true
            },
            {
               "in": "header",
               "name": "accept",
               "description": "Advertises which content types expressed as MIME types the client is able to understand.",
               "type": "string"
            },
            {
               "in": "header",
               "name": "accept-language",
               "description": "Advertises which languages and locale variant the client is able to understand.",
               "type": "string",
               "required": true
            },
            {
               "in": "header",
               "name": "app-code",
               "description": "Advertises which application is requesting the information.",
               "type": "string",
               "required": true
            },
            {
               "in": "header",
               "name": "jwt",
               "description": "JSON Web Token JWT, represent claims to be transferred between two parties RFC 7519.",
               "type": "string",
               "required": true
            },
            {
               "in": "header",
               "name": "Authorization",
               "description": "Access Token",
               "type": "string",
               "required": true
            }
         ]
      }},
      "/salesareas": {"get": {
         "produces": ["application/json"],
         "description": "Returns sales areas as per the parameters.",
         "operationId": "/salesareas getSalesAreas",
         "responses": {
            "200": {"description": "Successful response"},
            "401": {
               "examples": {"application/json": {"message": {"type": "string"}}},
               "description": "Unauthorized"
            },
            "500": {
               "examples": {"application/json": {"message": {"type": "string"}}},
               "description": "Internal server error"
            }
         },
         "parameters": [
            {
               "in": "query",
               "name": "salesAreaId",
               "description": "Sales area id used to get the particular sales areas.",
               "type": "integer"
            },
            {
               "in": "query",
               "name": "orderBy",
               "description": "QueryString used to order the array response by a specific attribute or criteria",
               "type": "string"
            },
            {
               "in": "query",
               "name": "offsetId",
               "description": "Optional parameter used on pagination defines the initial index to be fetch",
               "type": "integer"
            },
            {
               "in": "query",
               "name": "page",
               "description": "Optional parameter used on pagination defines the pagination page to be fetch",
               "type": "integer"
            },
            {
               "in": "query",
               "name": "fetch",
               "description": "Optional parameter used on pagination defines the records to be fetch",
               "type": "integer"
            },
            {
               "in": "header",
               "name": "accept",
               "description": "Advertises which content types expressed as MIME types the client is able to understand.",
               "type": "string"
            },
            {
               "in": "header",
               "name": "accept-language",
               "description": "Advertises which languages and locale variant the client is able to understand.",
               "type": "string",
               "required": true
            },
            {
               "in": "header",
               "name": "app-code",
               "description": "Advertises which application is requesting the information.",
               "type": "string",
               "required": true
            },
            {
               "in": "header",
               "name": "jwt",
               "description": "JSON Web Token JWT, represent claims to be transferred between two parties RFC 7519.",
               "type": "string",
               "required": true
            },
            {
               "in": "header",
               "name": "Authorization",
               "description": "Access Token",
               "type": "string",
               "required": true
            }
         ]
      }},
      "/legalentitytypes/{legalEntityTypeId}": {"get": {
         "produces": ["application/json"],
         "description": "Returns particular legal entity type as per the given id.",
         "operationId": "/legalentitytypes/{legalEntityTypeId} getLegalEntityTypeById",
         "responses": {
            "200": {"description": "Successful response"},
            "401": {
               "examples": {"application/json": {"message": {"type": "string"}}},
               "description": "Unauthorized"
            },
            "500": {
               "examples": {"application/json": {"message": {"type": "string"}}},
               "description": "Internal server error"
            },
            "404": {
               "examples": {"application/json": {"message": {"type": "string"}}},
               "description": "Not Found"
            }
         },
         "parameters": [
            {
               "in": "path",
               "name": "legalEntityTypeId",
               "description": "legalEntityTypeId to fetch a particular Legal Entity Type.",
               "type": "integer",
               "required": true
            },
            {
               "in": "header",
               "name": "accept",
               "description": "Advertises which content types expressed as MIME types the client is able to understand.",
               "type": "string"
            },
            {
               "in": "header",
               "name": "accept-language",
               "description": "Advertises which languages and locale variant the client is able to understand.",
               "type": "string",
               "required": true
            },
            {
               "in": "header",
               "name": "app-code",
               "description": "Advertises which application is requesting the information.",
               "type": "string",
               "required": true
            },
            {
               "in": "header",
               "name": "jwt",
               "description": "JSON Web Token JWT, represent claims to be transferred between two parties RFC 7519.",
               "type": "string",
               "required": true
            },
            {
               "in": "header",
               "name": "Authorization",
               "description": "Access Token",
               "type": "string",
               "required": true
            }
         ]
      }},
      "/currencies": {"get": {
         "produces": ["application/json"],
         "operationId": "/currencies getCurrencies",
         "responses": {
            "200": {
               "examples": {"application/json": {
                  "count": {
                     "format": "int32",
                     "type": "integer"
                  },
                  "links": {
                     "additionalProperties": false,
                     "properties": {
                        "next": {"type": "string"},
                        "previous": {"type": "string"},
                        "self": {"type": "string"}
                     }
                  },
                  "totalCount": {
                     "format": "int32",
                     "type": "integer"
                  },
                  "currencies": {
                     "type": "array",
                     "items": {
                        "additionalProperties": false,
                        "properties": {
                           "currencyDesc": {"type": "string"},
                           "links": {
                              "additionalProperties": false,
                              "properties": {
                                 "next": {"type": "string"},
                                 "previous": {"type": "string"},
                                 "self": {"type": "string"}
                              }
                           },
                           "currencyId": {
                              "format": "int32",
                              "type": "integer"
                           },
                           "currencyCode": {"type": "string"}
                        }
                     }
                  }
               }},
               "description": "Successful response"
            },
            "401": {
               "examples": {"application/json": {"message": {"type": "string"}}},
               "description": "Unauthorized"
            },
            "500": {
               "examples": {"application/json": {"message": {"type": "string"}}},
               "description": "Internal server error"
            }
         },
         "parameters": [
            {
               "in": "query",
               "name": "currencyId",
               "description": "currencyId to fetch a particular currency.",
               "type": "integer"
            },
            {
               "in": "query",
               "name": "orderBy",
               "type": "string"
            },
            {
               "in": "query",
               "name": "limit",
               "type": "integer"
            },
            {
               "in": "query",
               "name": "offsetId",
               "type": "integer"
            },
            {
               "in": "query",
               "name": "page",
               "type": "integer"
            },
            {
               "in": "query",
               "name": "fetch",
               "type": "integer"
            },
            {
               "in": "query",
               "name": "customerId",
               "description": "currencyId to fetch a particular currency.",
               "type": "integer"
            },
            {
               "in": "header",
               "name": "accept",
               "description": "Advertises which content types expressed as MIME types the client is able to understand.",
               "type": "string"
            },
            {
               "in": "header",
               "name": "accept-language",
               "description": "Advertises which languages and locale variant the client is able to understand.",
               "type": "string",
               "required": true
            },
            {
               "in": "header",
               "name": "app-code",
               "description": "Advertises which application is requesting the information.",
               "type": "string",
               "required": true
            },
            {
               "in": "header",
               "name": "jwt",
               "description": "JSON Web Token JWT, represent claims to be transferred between two parties RFC 7519.",
               "type": "string",
               "required": true
            },
            {
               "in": "header",
               "name": "Authorization",
               "description": "Access Token",
               "type": "string",
               "required": true
            }
         ]
      }},
      "/salesdocumenttypes/{salesDocumentTypeId}": {"get": {
         "produces": ["application/json"],
         "description": "Returns a particular sales document type using the salesdocumenttype id provided in the path.",
         "operationId": "/salesdocumenttypes/{salesDocumentTypeId} getSalesDocumentTypeById",
         "responses": {
            "200": {
               "examples": {"application/json": {
                  "salesDocumentTypeDesc": {"type": "string"},
                  "link": {
                     "additionalProperties": false,
                     "properties": {
                        "next": {"type": "string"},
                        "previous": {"type": "string"},
                        "self": {"type": "string"}
                     }
                  },
                  "salesDocumentTypeId": {
                     "format": "int32",
                     "type": "integer"
                  },
                  "salesDocumentTypeCode": {"type": "string"}
               }},
               "description": "Successful response"
            },
            "401": {
               "examples": {"application/json": {"message": {"type": "string"}}},
               "description": "Unauthorized"
            },
            "500": {
               "examples": {"application/json": {"message": {"type": "string"}}},
               "description": "Internal server error"
            },
            "404": {
               "examples": {"application/json": {"message": {"type": "string"}}},
               "description": "Successful response"
            }
         },
         "parameters": [
            {
               "in": "path",
               "name": "salesDocumentTypeId",
               "description": "salesDocumentTypeId id to fetch a particular salesDocumentType",
               "type": "integer",
               "required": true
            },
            {
               "in": "header",
               "name": "accept",
               "description": "Advertises which content types expressed as MIME types the client is able to understand.",
               "type": "string"
            },
            {
               "in": "header",
               "name": "accept-language",
               "description": "Advertises which languages and locale variant the client is able to understand.",
               "type": "string",
               "required": true
            },
            {
               "in": "header",
               "name": "app-code",
               "description": "Advertises which application is requesting the information.",
               "type": "string",
               "required": true
            },
            {
               "in": "header",
               "name": "jwt",
               "description": "JSON Web Token JWT, represent claims to be transferred between two parties RFC 7519.",
               "type": "string",
               "required": true
            },
            {
               "in": "header",
               "name": "Authorization",
               "description": "Access Token",
               "type": "string",
               "required": true
            }
         ]
      }},
      "/salesdocumenttypes": {"get": {
         "produces": ["application/json"],
         "operationId": "/salesdocumenttypes getSalesDocumentTypes",
         "responses": {
            "200": {
               "examples": {"application/json": {
                  "count": {
                     "format": "int32",
                     "type": "integer"
                  },
                  "salesDocumentTypes": {
                     "type": "array",
                     "items": {
                        "additionalProperties": false,
                        "properties": {
                           "salesDocumentTypeDesc": {"type": "string"},
                           "link": {
                              "additionalProperties": false,
                              "properties": {
                                 "next": {"type": "string"},
                                 "previous": {"type": "string"},
                                 "self": {"type": "string"}
                              }
                           },
                           "salesDocumentTypeId": {
                              "format": "int32",
                              "type": "integer"
                           },
                           "salesDocumentTypeCode": {"type": "string"}
                        }
                     }
                  },
                  "links": {
                     "additionalProperties": false,
                     "properties": {
                        "next": {"type": "string"},
                        "previous": {"type": "string"},
                        "self": {"type": "string"}
                     }
                  },
                  "totalCount": {
                     "format": "int32",
                     "type": "integer"
                  }
               }},
               "description": "Successful response"
            },
            "401": {
               "examples": {"application/json": {"message": {"type": "string"}}},
               "description": "Unauthorized"
            },
            "500": {
               "examples": {"application/json": {"message": {"type": "string"}}},
               "description": "Internal server error"
            }
         },
         "parameters": [
            {
               "in": "query",
               "name": "salesDocumentTypeId",
               "description": "salesDocumentTypeId id to fetch a particular salesDocumentType",
               "type": "integer"
            },
            {
               "in": "query",
               "name": "orderBy",
               "description": "queryString used to order the array response by a specific attribute or criteria",
               "type": "string"
            },
            {
               "in": "query",
               "name": "limit",
               "description": "Optional parameter used on pagination defines maximum no of records to be fetch",
               "type": "integer"
            },
            {
               "in": "query",
               "name": "offsetId",
               "description": "Optional parameter used on pagination defines the initial index to be fetch",
               "type": "integer"
            },
            {
               "in": "query",
               "name": "page",
               "description": "Optional parameter used on pagination defines the pagination page to be fetch",
               "type": "integer"
            },
            {
               "in": "query",
               "name": "fetch",
               "description": "Optional parameter used on pagination defines the records to be fetch",
               "type": "integer"
            },
            {
               "in": "header",
               "name": "accept",
               "description": "Advertises which content types expressed as MIME types the client is able to understand.",
               "type": "string"
            },
            {
               "in": "header",
               "name": "accept-language",
               "description": "Advertises which languages and locale variant the client is able to understand.",
               "type": "string",
               "required": true
            },
            {
               "in": "header",
               "name": "app-code",
               "description": "Advertises which application is requesting the information.",
               "type": "string",
               "required": true
            },
            {
               "in": "header",
               "name": "jwt",
               "description": "JSON Web Token JWT, represent claims to be transferred between two parties RFC 7519.",
               "type": "string",
               "required": true
            },
            {
               "in": "header",
               "name": "Authorization",
               "description": "Access Token",
               "type": "string",
               "required": true
            }
         ]
      }},
      "/paymentterms/{paymentTermId}": {"get": {
         "produces": ["application/json"],
         "operationId": "/paymentterms/{paymentTermId} getPaymentTermId",
         "responses": {
            "401": {
               "examples": {"application/json": {"message": {"type": "string"}}},
               "description": "Unauthorized"
            },
            "500": {
               "examples": {"application/json": {"message": {"type": "string"}}},
               "description": "Internal server error"
            },
            "404": {
               "examples": {"application/json": {"message": {"type": "string"}}},
               "description": "Not Found"
            }
         },
         "parameters": [
            {
               "in": "path",
               "name": "paymentTermId",
               "description": "paymentTermId to fetch a particular Payment Term.",
               "type": "integer",
               "required": true
            },
            {
               "in": "header",
               "name": "accept",
               "description": "Advertises which content types expressed as MIME types the client is able to understand.",
               "type": "string"
            },
            {
               "in": "header",
               "name": "accept-language",
               "description": "Advertises which languages and locale variant the client is able to understand.",
               "type": "string",
               "required": true
            },
            {
               "in": "header",
               "name": "app-code",
               "description": "Advertises which application is requesting the information.",
               "type": "string",
               "required": true
            },
            {
               "in": "header",
               "name": "jwt",
               "description": "JSON Web Token JWT, represent claims to be transferred between two parties RFC 7519.",
               "type": "string",
               "required": true
            },
            {
               "in": "header",
               "name": "Authorization",
               "description": "Access Token",
               "type": "string",
               "required": true
            }
         ]
      }},
      "/units": {"get": {
         "produces": ["application/json"],
         "operationId": "/units getUnits",
         "responses": {
            "200": {
               "examples": {"application/json": {
                  "count": {
                     "format": "int32",
                     "type": "integer"
                  },
                  "links": {
                     "additionalProperties": false,
                     "properties": {
                        "next": {"type": "string"},
                        "previous": {"type": "string"},
                        "self": {"type": "string"}
                     }
                  },
                  "units": {
                     "type": "array",
                     "items": {
                        "additionalProperties": false,
                        "properties": {
                           "unitDesc": {"type": "string"},
                           "unitCode": {"type": "string"},
                           "unitId": {
                              "format": "int32",
                              "type": "integer"
                           },
                           "links": {
                              "additionalProperties": false,
                              "properties": {
                                 "next": {"type": "string"},
                                 "previous": {"type": "string"},
                                 "self": {"type": "string"}
                              }
                           }
                        }
                     }
                  },
                  "totalCount": {
                     "format": "int32",
                     "type": "integer"
                  }
               }},
               "description": "Successful response"
            },
            "401": {
               "examples": {"application/json": {"message": {"type": "string"}}},
               "description": "Unauthorized"
            },
            "500": {
               "examples": {"application/json": {"message": {"type": "string"}}},
               "description": "Internal server error"
            }
         },
         "parameters": [
            {
               "in": "query",
               "name": "unitId",
               "description": "Unit id to fetch a particular unit",
               "type": "integer"
            },
            {
               "in": "query",
               "name": "orderBy",
               "description": "queryString used to order the array response by a specific attribute or criteria",
               "type": "string"
            },
            {
               "in": "query",
               "name": "limit",
               "description": "Optional parameter used on pagination defines maximum no of records to be fetch",
               "type": "integer"
            },
            {
               "in": "query",
               "name": "offsetId",
               "description": "Optional parameter used on pagination defines the initial index to be fetch",
               "type": "integer"
            },
            {
               "in": "query",
               "name": "page",
               "description": "Optional parameter used on pagination defines the pagination page to be fetch",
               "type": "integer"
            },
            {
               "in": "query",
               "name": "fetch",
               "description": "Optional parameter used on pagination defines the records to be fetch",
               "type": "integer"
            },
            {
               "in": "query",
               "name": "customerId",
               "description": "The customer single identifier",
               "type": "integer"
            },
            {
               "in": "header",
               "name": "accept",
               "description": "Advertises which content types expressed as MIME types the client is able to understand.",
               "type": "string"
            },
            {
               "in": "header",
               "name": "accept-language",
               "description": "Advertises which languages and locale variant the client is able to understand.",
               "type": "string",
               "required": true
            },
            {
               "in": "header",
               "name": "app-code",
               "description": "Advertises which application is requesting the information.",
               "type": "string",
               "required": true
            },
            {
               "in": "header",
               "name": "jwt",
               "description": "JSON Web Token JWT, represent claims to be transferred between two parties RFC 7519.",
               "type": "string",
               "required": true
            },
            {
               "in": "header",
               "name": "Authorization",
               "description": "Access Token",
               "type": "string",
               "required": true
            }
         ]
      }},
      "/agreementeventtypes": {"get": {
         "produces": ["application/json"],
         "description": "Returns specific Agreement event type information",
         "operationId": "/agreementeventtypes getAgreementEventTypes",
         "responses": {
            "401": {
               "examples": {"application/json": {"message": {"type": "string"}}},
               "description": "Unauthorized"
            },
            "500": {
               "examples": {"application/json": {"message": {"type": "string"}}},
               "description": "Internal server error"
            }
         },
         "parameters": [
            {
               "in": "query",
               "name": "agreementEventTypeId",
               "description": "Agreement Event type ids for the agreement.",
               "type": "string"
            },
            {
               "in": "query",
               "name": "orderBy",
               "description": "queryString used to order the array response by a specific attribute or criteria",
               "type": "string"
            },
            {
               "in": "query",
               "name": "offsetId",
               "description": "Optional parameter used on pagination defines the initial index to be fetch",
               "type": "integer"
            },
            {
               "in": "query",
               "name": "page",
               "description": "Optional parameter used on pagination defines the pagination page to be fetch",
               "type": "integer"
            },
            {
               "in": "query",
               "name": "fetch",
               "description": "Optional parameter used on pagination defines the records to be fetch",
               "type": "integer"
            },
            {
               "in": "header",
               "name": "accept",
               "description": "Advertises which content types expressed as MIME types the client is able to understand.",
               "type": "string"
            },
            {
               "in": "header",
               "name": "accept-language",
               "description": "Advertises which languages and locale variant the client is able to understand.",
               "type": "string",
               "required": true
            },
            {
               "in": "header",
               "name": "app-code",
               "description": "Advertises which application is requesting the information.",
               "type": "string",
               "required": true
            },
            {
               "in": "header",
               "name": "jwt",
               "description": "JSON Web Token JWT, represent claims to be transferred between two parties RFC 7519.",
               "type": "string",
               "required": true
            },
            {
               "in": "header",
               "name": "Authorization",
               "description": "Access Token",
               "type": "string",
               "required": true
            }
         ]
      }},
      "/productcolors": {"get": {
         "produces": ["application/json"],
         "description": "Returns all product colors as per the filtering conditions.",
         "operationId": "/productcolors getProductColors",
         "responses": {
            "200": {"description": "Successful response"},
            "401": {
               "examples": {"application/json": {"message": {"type": "string"}}},
               "description": "Unauthorized"
            },
            "500": {
               "examples": {"application/json": {"message": {"type": "string"}}},
               "description": "Internal server error"
            }
         },
         "parameters": [
            {
               "in": "query",
               "name": "productColorId",
               "description": "Product color Ids to fetch particular products.",
               "type": "integer"
            },
            {
               "in": "query",
               "name": "orderBy",
               "description": "queryString used to order the array response by a specific attribute or criteria",
               "type": "string"
            },
            {
               "in": "query",
               "name": "limit",
               "description": "Optional parameter used on pagination defines maximum no of records to be fetch",
               "type": "integer"
            },
            {
               "in": "query",
               "name": "offsetId",
               "description": "Optional parameter used on pagination defines the initial index to be fetch",
               "type": "integer"
            },
            {
               "in": "query",
               "name": "page",
               "description": "Optional parameter used on pagination defines the pagination page to be fetch",
               "type": "integer"
            },
            {
               "in": "query",
               "name": "fetch",
               "description": "Optional parameter used on pagination defines the records to be fetch",
               "type": "integer"
            },
            {
               "in": "query",
               "name": "customerId",
               "description": "The customer single identifier",
               "type": "integer"
            },
            {
               "in": "header",
               "name": "accept",
               "description": "Advertises which content types expressed as MIME types the client is able to understand.",
               "type": "string"
            },
            {
               "in": "header",
               "name": "accept-language",
               "description": "Advertises which languages and locale variant the client is able to understand.",
               "type": "string",
               "required": true
            },
            {
               "in": "header",
               "name": "app-code",
               "description": "Advertises which application is requesting the information.",
               "type": "string",
               "required": true
            },
            {
               "in": "header",
               "name": "jwt",
               "description": "JSON Web Token JWT, represent claims to be transferred between two parties RFC 7519.",
               "type": "string",
               "required": true
            },
            {
               "in": "header",
               "name": "Authorization",
               "description": "Access Token",
               "type": "string",
               "required": true
            }
         ]
      }},
      "/shippingconditions": {"get": {
         "produces": ["application/json"],
         "description": "Returns particular payment terms as per the given ids.",
         "operationId": "/shippingconditions getShippingConditions",
         "responses": {
            "200": {
               "examples": {"application/json": {
                  "shippingconditions": {
                     "type": "array",
                     "items": {
                        "additionalProperties": false,
                        "properties": {
                           "shippingConditionCode": {"type": "string"},
                           "shippingConditionDesc": {"type": "string"},
                           "shippingConditionId": {
                              "format": "int32",
                              "type": "integer"
                           }
                        }
                     }
                  },
                  "count": {
                     "format": "int32",
                     "type": "integer"
                  },
                  "links": {
                     "additionalProperties": false,
                     "properties": {
                        "next": {"type": "string"},
                        "previous": {"type": "string"},
                        "self": {"type": "string"},
                        "status": {"type": "string"}
                     }
                  },
                  "totalCount": {
                     "format": "int32",
                     "type": "integer"
                  }
               }},
               "description": "Successful response"
            },
            "401": {
               "examples": {"application/json": {"message": {"type": "string"}}},
               "description": "Unauthorized"
            },
            "500": {
               "examples": {"application/json": {"message": {"type": "string"}}},
               "description": "Internal server error"
            }
         },
         "parameters": [
            {
               "in": "query",
               "name": "shippingConditionId",
               "description": "shippingConditionId to fetch a particular shipping condition.",
               "type": "string"
            },
            {
               "in": "query",
               "name": "orderBy",
               "description": "QueryString used to order the array response by a specific attribute or criteria",
               "type": "string"
            },
            {
               "in": "query",
               "name": "offsetId",
               "description": "Optional parameter used on pagination defines the initial index to be fetch",
               "type": "integer"
            },
            {
               "in": "query",
               "name": "page",
               "description": "Optional parameter used on pagination defines the pagination page to be fetch",
               "type": "integer"
            },
            {
               "in": "query",
               "name": "fetch",
               "description": "Optional parameter used on pagination defines the records to be fetch",
               "type": "integer"
            },
            {
               "in": "header",
               "name": "accept",
               "description": "Advertises which content types expressed as MIME types the client is able to understand.",
               "type": "string"
            },
            {
               "in": "header",
               "name": "accept-language",
               "description": "Advertises which languages and locale variant the client is able to understand.",
               "type": "string",
               "required": true
            },
            {
               "in": "header",
               "name": "app-code",
               "description": "Advertises which application is requesting the information.",
               "type": "string",
               "required": true
            },
            {
               "in": "header",
               "name": "jwt",
               "description": "JSON Web Token JWT, represent claims to be transferred between two parties RFC 7519.",
               "type": "string",
               "required": true
            },
            {
               "in": "header",
               "name": "Authorization",
               "description": "Access Token",
               "type": "string",
               "required": true
            }
         ]
      }},
      "/agreementeventtypes/{agreementEventTypeId}": {"get": {
         "produces": ["application/json"],
         "description": "Returns specific Agreement event type information",
         "operationId": "/agreementeventtypes/{agreementEventTypeId} getAgreementEventTypeById",
         "responses": {
            "200": {
               "examples": {"application/json": {
                  "agreementEventTypeCode": {"type": "string"},
                  "agreementEventTypeId": {
                     "format": "int32",
                     "type": "integer"
                  },
                  "links": {
                     "additionalProperties": false,
                     "properties": {
                        "next": {"type": "string"},
                        "previous": {"type": "string"},
                        "self": {"type": "string"},
                        "status": {"type": "string"}
                     }
                  },
                  "agreementEventTypeDesc": {"type": "string"}
               }},
               "description": "Successful response"
            },
            "500": {
               "examples": {"application/json": {"message": {"type": "string"}}},
               "description": "200 OK"
            },
            "404": {
               "examples": {"application/json": {"message": {"type": "string"}}},
               "description": "Not Found"
            }
         },
         "parameters": [
            {
               "in": "path",
               "name": "agreementEventTypeId",
               "description": "Agreement Event type ids for the agreement.",
               "type": "string",
               "required": true
            },
            {
               "in": "header",
               "name": "accept",
               "description": "Advertises which content types expressed as MIME types the client is able to understand.",
               "type": "string"
            },
            {
               "in": "header",
               "name": "accept-language",
               "description": "Advertises which languages and locale variant the client is able to understand.",
               "type": "string",
               "required": true
            },
            {
               "in": "header",
               "name": "app-code",
               "description": "Advertises which application is requesting the information.",
               "type": "string",
               "required": true
            },
            {
               "in": "header",
               "name": "jwt",
               "description": "JSON Web Token JWT, represent claims to be transferred between two parties RFC 7519.",
               "type": "string",
               "required": true
            },
            {
               "in": "header",
               "name": "Authorization",
               "description": "Access Token",
               "type": "string",
               "required": true
            }
         ]
      }},
      "/agreementstatuses": {"get": {
         "produces": ["application/json"],
         "operationId": "/agreementstatuses getAgreementStatuses",
         "responses": {
            "200": {
               "examples": {"application/json": {
                  "agreementStatusId": {
                     "format": "int32",
                     "type": "integer"
                  },
                  "agreementStatusDesc": {"type": "string"},
                  "agreementStatusCode": {"type": "string"},
                  "links": {
                     "additionalProperties": false,
                     "properties": {
                        "next": {"type": "string"},
                        "previous": {"type": "string"},
                        "self": {"type": "string"}
                     }
                  }
               }},
               "description": "Successful response"
            },
            "401": {
               "examples": {"application/json": {"message": {"type": "string"}}},
               "description": "Unauthorized"
            },
            "500": {
               "examples": {"application/json": {"message": {"type": "string"}}},
               "description": "Internal server error"
            },
            "404": {
               "examples": {"application/json": {"message": {"type": "string"}}},
               "description": "Not Found"
            }
         },
         "parameters": [
            {
               "in": "query",
               "name": "agreementStatusId",
               "description": "agreementstatus id to fetch a particular agreementstatus",
               "type": "integer",
               "required": true
            },
            {
               "in": "query",
               "name": "orderBy",
               "type": "string"
            },
            {
               "in": "query",
               "name": "limit",
               "type": "integer"
            },
            {
               "in": "query",
               "name": "offsetId",
               "type": "integer"
            },
            {
               "in": "query",
               "name": "page",
               "type": "integer"
            },
            {
               "in": "query",
               "name": "fetch",
               "type": "integer"
            },
            {
               "in": "header",
               "name": "accept",
               "description": "Advertises which content types expressed as MIME types the client is able to understand.",
               "type": "string"
            },
            {
               "in": "header",
               "name": "accept-language",
               "description": "Advertises which languages and locale variant the client is able to understand.",
               "type": "string",
               "required": true
            },
            {
               "in": "header",
               "name": "app-code",
               "description": "Advertises which application is requesting the information.",
               "type": "string",
               "required": true
            },
            {
               "in": "header",
               "name": "jwt",
               "description": "JSON Web Token JWT, represent claims to be transferred between two parties RFC 7519.",
               "type": "string",
               "required": true
            },
            {
               "in": "header",
               "name": "Authorization",
               "description": "Access Token",
               "type": "string",
               "required": true
            }
         ]
      }},
      "/productcolors/{productColorId}": {"get": {
         "produces": ["application/json"],
         "description": "Returns a particular unit using the unit id provided in the path.",
         "operationId": "/productcolors/{productColorId} getProductColorById",
         "responses": {
            "200": {
               "examples": {"application/json": {
                  "productColorId": {
                     "format": "int32",
                     "type": "integer"
                  },
                  "productColorDesc": {"type": "string"},
                  "productColorCode": {
                     "format": "int32",
                     "type": "integer"
                  },
                  "links": {
                     "additionalProperties": false,
                     "properties": {"self": {"type": "string"}}
                  }
               }},
               "description": "Successful response"
            },
            "401": {
               "examples": {"application/json": {"message": {"type": "string"}}},
               "description": "Unauthorized"
            },
            "500": {
               "examples": {"application/json": {"message": {"type": "string"}}},
               "description": "Internal server error"
            },
            "404": {
               "examples": {"application/json": {"message": {"type": "string"}}},
               "description": "Not Found"
            }
         },
         "parameters": [
            {
               "in": "path",
               "name": "productColorId",
               "description": "Product color Ids to fetch particular products.",
               "type": "integer",
               "required": true
            },
            {
               "in": "header",
               "name": "accept",
               "description": "Advertises which content types expressed as MIME types the client is able to understand.",
               "type": "string"
            },
            {
               "in": "header",
               "name": "accept-language",
               "description": "Advertises which languages and locale variant the client is able to understand.",
               "type": "string",
               "required": true
            },
            {
               "in": "header",
               "name": "app-code",
               "description": "Advertises which application is requesting the information.",
               "type": "string",
               "required": true
            },
            {
               "in": "header",
               "name": "jwt",
               "description": "JSON Web Token JWT, represent claims to be transferred between two parties RFC 7519.",
               "type": "string",
               "required": true
            },
            {
               "in": "header",
               "name": "Authorization",
               "description": "Access Token",
               "type": "string",
               "required": true
            }
         ]
      }}
   },
   "x-servers": [
      {"url": "https://www.cemexgo.com"},
      {"url": "https://api.cemexgo.com"},
      {"url": "https://eu.cemexgo.com"}
   ],
   "host": "www.cemexgo.com",
   "schemes": ["https"],
   "securityDefinitions": {
      "apiKeyQuery": {
         "in": "query",
         "name": "subscription-key",
         "type": "apiKey"
      },
      "apiKeyHeader": {
         "in": "header",
         "name": "Ocp-Apim-Subscription-Key",
         "type": "apiKey"
      }
   },
   "swagger": "2.0",
   "info": {
      "description": "null #Merged with legalentitytypemanagement_1.0.0.yaml #Merged with salesareamanagement_1.0.0.yaml #Merged with unitmanagement_1.0.0.yaml #Merged with agreementstatusmanagement_1.0.0.yaml #Merged with currencymanagement_1.0.0.yaml #Merged with salesdocumenttypemanagement_1.0.0.yaml #Merged with shipmentlocationtypemanagement_1.0.0.yaml #Merged with shippingconditionmanagement_1.0.0.yaml #Merged with paymenttermmanagement_1.0.0.yaml #Merged with improductlinemanagement_1.0.0.yaml #Merged with productcolorcatmanagement_1.0.0.yaml",
      "title": "[im] Information Management v1",
      "version": "1.0"
   }
}
