{
   "security": [
      {"apiKeyHeader": []},
      {"apiKeyQuery": []}
   ],
   "basePath": "/v4/ds",
   "paths": {
      "/documents": {"post": {
         "produces": ["application/json"],
         "description": "Post document to Blob Storage",
         "operationId": "/documents postDocuments",
         "responses": {
            "201": {"description": "Created"},
            "401": {"description": "Unauthorized"},
            "500": {"description": "Internal server error"}
         },
         "parameters": [
            {
               "in": "header",
               "name": "accept",
               "description": "Advertises which content types expressed as MIME types the client is able to understand.",
               "type": "string"
            },
            {
               "in": "header",
               "name": "accept-language",
               "description": "Advertises which languages and locale variant the client is able to understand.",
               "type": "string",
               "required": true
            },
            {
               "in": "header",
               "name": "app-code",
               "description": "Advertises which application is requesting the information.",
               "type": "string",
               "required": true
            },
            {
               "in": "header",
               "name": "jwt",
               "description": "JSON Web Token JWT, represent claims to be transferred between two parties RFC 7519.",
               "type": "string",
               "required": true
            },
            {
               "in": "header",
               "name": "Authorization",
               "description": "Access Token",
               "type": "string",
               "required": true
            }
         ]
      }},
      "/documentsbycustomer": {"get": {
         "produces": ["application/json"],
         "description": "Get a list customer documents on blob storage",
         "operationId": "/documentsbycustomer getDocumentsByCustomer",
         "responses": {
            "200": {
               "examples": {"application/json": {"documents": {
                  "type": "array",
                  "items": {
                     "type": "object",
                     "properties": {
                        "documentTypeDesc": {"type": "string"},
                        "cemexReference": {"type": "string"},
                        "uploadDate": {"type": "string"},
                        "documentTypeCode": {"type": "string"},
                        "customerReference": {"type": "string"},
                        "customerDocsStatus": {"type": "string"},
                        "documentSearchDesc": {"type": "string"},
                        "documentSearchCode": {"type": "string"},
                        "blobDocumentID": {"type": "string"}
                     }
                  }
               }}},
               "description": "Succesful Response"
            },
            "500": {
               "examples": {"application/json": {
                  "moreInformation": {"type": "string"},
                  "httpMessage": {"type": "string"},
                  "reasonCode": {"type": "string"},
                  "httpCode": {"type": "string"}
               }},
               "description": "Internal Error"
            }
         },
         "parameters": [
            {
               "in": "query",
               "name": "customerCode",
               "type": "string",
               "required": true
            },
            {
               "in": "query",
               "name": "dateFrom",
               "type": "string"
            },
            {
               "in": "query",
               "name": "dateTo",
               "type": "string"
            },
            {
               "in": "query",
               "name": "countryCode",
               "type": "string"
            },
            {
               "in": "header",
               "name": "accept",
               "description": "Advertises which content types expressed as MIME types the client is able to understand.",
               "type": "string"
            },
            {
               "in": "header",
               "name": "accept-language",
               "description": "Advertises which languages and locale variant the client is able to understand.",
               "type": "string",
               "required": true
            },
            {
               "in": "header",
               "name": "app-code",
               "description": "Advertises which application is requesting the information.",
               "type": "string",
               "required": true
            },
            {
               "in": "header",
               "name": "jwt",
               "description": "JSON Web Token JWT, represent claims to be transferred between two parties RFC 7519.",
               "type": "string",
               "required": true
            },
            {
               "in": "header",
               "name": "Authorization",
               "description": "Access Token",
               "type": "string",
               "required": true
            }
         ]
      }},
      "/documentzip/{guid}": {"get": {
         "produces": ["application/json"],
         "description": "Get a file zip on blob storage or SAP",
         "operationId": "/documentzip/{guid} getDocumentZip",
         "responses": {
            "200": {
               "examples": {"application/json": {
                  "fileName": {"type": "string"},
                  "totalFiles": {"type": "number"},
                  "fileContent": {"type": "string"},
                  "filesToProcess": {"type": "number"}
               }},
               "description": "Succesful Response"
            },
            "500": {
               "examples": {"application/json": {
                  "moreInformation": {"type": "string"},
                  "httpMessage": {"type": "string"},
                  "reasonCode": {"type": "string"},
                  "httpCode": {"type": "string"}
               }},
               "description": "Internal Error"
            }
         },
         "parameters": [
            {
               "in": "path",
               "name": "guid",
               "description": "Document guid identifier",
               "type": "string",
               "required": true
            },
            {
               "in": "header",
               "name": "accept",
               "description": "Advertises which content types expressed as MIME types the client is able to understand.",
               "type": "string"
            },
            {
               "in": "header",
               "name": "accept-language",
               "description": "Advertises which languages and locale variant the client is able to understand.",
               "type": "string",
               "required": true
            },
            {
               "in": "header",
               "name": "app-code",
               "description": "Advertises which application is requesting the information.",
               "type": "string",
               "required": true
            },
            {
               "in": "header",
               "name": "jwt",
               "description": "JSON Web Token JWT, represent claims to be transferred between two parties RFC 7519.",
               "type": "string",
               "required": true
            },
            {
               "in": "header",
               "name": "Authorization",
               "description": "Access Token",
               "type": "string",
               "required": true
            }
         ]
      }},
      "/accountstatement": {"get": {
         "produces": ["application/json"],
         "description": "Retrieve a files from SAP",
         "operationId": "/accountstatement getAccountStatement",
         "responses": {
            "200": {
               "examples": {"application/json": {"fileContent": {"type": "string"}}},
               "description": "Succesful Response"
            },
            "500": {
               "examples": {"application/json": {
                  "moreInformation": {"type": "string"},
                  "httpMessage": {"type": "string"},
                  "reasonCode": {"type": "string"},
                  "httpCode": {"type": "string"}
               }},
               "description": "Internal Error"
            }
         },
         "parameters": [
            {
               "in": "query",
               "name": "companyCode",
               "type": "string",
               "required": true
            },
            {
               "in": "query",
               "name": "customerCode",
               "type": "string"
            },
            {
               "in": "query",
               "name": "documentType",
               "type": "string"
            },
            {
               "in": "query",
               "name": "countryCode",
               "type": "string"
            },
            {
               "in": "query",
               "name": "dateFrom",
               "type": "string"
            },
            {
               "in": "query",
               "name": "dateTo",
               "type": "string"
            },
            {
               "in": "header",
               "name": "accept",
               "description": "Advertises which content types expressed as MIME types the client is able to understand.",
               "type": "string"
            },
            {
               "in": "header",
               "name": "accept-language",
               "description": "Advertises which languages and locale variant the client is able to understand.",
               "type": "string",
               "required": true
            },
            {
               "in": "header",
               "name": "app-code",
               "description": "Advertises which application is requesting the information.",
               "type": "string",
               "required": true
            },
            {
               "in": "header",
               "name": "jwt",
               "description": "JSON Web Token JWT, represent claims to be transferred between two parties RFC 7519.",
               "type": "string",
               "required": true
            },
            {
               "in": "header",
               "name": "Authorization",
               "description": "Access Token",
               "type": "string",
               "required": true
            }
         ]
      }},
      "/documents/dispute/{disputeId}": {"get": {
         "produces": ["application/json"],
         "description": "Get a file zip on blob storage",
         "operationId": "/documents/dispute/{disputeId} getDocumentsDisputeZip",
         "responses": {
            "200": {
               "examples": {"application/json": {
                  "fileName": {"type": "string"},
                  "totalFiles": {"type": "number"},
                  "fileContent": {"type": "string"},
                  "filesToProcess": {"type": "number"}
               }},
               "description": "Succesful Response"
            },
            "500": {
               "examples": {"application/json": {
                  "moreInformation": {"type": "string"},
                  "httpMessage": {"type": "string"},
                  "reasonCode": {"type": "string"},
                  "httpCode": {"type": "string"}
               }},
               "description": "Internal Error"
            }
         },
         "parameters": [
            {
               "in": "path",
               "name": "disputeId",
               "description": "Id dispute",
               "type": "string",
               "required": true
            },
            {
               "in": "header",
               "name": "accept",
               "description": "Advertises which content types expressed as MIME types the client is able to understand.",
               "type": "string"
            },
            {
               "in": "header",
               "name": "accept-language",
               "description": "Advertises which languages and locale variant the client is able to understand.",
               "type": "string",
               "required": true
            },
            {
               "in": "header",
               "name": "app-code",
               "description": "Advertises which application is requesting the information.",
               "type": "string",
               "required": true
            },
            {
               "in": "header",
               "name": "jwt",
               "description": "JSON Web Token JWT, represent claims to be transferred between two parties RFC 7519.",
               "type": "string",
               "required": true
            },
            {
               "in": "header",
               "name": "Authorization",
               "description": "Access Token",
               "type": "string",
               "required": true
            }
         ]
      }},
      "/documents/{guid}": {
         "get": {
            "produces": ["application/json"],
            "description": "Get a document for blob storage",
            "operationId": "/documents/{guid} getDocumentByGuid",
            "responses": {
               "200": {"description": "OK"},
               "401": {"description": "Unauthorized"},
               "500": {"description": "Internal server error"},
               "404": {"description": "Not Found"}
            },
            "parameters": [
               {
                  "in": "path",
                  "name": "guid",
                  "description": "Document guid identifier",
                  "type": "string",
                  "required": true
               },
               {
                  "in": "header",
                  "name": "accept",
                  "description": "Advertises which content types expressed as MIME types the client is able to understand.",
                  "type": "string"
               },
               {
                  "in": "header",
                  "name": "accept-language",
                  "description": "Advertises which languages and locale variant the client is able to understand.",
                  "type": "string",
                  "required": true
               },
               {
                  "in": "header",
                  "name": "app-code",
                  "description": "Advertises which application is requesting the information.",
                  "type": "string",
                  "required": true
               },
               {
                  "in": "header",
                  "name": "jwt",
                  "description": "JSON Web Token JWT, represent claims to be transferred between two parties RFC 7519.",
                  "type": "string",
                  "required": true
               },
               {
                  "in": "header",
                  "name": "Authorization",
                  "description": "Access Token",
                  "type": "string",
                  "required": true
               }
            ]
         },
         "delete": {
            "produces": ["application/json"],
            "description": "Delete a document for blob storage",
            "operationId": "/documents/{guid} deleteDocumentByGuid",
            "responses": {
               "200": {"description": "Ok"},
               "401": {"description": "Unauthorized"},
               "500": {"description": "Internal server error"}
            },
            "parameters": [
               {
                  "in": "path",
                  "name": "guid",
                  "description": "Document guid identifier",
                  "type": "string",
                  "required": true
               },
               {
                  "in": "header",
                  "name": "accept",
                  "description": "Advertises which content types expressed as MIME types the client is able to understand.",
                  "type": "string"
               },
               {
                  "in": "header",
                  "name": "accept-language",
                  "description": "Advertises which languages and locale variant the client is able to understand.",
                  "type": "string",
                  "required": true
               },
               {
                  "in": "header",
                  "name": "app-code",
                  "description": "Advertises which application is requesting the information.",
                  "type": "string",
                  "required": true
               },
               {
                  "in": "header",
                  "name": "jwt",
                  "description": "JSON Web Token JWT, represent claims to be transferred between two parties RFC 7519.",
                  "type": "string",
                  "required": true
               },
               {
                  "in": "header",
                  "name": "Authorization",
                  "description": "Access Token",
                  "type": "string",
                  "required": true
               }
            ]
         }
      },
      "/previewfile": {"get": {
         "produces": ["application/json"],
         "description": "Get a file from blob storage",
         "operationId": "/previewfile getPreviewFile",
         "responses": {
            "200": {
               "examples": {"application/json": {"files": {
                  "type": "array",
                  "items": {
                     "type": "object",
                     "properties": {
                        "fileName": {"type": "string"},
                        "blobDocumentID": {"type": "string"},
                        "fileContent": {"type": "string"}
                     }
                  }
               }}},
               "description": "Succesful Response"
            },
            "500": {
               "examples": {"application/json": {
                  "moreInformation": {"type": "string"},
                  "httpMessage": {"type": "string"},
                  "reasonCode": {"type": "string"},
                  "httpCode": {"type": "string"}
               }},
               "description": "Internal Error"
            }
         },
         "parameters": [
            {
               "in": "query",
               "name": "blobDocumentID",
               "description": "get a file",
               "type": "string",
               "required": true
            },
            {
               "in": "header",
               "name": "accept",
               "description": "Advertises which content types expressed as MIME types the client is able to understand.",
               "type": "string"
            },
            {
               "in": "header",
               "name": "accept-language",
               "description": "Advertises which languages and locale variant the client is able to understand.",
               "type": "string",
               "required": true
            },
            {
               "in": "header",
               "name": "app-code",
               "description": "Advertises which application is requesting the information.",
               "type": "string",
               "required": true
            },
            {
               "in": "header",
               "name": "jwt",
               "description": "JSON Web Token JWT, represent claims to be transferred between two parties RFC 7519.",
               "type": "string",
               "required": true
            },
            {
               "in": "header",
               "name": "Authorization",
               "description": "Access Token",
               "type": "string",
               "required": true
            }
         ]
      }},
      "/configdocument": {"patch": {
         "produces": ["application/json"],
         "description": "Update if a document is enabled or not",
         "operationId": "/configdocument patchConfigDocument",
         "responses": {
            "200": {"description": "Succesful Response"},
            "500": {
               "examples": {"application/json": {
                  "moreInformation": {"type": "string"},
                  "httpMessage": {"type": "string"},
                  "reasonCode": {"type": "string"},
                  "httpCode": {"type": "string"}
               }},
               "description": "Internal Error"
            }
         },
         "parameters": [
            {
               "in": "query",
               "name": "customerCode",
               "type": "string",
               "required": true
            },
            {
               "in": "query",
               "name": "documentTypeCode",
               "type": "string"
            },
            {
               "in": "query",
               "name": "selectFlag",
               "type": "string"
            },
            {
               "in": "query",
               "name": "countryCode",
               "type": "string"
            },
            {
               "in": "header",
               "name": "accept",
               "description": "Advertises which content types expressed as MIME types the client is able to understand.",
               "type": "string"
            },
            {
               "in": "header",
               "name": "accept-language",
               "description": "Advertises which languages and locale variant the client is able to understand.",
               "type": "string",
               "required": true
            },
            {
               "in": "header",
               "name": "app-code",
               "description": "Advertises which application is requesting the information.",
               "type": "string",
               "required": true
            },
            {
               "in": "header",
               "name": "jwt",
               "description": "JSON Web Token JWT, represent claims to be transferred between two parties RFC 7519.",
               "type": "string",
               "required": true
            },
            {
               "in": "header",
               "name": "Authorization",
               "description": "Access Token",
               "type": "string",
               "required": true
            }
         ]
      }},
      "/documentsbyinvoices": {"post": {
         "produces": ["application/json"],
         "description": "Get a file zip on blob storage or SAP",
         "operationId": "/documentsbyinvoices postDocumentsByInvoices",
         "responses": {
            "200": {
               "examples": {"application/json": {"guidRequestFile": {"type": "string"}}},
               "description": "Succesful Response"
            },
            "500": {
               "examples": {"application/json": {
                  "moreInformation": {"type": "string"},
                  "httpMessage": {"type": "string"},
                  "reasonCode": {"type": "string"},
                  "httpCode": {"type": "string"}
               }},
               "description": "Internal Error"
            }
         },
         "parameters": [
            {
               "in": "header",
               "name": "accept",
               "description": "Advertises which content types expressed as MIME types the client is able to understand.",
               "type": "string"
            },
            {
               "in": "header",
               "name": "accept-language",
               "description": "Advertises which languages and locale variant the client is able to understand.",
               "type": "string",
               "required": true
            },
            {
               "in": "header",
               "name": "app-code",
               "description": "Advertises which application is requesting the information.",
               "type": "string",
               "required": true
            },
            {
               "in": "header",
               "name": "jwt",
               "description": "JSON Web Token JWT, represent claims to be transferred between two parties RFC 7519.",
               "type": "string",
               "required": true
            },
            {
               "in": "header",
               "name": "Authorization",
               "description": "Access Token",
               "type": "string",
               "required": true
            },
            {
               "schema": {"example": "{\"documents\":{\"type\":\"array\",\"items\":{\"type\":\"object\",\"properties\":{\"documentId\":{\"type\":\"number\"},\"debitFlag\":{\"type\":\"boolean\"},\"ticketCode\":{\"type\":\"string\"}}}},\"documentTypeCode\":{\"type\":\"array\",\"items\":{\"type\":\"string\"}},\"countryCode\":{\"type\":\"string\"}}"},
               "in": "body",
               "name": "body",
               "description": "List invoices & type documents."
            }
         ],
         "consumes": ["application/json"]
      }},
      "/uploadfile": {"post": {
         "produces": ["application/json"],
         "description": "Upload a file to blob storage",
         "operationId": "/uploadfile postUploadFile",
         "responses": {
            "200": {
               "examples": {"application/json": {"files": {
                  "type": "array",
                  "items": {
                     "type": "object",
                     "properties": {
                        "fileName": {"type": "string"},
                        "cemexReference": {"type": "string"},
                        "documentTypeCode": {"type": "string"},
                        "customerReference": {"type": "string"},
                        "cemexReferenceType": {"type": "string"},
                        "referenceStatus": {"type": "string"},
                        "referenceDate": {"type": "string"},
                        "customerBlobReqId": {"type": "string"}
                     }
                  }
               }}},
               "description": "Succesful Response"
            },
            "500": {
               "examples": {"application/json": {
                  "moreInformation": {"type": "string"},
                  "httpMessage": {"type": "string"},
                  "reasonCode": {"type": "string"},
                  "httpCode": {"type": "string"}
               }},
               "description": "Internal Error"
            }
         },
         "parameters": [
            {
               "in": "header",
               "name": "accept",
               "description": "Advertises which content types expressed as MIME types the client is able to understand.",
               "type": "string"
            },
            {
               "in": "header",
               "name": "accept-language",
               "description": "Advertises which languages and locale variant the client is able to understand.",
               "type": "string",
               "required": true
            },
            {
               "in": "header",
               "name": "app-code",
               "description": "Advertises which application is requesting the information.",
               "type": "string",
               "required": true
            },
            {
               "in": "header",
               "name": "jwt",
               "description": "JSON Web Token JWT, represent claims to be transferred between two parties RFC 7519.",
               "type": "string",
               "required": true
            },
            {
               "in": "header",
               "name": "Authorization",
               "description": "Access Token",
               "type": "string",
               "required": true
            },
            {
               "schema": {"example": "{\"files\":{\"type\":\"array\",\"items\":{\"type\":\"object\",\"properties\":{\"documentTypeCode\":{\"type\":\"string\"},\"customerReference\":{\"type\":\"string\"},\"cemexReference\":{\"type\":\"string\"},\"cemexReferenceType\":{\"type\":\"string\"},\"fileName\":{\"type\":\"string\"},\"referenceDate\":{\"type\":\"string\"},\"referenceStatus\":{\"type\":\"string\"},\"customerBlobReqId\":{\"type\":\"string\"}}}}}"},
               "in": "body",
               "name": "body",
               "description": "Dispute Information"
            }
         ],
         "consumes": ["application/json"]
      }},
      "/configdocuments": {"get": {
         "produces": ["application/json"],
         "description": "Get all configuration documents",
         "operationId": "/configdocuments getConfigDocuments",
         "responses": {
            "200": {
               "examples": {"application/json": {"configDocuments": {
                  "type": "array",
                  "items": {
                     "type": "object",
                     "properties": {
                        "documentTypeDesc": {"type": "string"},
                        "documentTypeCode": {"type": "string"},
                        "internalDocumentFlag": {"type": "string"},
                        "selectFlag": {"type": "string"}
                     }
                  }
               }}},
               "description": "Succesful Response"
            },
            "500": {
               "examples": {"application/json": {
                  "moreInformation": {"type": "string"},
                  "httpMessage": {"type": "string"},
                  "reasonCode": {"type": "string"},
                  "httpCode": {"type": "string"}
               }},
               "description": "Internal Error"
            }
         },
         "parameters": [
            {
               "in": "query",
               "name": "customerCode",
               "type": "string",
               "required": true
            },
            {
               "in": "query",
               "name": "internalDocumentFlag",
               "type": "string"
            },
            {
               "in": "query",
               "name": "selectFlag",
               "type": "string"
            },
            {
               "in": "query",
               "name": "countryCode",
               "type": "string"
            },
            {
               "in": "query",
               "name": "languageCode",
               "type": "string"
            },
            {
               "in": "header",
               "name": "accept",
               "description": "Advertises which content types expressed as MIME types the client is able to understand.",
               "type": "string"
            },
            {
               "in": "header",
               "name": "accept-language",
               "description": "Advertises which languages and locale variant the client is able to understand.",
               "type": "string",
               "required": true
            },
            {
               "in": "header",
               "name": "app-code",
               "description": "Advertises which application is requesting the information.",
               "type": "string",
               "required": true
            },
            {
               "in": "header",
               "name": "jwt",
               "description": "JSON Web Token JWT, represent claims to be transferred between two parties RFC 7519.",
               "type": "string",
               "required": true
            },
            {
               "in": "header",
               "name": "Authorization",
               "description": "Access Token",
               "type": "string",
               "required": true
            }
         ]
      }}
   },
   "x-servers": [
      {"url": "https://www.cemexgo.com"},
      {"url": "https://api.cemexgo.com"},
      {"url": "https://eu.cemexgo.com"}
   ],
   "host": "www.cemexgo.com",
   "schemes": ["https"],
   "securityDefinitions": {
      "apiKeyQuery": {
         "in": "query",
         "name": "subscription-key",
         "type": "apiKey"
      },
      "apiKeyHeader": {
         "in": "header",
         "name": "Ocp-Apim-Subscription-Key",
         "type": "apiKey"
      }
   },
   "swagger": "2.0",
   "info": {
      "description": "API for file management #Merged with filestorage_4.3.0.yaml",
      "title": "[ds] Document Storage v4",
      "version": "1.0"
   }
}
