{
   "security": [
      {"apiKeyHeader": []},
      {"apiKeyQuery": []}
   ],
   "basePath": "/v1/arm",
   "paths": {
      "/salesorganizations": {"get": {
         "produces": ["application/json"],
         "description": "Get Sales Organizations by Role",
         "operationId": "/salesorganizations getSalesOrgbyRole",
         "responses": {
            "200": {
               "examples": {"application/json": {"salesOrganizations": {
                  "type": "array",
                  "items": {
                     "type": "object",
                     "properties": {"salesOrgCode": {"type": "string"}}
                  }
               }}},
               "description": "Succesful Response"
            },
            "500": {
               "examples": {"application/json": {
                  "moreInformation": {"type": "string"},
                  "httpMessage": {"type": "string"},
                  "reasonCode": {"type": "string"},
                  "httpCode": {"type": "string"}
               }},
               "description": "Request Timeout"
            }
         },
         "parameters": [
            {
               "in": "query",
               "name": "roleCode",
               "description": "Role code",
               "type": "string",
               "required": true
            },
            {
               "in": "header",
               "name": "accept",
               "description": "Advertises which content types expressed as MIME types the client is able to understand.",
               "type": "string"
            },
            {
               "in": "header",
               "name": "accept-language",
               "description": "Advertises which languages and locale variant the client is able to understand.",
               "type": "string",
               "required": true
            },
            {
               "in": "header",
               "name": "app-code",
               "description": "Advertises which application is requesting the information.",
               "type": "string",
               "required": true
            },
            {
               "in": "header",
               "name": "jwt",
               "description": "JSON Web Token JWT, represent claims to be transferred between two parties RFC 7519.",
               "type": "string",
               "required": true
            },
            {
               "in": "header",
               "name": "Authorization",
               "description": "Access Token",
               "type": "string",
               "required": true
            }
         ]
      }},
      "/legalentityjobsites": {"get": {
         "produces": ["application/json"],
         "description": "Get the entities relationed to the user by accountId and customer",
         "operationId": "/legalentityjobsites GetLegalEntityByAccountAndCustomer",
         "responses": {
            "200": {
               "examples": {"application/json": {
                  "company": {
                     "type": "array",
                     "items": {
                        "type": "object",
                        "properties": {
                           "companyCode": {"type": "string"},
                           "divisionCode": {"type": "string"},
                           "companyDesc": {"type": "string"},
                           "countryCode": {"type": "string"}
                        }
                     }
                  },
                  "payer": {
                     "description": "when countryCode is US, then Front End should look for Payers instead of jobsites",
                     "type": "array",
                     "items": {
                        "type": "object",
                        "properties": {
                           "payerDesc": {"type": "string"},
                           "payerCode": {"type": "string"}
                        }
                     }
                  },
                  "jobSite": {
                     "description": "¿ Ship to, bill to ?",
                     "type": "array",
                     "items": {
                        "type": "object",
                        "properties": {
                           "jobSiteDesc": {"type": "string"},
                           "jobSiteCode": {"type": "string"}
                        }
                     }
                  },
                  "customer": {
                     "type": "array",
                     "items": {
                        "type": "object",
                        "properties": {
                           "countryCode": {"type": "string"},
                           "customerCode": {"type": "string"},
                           "customerDesc": {"type": "string"}
                        }
                     }
                  }
               }},
               "description": "Successful response"
            },
            "500": {
               "examples": {"application/json": {
                  "code": {"type": "string"},
                  "detail": {"type": "string"}
               }},
               "description": "Internal Error"
            }
         },
         "parameters": [
            {
               "in": "query",
               "name": "companyCode",
               "description": "Sales org id.",
               "type": "string",
               "required": true
            },
            {
               "in": "query",
               "name": "customerCode",
               "description": "Customer number",
               "type": "string",
               "required": true
            },
            {
               "in": "header",
               "name": "accept",
               "description": "Advertises which content types expressed as MIME types the client is able to understand.",
               "type": "string"
            },
            {
               "in": "header",
               "name": "accept-language",
               "description": "Advertises which languages and locale variant the client is able to understand.",
               "type": "string",
               "required": true
            },
            {
               "in": "header",
               "name": "app-code",
               "description": "Advertises which application is requesting the information.",
               "type": "string",
               "required": true
            },
            {
               "in": "header",
               "name": "jwt",
               "description": "JSON Web Token JWT, represent claims to be transferred between two parties RFC 7519.",
               "type": "string",
               "required": true
            },
            {
               "in": "header",
               "name": "Authorization",
               "description": "Access Token",
               "type": "string",
               "required": true
            }
         ]
      }},
      "/financialdocuments": {"get": {
         "produces": ["application/json"],
         "description": "Get finalcial documents by customer Id",
         "operationId": "/financialdocuments getDocuments",
         "responses": {
            "200": {
               "examples": {"application/json": {"documents": {
                  "type": "array",
                  "items": {
                     "type": "object",
                     "properties": {
                        "documentCode": {
                           "description": "Invoice - folioDocument in SAP",
                           "type": "number"
                        },
                        "disputeCode": {
                           "description": "Dispute code",
                           "type": "number"
                        },
                        "docStatusDesc": {
                           "description": "Document status Description",
                           "type": "string"
                        },
                        "dueDate": {
                           "format": "date-time",
                           "description": "Due Date of the document",
                           "type": "string"
                        },
                        "discount": {
                           "description": "discount",
                           "type": "number"
                        },
                        "customerCode": {
                           "description": "Customer Code",
                           "type": "string"
                        },
                        "daysToDue": {
                           "description": "Days to due",
                           "type": "number"
                        },
                        "totalPO": {
                           "description": "total count of purchaseOrder",
                           "type": "number"
                        },
                        "documentTypeDesc": {
                           "description": "Description document type",
                           "type": "string"
                        },
                        "disputeResolutionDate": {
                           "format": "date-time",
                           "description": "Dispute resolution date",
                           "type": "string"
                        },
                        "balance": {
                           "description": "balance",
                           "type": "number"
                        },
                        "referenceNumber": {
                           "description": "Reference",
                           "type": "string"
                        },
                        "disputeStatusCode": {
                           "description": "Dispute status code",
                           "type": "string"
                        },
                        "countryCode": {
                           "description": "Country code",
                           "type": "string"
                        },
                        "customerJobsiteNumber": {
                           "description": "Jobsite number for customer",
                           "type": "string"
                        },
                        "paymentProcessFlag": {
                           "description": "payment Process Flag (true = in process)",
                           "type": "boolean"
                        },
                        "jobSiteDesc": {
                           "description": "jobsite name",
                           "type": "string"
                        },
                        "debitFlag": {
                           "description": "Flag credit(false) or debit (true)",
                           "type": "boolean"
                        },
                        "disputeCompromiseDate": {
                           "format": "date-time",
                           "description": "Dispute compromise date",
                           "type": "string"
                        },
                        "createDate": {
                           "format": "date-time",
                           "description": "createDate - date of the document",
                           "type": "string"
                        },
                        "companyCode": {
                           "description": "Company Code",
                           "type": "string"
                        },
                        "dispute": {
                           "description": "Dispute",
                           "type": "boolean"
                        },
                        "amount": {
                           "description": "Total - document original amount",
                           "type": "number"
                        },
                        "paymentsBalance": {
                           "description": "Balance of payments in process",
                           "type": "number"
                        },
                        "documentItem": {
                           "description": "Document Item (BUZEI - Accounting position)",
                           "type": "string"
                        },
                        "contract": {
                           "description": "top 1 contract number",
                           "type": "string"
                        },
                        "applyDiscount": {
                           "description": "Flag apply discount",
                           "type": "boolean"
                        },
                        "totalContracts": {
                           "description": "total count of contracts",
                           "type": "number"
                        },
                        "docStatusCode": {
                           "description": "Document status code",
                           "type": "string"
                        },
                        "divisionCode": {
                           "description": "Division Code",
                           "type": "string"
                        },
                        "disputeStatusDesc": {
                           "description": "Dispute status description",
                           "type": "string"
                        },
                        "documentTypeCode": {
                           "description": "Document type (RB, DA, ETC)",
                           "type": "string"
                        },
                        "disputeId": {
                           "description": "Dispute ID",
                           "type": "number"
                        },
                        "invoiceReviewed": {
                           "description": "flag for invoice reviewed",
                           "type": "boolean"
                        },
                        "purchaseOrder": {
                           "description": "PO number",
                           "type": "string"
                        },
                        "documentId": {
                           "description": "document Id",
                           "type": "number"
                        },
                        "PPDDueDate": {
                           "format": "date-time",
                           "description": "PPD Due date",
                           "type": "string"
                        },
                        "paymentFlag": {
                           "description": "payment Flag",
                           "type": "boolean"
                        },
                        "jobSiteCode": {
                           "description": "jobSiteId",
                           "type": "number"
                        },
                        "daysOverDue": {
                           "description": "Days over due",
                           "type": "number"
                        },
                        "currencyCode": {
                           "description": "Currency Code - Waers",
                           "type": "string"
                        },
                        "salesOrgCode": {
                           "description": "Sales Org Code",
                           "type": "string"
                        },
                        "relatedDocument": {
                           "description": "Related document",
                           "type": "string"
                        }
                     }
                  }
               }}},
               "description": "Succesful Response"
            },
            "500": {
               "examples": {"application/json": {
                  "moreInformation": {"type": "string"},
                  "httpMessage": {"type": "string"},
                  "reasonCode": {"type": "string"},
                  "httpCode": {"type": "string"}
               }},
               "description": "Request Timeout"
            },
            "404": {
               "examples": {"application/json": {
                  "moreInformation": {"type": "string"},
                  "httpMessage": {"type": "string"},
                  "reasonCode": {"type": "string"},
                  "httpCode": {"type": "string"}
               }},
               "description": "Not Found"
            }
         },
         "parameters": [
            {
               "in": "query",
               "name": "status",
               "description": "status (A=all - C=Closed - O=Open)",
               "type": "string",
               "required": true
            },
            {
               "in": "query",
               "name": "documentTypeCode",
               "description": "Document type code",
               "type": "string"
            },
            {
               "in": "query",
               "name": "companyCode",
               "description": "Company Code",
               "type": "string"
            },
            {
               "in": "query",
               "name": "customerCode",
               "description": "Customer Code",
               "type": "string"
            },
            {
               "in": "query",
               "name": "divisionCode",
               "description": "Division Code",
               "type": "string"
            },
            {
               "in": "query",
               "name": "jobSiteCode",
               "description": "JobSite Code",
               "type": "number"
            },
            {
               "in": "query",
               "name": "dateFrom",
               "description": "Date from",
               "type": "string"
            },
            {
               "in": "query",
               "name": "dateTo",
               "description": "Date to",
               "type": "string"
            },
            {
               "in": "query",
               "name": "documentCode",
               "description": "Invoice - folioDocument in SAP",
               "type": "number"
            },
            {
               "in": "query",
               "name": "lastUpdate",
               "description": "Last Update",
               "type": "string"
            },
            {
               "in": "query",
               "name": "countryCode",
               "description": "Country code",
               "type": "string"
            },
            {
               "in": "header",
               "name": "accept",
               "description": "Advertises which content types expressed as MIME types the client is able to understand.",
               "type": "string"
            },
            {
               "in": "header",
               "name": "accept-language",
               "description": "Advertises which languages and locale variant the client is able to understand.",
               "type": "string",
               "required": true
            },
            {
               "in": "header",
               "name": "app-code",
               "description": "Advertises which application is requesting the information.",
               "type": "string",
               "required": true
            },
            {
               "in": "header",
               "name": "jwt",
               "description": "JSON Web Token JWT, represent claims to be transferred between two parties RFC 7519.",
               "type": "string",
               "required": true
            },
            {
               "in": "header",
               "name": "Authorization",
               "description": "Access Token",
               "type": "string",
               "required": true
            }
         ]
      }},
      "/legalentitycustomers": {"get": {
         "produces": ["application/json"],
         "description": "Get the entities relationed to the user by accountId",
         "operationId": "/legalentitycustomers GetLegalEntityByAccount",
         "responses": {
            "200": {
               "examples": {"application/json": {
                  "company": {
                     "type": "array",
                     "items": {
                        "type": "object",
                        "properties": {
                           "companyCode": {"type": "string"},
                           "divisionCode": {"type": "string"},
                           "companyDesc": {"type": "string"},
                           "countryCode": {"type": "string"}
                        }
                     }
                  },
                  "payer": {
                     "description": "when countryCode is US, then Front End should look for Payers instead of jobsites",
                     "type": "array",
                     "items": {
                        "type": "object",
                        "properties": {
                           "payerDesc": {"type": "string"},
                           "payerCode": {"type": "string"}
                        }
                     }
                  },
                  "jobSite": {
                     "description": "¿ Ship to, bill to ?",
                     "type": "array",
                     "items": {
                        "type": "object",
                        "properties": {
                           "jobSiteDesc": {"type": "string"},
                           "jobSiteCode": {"type": "string"}
                        }
                     }
                  },
                  "customer": {
                     "type": "array",
                     "items": {
                        "type": "object",
                        "properties": {
                           "countryCode": {"type": "string"},
                           "customerCode": {"type": "string"},
                           "customerDesc": {"type": "string"}
                        }
                     }
                  }
               }},
               "description": "Successful response"
            },
            "500": {
               "examples": {"application/json": {
                  "code": {"type": "string"},
                  "detail": {"type": "string"}
               }},
               "description": "Internal Error"
            }
         },
         "parameters": [
            {
               "in": "query",
               "name": "companyCode",
               "description": "Sales org id.",
               "type": "string"
            },
            {
               "in": "header",
               "name": "accept",
               "description": "Advertises which content types expressed as MIME types the client is able to understand.",
               "type": "string"
            },
            {
               "in": "header",
               "name": "accept-language",
               "description": "Advertises which languages and locale variant the client is able to understand.",
               "type": "string",
               "required": true
            },
            {
               "in": "header",
               "name": "app-code",
               "description": "Advertises which application is requesting the information.",
               "type": "string",
               "required": true
            },
            {
               "in": "header",
               "name": "jwt",
               "description": "JSON Web Token JWT, represent claims to be transferred between two parties RFC 7519.",
               "type": "string",
               "required": true
            },
            {
               "in": "header",
               "name": "Authorization",
               "description": "Access Token",
               "type": "string",
               "required": true
            }
         ]
      }},
      "/legalentity": {"get": {
         "produces": ["application/json"],
         "description": "Get the entities relationed to the user.",
         "operationId": "/legalentity GetLegalEntity",
         "responses": {
            "200": {
               "examples": {"application/json": {
                  "company": {
                     "type": "array",
                     "items": {
                        "type": "object",
                        "properties": {
                           "companyCode": {"type": "string"},
                           "divisionCode": {"type": "string"},
                           "companyDesc": {"type": "string"},
                           "countryCode": {"type": "string"}
                        }
                     }
                  },
                  "payer": {
                     "description": "when countryCode is US, then Front End should look for Payers instead of jobsites",
                     "type": "array",
                     "items": {
                        "type": "object",
                        "properties": {
                           "payerDesc": {"type": "string"},
                           "payerCode": {"type": "string"}
                        }
                     }
                  },
                  "jobSite": {
                     "description": "¿ Ship to, bill to ?",
                     "type": "array",
                     "items": {
                        "type": "object",
                        "properties": {
                           "jobSiteDesc": {"type": "string"},
                           "jobSiteCode": {"type": "string"}
                        }
                     }
                  },
                  "customer": {
                     "type": "array",
                     "items": {
                        "type": "object",
                        "properties": {
                           "countryCode": {"type": "string"},
                           "customerCode": {"type": "string"},
                           "customerDesc": {"type": "string"}
                        }
                     }
                  }
               }},
               "description": "Successful response"
            },
            "500": {
               "examples": {"application/json": {
                  "code": {"type": "string"},
                  "detail": {"type": "string"}
               }},
               "description": "Internal Error"
            }
         },
         "parameters": [
            {
               "in": "query",
               "name": "customerCode",
               "description": "The customerCode to get the companies related to the customer.",
               "type": "string"
            },
            {
               "in": "header",
               "name": "accept",
               "description": "Advertises which content types expressed as MIME types the client is able to understand.",
               "type": "string"
            },
            {
               "in": "header",
               "name": "accept-language",
               "description": "Advertises which languages and locale variant the client is able to understand.",
               "type": "string",
               "required": true
            },
            {
               "in": "header",
               "name": "app-code",
               "description": "Advertises which application is requesting the information.",
               "type": "string",
               "required": true
            },
            {
               "in": "header",
               "name": "jwt",
               "description": "JSON Web Token JWT, represent claims to be transferred between two parties RFC 7519.",
               "type": "string",
               "required": true
            },
            {
               "in": "header",
               "name": "Authorization",
               "description": "Access Token",
               "type": "string",
               "required": true
            }
         ]
      }},
      "/ticketspricingsummary": {"get": {
         "produces": ["application/json"],
         "description": "With the invoice number will show the tickets that the invoice contains",
         "operationId": "/ticketspricingsummary getTicketsPricingSummary",
         "responses": {
            "200": {
               "examples": {"application/json": {"ticketssummary": {
                  "type": "array",
                  "items": {
                     "type": "object",
                     "properties": {
                        "productDesc": {"type": "string"},
                        "unitPrice": {"type": "integer"},
                        "unit": {
                           "type": "object",
                           "properties": {
                              "unitDesc": {"type": "string"},
                              "unitCode": {"type": "string"},
                              "unitId": {"type": "integer"}
                           }
                        },
                        "productTypeDesc": {"type": "string"},
                        "totalPrice": {"type": "integer"},
                        "deliveryQuantity": {"type": "integer"},
                        "productTypeCode": {"type": "string"}
                     }
                  }
               }}},
               "description": "Successful response"
            },
            "500": {
               "examples": {"application/json": {
                  "moreInformation": {"type": "string"},
                  "httpMessage": {"type": "string"},
                  "reasonCode": {"type": "string"},
                  "httpCode": {"type": "string"}
               }},
               "description": "Internal Error"
            }
         },
         "parameters": [
            {
               "in": "query",
               "name": "documentId",
               "description": "Invoice number",
               "type": "integer",
               "required": true
            },
            {
               "in": "query",
               "name": "debitFlag",
               "description": "Flag credit(false) or debit (true)",
               "type": "boolean"
            },
            {
               "in": "header",
               "name": "accept",
               "description": "Advertises which content types expressed as MIME types the client is able to understand.",
               "type": "string"
            },
            {
               "in": "header",
               "name": "accept-language",
               "description": "Advertises which languages and locale variant the client is able to understand.",
               "type": "string",
               "required": true
            },
            {
               "in": "header",
               "name": "app-code",
               "description": "Advertises which application is requesting the information.",
               "type": "string",
               "required": true
            },
            {
               "in": "header",
               "name": "jwt",
               "description": "JSON Web Token JWT, represent claims to be transferred between two parties RFC 7519.",
               "type": "string",
               "required": true
            },
            {
               "in": "header",
               "name": "Authorization",
               "description": "Access Token",
               "type": "string",
               "required": true
            }
         ]
      }},
      "/searchreference": {
         "get": {
            "produces": ["application/json"],
            "description": "Method to search references from differents tpe of documents",
            "operationId": "/searchreference searchReferences",
            "responses": {
               "200": {
                  "examples": {"application/json": {"references": {
                     "type": "array",
                     "items": {
                        "type": "object",
                        "properties": {
                           "cemexReference": {"type": "string"},
                           "documentId": {"type": "integer"}
                        }
                     }
                  }}},
                  "description": "Successful response"
               },
               "500": {
                  "examples": {"application/json": {
                     "moreInformation": {"type": "string"},
                     "httpMessage": {"type": "string"},
                     "reasonCode": {"type": "string"},
                     "httpCode": {"type": "string"}
                  }},
                  "description": "Internal Error"
               }
            },
            "parameters": [
               {
                  "in": "query",
                  "name": "documentTypeCode",
                  "description": "Type of document code",
                  "type": "string",
                  "required": true
               },
               {
                  "in": "query",
                  "name": "jobSiteCode",
                  "description": "Job site code",
                  "type": "string",
                  "required": true
               },
               {
                  "in": "query",
                  "name": "dateTo",
                  "description": "Final date",
                  "type": "string",
                  "required": true
               },
               {
                  "in": "query",
                  "name": "dateFrom",
                  "description": "Initial date",
                  "type": "string",
                  "required": true
               },
               {
                  "in": "query",
                  "name": "customerCode",
                  "description": "Customer code to search",
                  "type": "string",
                  "required": true
               },
               {
                  "in": "header",
                  "name": "accept",
                  "description": "Advertises which content types expressed as MIME types the client is able to understand.",
                  "type": "string"
               },
               {
                  "in": "header",
                  "name": "accept-language",
                  "description": "Advertises which languages and locale variant the client is able to understand.",
                  "type": "string",
                  "required": true
               },
               {
                  "in": "header",
                  "name": "app-code",
                  "description": "Advertises which application is requesting the information.",
                  "type": "string",
                  "required": true
               },
               {
                  "in": "header",
                  "name": "jwt",
                  "description": "JSON Web Token JWT, represent claims to be transferred between two parties RFC 7519.",
                  "type": "string",
                  "required": true
               },
               {
                  "in": "header",
                  "name": "Authorization",
                  "description": "Access Token",
                  "type": "string",
                  "required": true
               }
            ]
         },
         "put": {
            "produces": ["application/json"],
            "description": "Method to related references to documentId",
            "operationId": "/searchreference updateReferences",
            "responses": {
               "200": {
                  "examples": {"application/json": {"result": {"type": "boolean"}}},
                  "description": "Successful response"
               },
               "500": {
                  "examples": {"application/json": {
                     "moreInformation": {"type": "string"},
                     "httpMessage": {"type": "string"},
                     "reasonCode": {"type": "string"},
                     "httpCode": {"type": "string"}
                  }},
                  "description": "Internal Error"
               }
            },
            "parameters": [
               {
                  "in": "header",
                  "name": "accept",
                  "description": "Advertises which content types expressed as MIME types the client is able to understand.",
                  "type": "string"
               },
               {
                  "in": "header",
                  "name": "accept-language",
                  "description": "Advertises which languages and locale variant the client is able to understand.",
                  "type": "string",
                  "required": true
               },
               {
                  "in": "header",
                  "name": "app-code",
                  "description": "Advertises which application is requesting the information.",
                  "type": "string",
                  "required": true
               },
               {
                  "in": "header",
                  "name": "jwt",
                  "description": "JSON Web Token JWT, represent claims to be transferred between two parties RFC 7519.",
                  "type": "string",
                  "required": true
               },
               {
                  "in": "header",
                  "name": "Authorization",
                  "description": "Access Token",
                  "type": "string",
                  "required": true
               },
               {
                  "schema": {"example": "{\"documentTypeCode\":{\"type\":\"string\"},\"customerBlobReqId\":{\"type\":\"integer\"},\"references\":{\"type\":\"array\",\"items\":{\"type\":\"object\",\"properties\":{\"documentId\":{\"type\":\"integer\"},\"cemexReference\":{\"type\":\"string\"}}}}}"},
                  "in": "body",
                  "name": "body",
                  "description": "request header"
               }
            ],
            "consumes": ["application/json"]
         }
      },
      "/accountsummary": {"get": {
         "produces": ["application/json"],
         "description": "Get the account summary data blance",
         "operationId": "/accountsummary GetAccountSummary",
         "responses": {
            "200": {
               "examples": {"application/json": {
                  "currentBalanceAmount": {"type": "string"},
                  "totalBalanceCountItems": {"type": "string"},
                  "currentBalanceCountItems": {"type": "string"},
                  "totalBalanceAmount": {"type": "string"},
                  "pastDueBalanceCountItems": {"type": "string"},
                  "creditLimit": {"type": "string"},
                  "companyRemaining": {"type": "string"},
                  "creditLimitUsed": {"type": "string"},
                  "pendingOrders": {"type": "string"},
                  "creditAvailable": {"type": "string"},
                  "pastDueBalanceAmount": {"type": "string"}
               }},
               "description": "Succesful Response"
            },
            "500": {
               "examples": {"application/json": {
                  "code": {"type": "string"},
                  "detail": {"type": "string"}
               }},
               "description": "Request Timeout"
            }
         },
         "parameters": [
            {
               "in": "header",
               "name": "accept",
               "description": "Advertises which content types expressed as MIME types the client is able to understand.",
               "type": "string"
            },
            {
               "in": "header",
               "name": "accept-language",
               "description": "Advertises which languages and locale variant the client is able to understand.",
               "type": "string",
               "required": true
            },
            {
               "in": "header",
               "name": "app-code",
               "description": "Advertises which application is requesting the information.",
               "type": "string",
               "required": true
            },
            {
               "in": "header",
               "name": "jwt",
               "description": "JSON Web Token JWT, represent claims to be transferred between two parties RFC 7519.",
               "type": "string",
               "required": true
            },
            {
               "in": "header",
               "name": "Authorization",
               "description": "Access Token",
               "type": "string",
               "required": true
            }
         ]
      }},
      "/ticketsbydocument": {"get": {
         "produces": ["application/json"],
         "description": "With the invoice number will show the tickets that the invoice contains",
         "operationId": "/ticketsbydocument getTicketsByDocument",
         "responses": {
            "200": {
               "examples": {"application/json": {"tickets": {
                  "type": "array",
                  "items": {
                     "type": "object",
                     "properties": {
                        "contrat": {"type": "string"},
                        "externalDelivery": {"type": "string"},
                        "pointOfDeliveryCode": {"type": "string"},
                        "purchaseOrder": {"type": "string"},
                        "ticketItem": {
                           "type": "array",
                           "items": {
                              "type": "object",
                              "properties": {
                                 "productDesc": {"type": "string"},
                                 "unitPrice": {"type": "integer"},
                                 "delivery": {"type": "string"},
                                 "unit": {
                                    "type": "object",
                                    "properties": {
                                       "unitDesc": {"type": "string"},
                                       "unitCode": {"type": "string"},
                                       "unitId": {"type": "integer"}
                                    }
                                 },
                                 "productTypeDesc": {"type": "string"},
                                 "amount": {"type": "integer"},
                                 "freightAmount": {"type": "string"},
                                 "deliveryQuantity": {"type": "integer"},
                                 "deliveryDate": {
                                    "format": "date-time",
                                    "type": "string"
                                 },
                                 "taxAmount": {"type": "string"},
                                 "productTypeCode": {"type": "string"}
                              }
                           }
                        },
                        "files": {
                           "type": "array",
                           "items": {
                              "type": "object",
                              "properties": {
                                 "documentTypeDesc": {"type": "string"},
                                 "documentTypeCode": {"type": "string"},
                                 "blobDocumentID": {"type": "string"}
                              }
                           }
                        },
                        "docDate": {"type": "string"},
                        "pointOfDeliveryDesc": {"type": "string"},
                        "ticketCode": {"type": "string"},
                        "pointOfDeliveryAddress": {"type": "string"}
                     }
                  }
               }}},
               "description": "Successful response"
            },
            "500": {
               "examples": {"application/json": {
                  "moreInformation": {"type": "string"},
                  "httpMessage": {"type": "string"},
                  "reasonCode": {"type": "string"},
                  "httpCode": {"type": "string"}
               }},
               "description": "Internal Error"
            }
         },
         "parameters": [
            {
               "in": "query",
               "name": "documentId",
               "description": "Invoice number",
               "type": "integer",
               "required": true
            },
            {
               "in": "query",
               "name": "debitFlag",
               "description": "Flag credit(false) or debit (true)",
               "type": "boolean"
            },
            {
               "in": "header",
               "name": "accept",
               "description": "Advertises which content types expressed as MIME types the client is able to understand.",
               "type": "string"
            },
            {
               "in": "header",
               "name": "accept-language",
               "description": "Advertises which languages and locale variant the client is able to understand.",
               "type": "string",
               "required": true
            },
            {
               "in": "header",
               "name": "app-code",
               "description": "Advertises which application is requesting the information.",
               "type": "string",
               "required": true
            },
            {
               "in": "header",
               "name": "jwt",
               "description": "JSON Web Token JWT, represent claims to be transferred between two parties RFC 7519.",
               "type": "string",
               "required": true
            },
            {
               "in": "header",
               "name": "Authorization",
               "description": "Access Token",
               "type": "string",
               "required": true
            }
         ]
      }},
      "/financialdocuments/referencestypes": {"get": {
         "produces": ["application/json"],
         "description": "Get references type by documents",
         "operationId": "/financialdocuments/referencestypes getReferencesType",
         "responses": {
            "200": {
               "examples": {"application/json": {"documentsTypes": {
                  "type": "array",
                  "items": {
                     "type": "object",
                     "properties": {
                        "documentTypeDesc": {"type": "string"},
                        "documentTypeCode": {"type": "string"}
                     }
                  }
               }}},
               "description": "Succesful Response"
            },
            "500": {
               "examples": {"application/json": {
                  "moreInformation": {"type": "string"},
                  "httpMessage": {"type": "string"},
                  "reasonCode": {"type": "string"},
                  "httpCode": {"type": "string"}
               }},
               "description": "Request Timeout"
            }
         },
         "parameters": [
            {
               "in": "header",
               "name": "accept",
               "description": "Advertises which content types expressed as MIME types the client is able to understand.",
               "type": "string"
            },
            {
               "in": "header",
               "name": "accept-language",
               "description": "Advertises which languages and locale variant the client is able to understand.",
               "type": "string",
               "required": true
            },
            {
               "in": "header",
               "name": "app-code",
               "description": "Advertises which application is requesting the information.",
               "type": "string",
               "required": true
            },
            {
               "in": "header",
               "name": "jwt",
               "description": "JSON Web Token JWT, represent claims to be transferred between two parties RFC 7519.",
               "type": "string",
               "required": true
            },
            {
               "in": "header",
               "name": "Authorization",
               "description": "Access Token",
               "type": "string",
               "required": true
            }
         ]
      }},
      "/accountsummarybycompany": {"get": {
         "produces": ["application/json"],
         "description": "Get the account summary by company",
         "operationId": "/accountsummarybycompany GetAccountSummaryByCompany",
         "responses": {
            "200": {
               "examples": {"application/json": {
                  "currentBalanceAmount": {"type": "string"},
                  "totalBalanceCountItems": {"type": "string"},
                  "currentBalanceCountItems": {"type": "string"},
                  "totalBalanceAmount": {"type": "string"},
                  "pastDueBalanceCountItems": {"type": "string"},
                  "creditLimit": {"type": "string"},
                  "companyRemaining": {"type": "string"},
                  "creditLimitUsed": {"type": "string"},
                  "pendingOrders": {"type": "string"},
                  "creditAvailable": {"type": "string"},
                  "pastDueBalanceAmount": {"type": "string"}
               }},
               "description": "Succesful Response"
            },
            "500": {
               "examples": {"application/json": {
                  "code": {"type": "string"},
                  "detail": {"type": "string"}
               }},
               "description": "Request Timeout"
            }
         },
         "parameters": [
            {
               "in": "query",
               "name": "companyCode",
               "description": "this is the company code",
               "type": "string"
            },
            {
               "in": "query",
               "name": "customerCode",
               "description": "this is the customer code",
               "type": "string"
            },
            {
               "in": "query",
               "name": "countryCode",
               "description": "this is the customer code",
               "type": "string"
            },
            {
               "in": "header",
               "name": "accept",
               "description": "Advertises which content types expressed as MIME types the client is able to understand.",
               "type": "string"
            },
            {
               "in": "header",
               "name": "accept-language",
               "description": "Advertises which languages and locale variant the client is able to understand.",
               "type": "string",
               "required": true
            },
            {
               "in": "header",
               "name": "app-code",
               "description": "Advertises which application is requesting the information.",
               "type": "string",
               "required": true
            },
            {
               "in": "header",
               "name": "jwt",
               "description": "JSON Web Token JWT, represent claims to be transferred between two parties RFC 7519.",
               "type": "string",
               "required": true
            },
            {
               "in": "header",
               "name": "Authorization",
               "description": "Access Token",
               "type": "string",
               "required": true
            }
         ]
      }},
      "/invoicereviewed": {"patch": {
         "produces": ["application/json"],
         "description": "Process to update invoice reviewed flag contains",
         "operationId": "/invoicereviewed patchInvoiceReviewed",
         "responses": {
            "200": {"description": "Successful response"},
            "500": {
               "examples": {"application/json": {
                  "moreInformation": {"type": "string"},
                  "httpMessage": {"type": "string"},
                  "reasonCode": {"type": "string"},
                  "httpCode": {"type": "string"}
               }},
               "description": "Internal Error"
            }
         },
         "parameters": [
            {
               "in": "header",
               "name": "accept",
               "description": "Advertises which content types expressed as MIME types the client is able to understand.",
               "type": "string"
            },
            {
               "in": "header",
               "name": "accept-language",
               "description": "Advertises which languages and locale variant the client is able to understand.",
               "type": "string",
               "required": true
            },
            {
               "in": "header",
               "name": "app-code",
               "description": "Advertises which application is requesting the information.",
               "type": "string",
               "required": true
            },
            {
               "in": "header",
               "name": "jwt",
               "description": "JSON Web Token JWT, represent claims to be transferred between two parties RFC 7519.",
               "type": "string",
               "required": true
            },
            {
               "in": "header",
               "name": "Authorization",
               "description": "Access Token",
               "type": "string",
               "required": true
            },
            {
               "schema": {"example": "{\"documentId\":{\"type\":\"number\"},\"invoiceReviewed\":{\"type\":\"boolean\"},\"debitFlag\":{\"description\":\"Flag credit(false) or debit (true)\",\"type\":\"boolean\"}}"},
               "in": "body",
               "name": "body",
               "description": "document Id & invoice Reviewed"
            }
         ],
         "consumes": ["application/json"]
      }},
      "/opendeliveries": {"get": {
         "produces": ["application/json"],
         "description": "Method to bring open deliveries and orders, using params to determine which ones satisfied condition",
         "operationId": "/opendeliveries getOpenDeliveries",
         "responses": {
            "200": {
               "examples": {"application/json": {
                  "orders": {
                     "type": "array",
                     "items": {
                        "type": "object",
                        "properties": {
                           "documentDate": {"type": "string"},
                           "unitPrice": {"type": "number"},
                           "pointOfDelivery": {"type": "string"},
                           "quantity": {"type": "number"},
                           "amountInventory": {"type": "number"},
                           "docNumber": {"type": "string"},
                           "typeOfDocument": {"type": "string"},
                           "unitPriceTax": {"type": "number"},
                           "deliveryPosition": {"type": "string"},
                           "salesOrganization": {"type": "string"},
                           "matDescription": {"type": "string"},
                           "society": {"type": "string"},
                           "unit": {"type": "string"},
                           "plan": {"type": "string"}
                        }
                     }
                  },
                  "deliveries": {
                     "type": "array",
                     "items": {
                        "type": "object",
                        "properties": {
                           "documentDate": {"type": "string"},
                           "unitPrice": {"type": "number"},
                           "pointOfDelivery": {"type": "string"},
                           "quantity": {"type": "number"},
                           "amountInventory": {"type": "number"},
                           "docNumber": {"type": "string"},
                           "typeOfDocument": {"type": "string"},
                           "unitPriceTax": {"type": "number"},
                           "deliveryPosition": {"type": "string"},
                           "salesOrganization": {"type": "string"},
                           "matDescription": {"type": "string"},
                           "society": {"type": "string"},
                           "unit": {"type": "string"},
                           "plan": {"type": "string"}
                        }
                     }
                  }
               }},
               "description": "Successful response"
            },
            "500": {
               "examples": {"application/json": {
                  "moreInformation": {"type": "string"},
                  "httpMessage": {"type": "string"},
                  "reasonCode": {"type": "string"},
                  "httpCode": {"type": "string"}
               }},
               "description": "Internal Error"
            }
         },
         "parameters": [
            {
               "in": "query",
               "name": "society",
               "description": "Society code",
               "type": "integer",
               "required": true
            },
            {
               "in": "query",
               "name": "accountClientCredit",
               "description": "Account client",
               "type": "string",
               "required": true
            },
            {
               "in": "query",
               "name": "days",
               "description": "Indicate how many past days to find in query",
               "type": "integer",
               "required": true
            },
            {
               "in": "query",
               "name": "countryCode",
               "description": "Indicate in what country to search data",
               "type": "string",
               "required": true
            },
            {
               "in": "query",
               "name": "salesOrganization",
               "description": "Indicate sales organization code",
               "type": "string"
            },
            {
               "in": "header",
               "name": "accept",
               "description": "Advertises which content types expressed as MIME types the client is able to understand.",
               "type": "string"
            },
            {
               "in": "header",
               "name": "accept-language",
               "description": "Advertises which languages and locale variant the client is able to understand.",
               "type": "string",
               "required": true
            },
            {
               "in": "header",
               "name": "app-code",
               "description": "Advertises which application is requesting the information.",
               "type": "string",
               "required": true
            },
            {
               "in": "header",
               "name": "jwt",
               "description": "JSON Web Token JWT, represent claims to be transferred between two parties RFC 7519.",
               "type": "string",
               "required": true
            },
            {
               "in": "header",
               "name": "Authorization",
               "description": "Access Token",
               "type": "string",
               "required": true
            }
         ]
      }},
      "/documentsapplied": {"get": {
         "produces": ["application/json"],
         "description": "get invoice log",
         "operationId": "/documentsapplied getDocumentsApplied",
         "responses": {
            "200": {
               "examples": {"application/json": {"documentsApplied": {
                  "type": "array",
                  "items": {
                     "type": "object",
                     "properties": {
                        "documentDate": {"type": "string"},
                        "originalAmount": {"type": "string"},
                        "referenceNumber": {"type": "string"},
                        "documentNumber": {"type": "string"},
                        "appliedDate": {"type": "string"},
                        "typeDocument": {"type": "string"},
                        "appliedAmount": {"type": "string"},
                        "debitFlag": {"type": "string"}
                     }
                  }
               }}},
               "description": "Successful response"
            },
            "500": {
               "examples": {"application/json": {
                  "moreInformation": {"type": "string"},
                  "httpMessage": {"type": "string"},
                  "reasonCode": {"type": "string"},
                  "httpCode": {"type": "string"}
               }},
               "description": "Internal Error"
            }
         },
         "parameters": [
            {
               "in": "query",
               "name": "documentId",
               "description": "Invoice number",
               "type": "integer",
               "required": true
            },
            {
               "in": "query",
               "name": "debitFlag",
               "description": "Flag credit(false) or debit (true)",
               "type": "boolean"
            },
            {
               "in": "header",
               "name": "accept",
               "description": "Advertises which content types expressed as MIME types the client is able to understand.",
               "type": "string"
            },
            {
               "in": "header",
               "name": "accept-language",
               "description": "Advertises which languages and locale variant the client is able to understand.",
               "type": "string",
               "required": true
            },
            {
               "in": "header",
               "name": "app-code",
               "description": "Advertises which application is requesting the information.",
               "type": "string",
               "required": true
            },
            {
               "in": "header",
               "name": "jwt",
               "description": "JSON Web Token JWT, represent claims to be transferred between two parties RFC 7519.",
               "type": "string",
               "required": true
            },
            {
               "in": "header",
               "name": "Authorization",
               "description": "Access Token",
               "type": "string",
               "required": true
            }
         ]
      }},
      "/legalentityPayers": {"get": {
         "produces": ["application/json"],
         "description": "Get the payers relationed to the user by accountId and customer",
         "operationId": "/legalentityPayers GetLegalEntityPayersByAccountAndCustomer",
         "responses": {
            "200": {
               "examples": {"application/json": {
                  "company": {
                     "type": "array",
                     "items": {
                        "type": "object",
                        "properties": {
                           "companyCode": {"type": "string"},
                           "divisionCode": {"type": "string"},
                           "companyDesc": {"type": "string"},
                           "countryCode": {"type": "string"}
                        }
                     }
                  },
                  "payer": {
                     "description": "when countryCode is US, then Front End should look for Payers instead of jobsites",
                     "type": "array",
                     "items": {
                        "type": "object",
                        "properties": {
                           "payerDesc": {"type": "string"},
                           "payerCode": {"type": "string"}
                        }
                     }
                  },
                  "jobSite": {
                     "description": "¿ Ship to, bill to ?",
                     "type": "array",
                     "items": {
                        "type": "object",
                        "properties": {
                           "jobSiteDesc": {"type": "string"},
                           "jobSiteCode": {"type": "string"}
                        }
                     }
                  },
                  "customer": {
                     "type": "array",
                     "items": {
                        "type": "object",
                        "properties": {
                           "countryCode": {"type": "string"},
                           "customerCode": {"type": "string"},
                           "customerDesc": {"type": "string"}
                        }
                     }
                  }
               }},
               "description": "Successful response"
            },
            "500": {
               "examples": {"application/json": {
                  "code": {"type": "string"},
                  "detail": {"type": "string"}
               }},
               "description": "Internal Error"
            }
         },
         "parameters": [
            {
               "in": "query",
               "name": "companyCode",
               "description": "Sales org id.",
               "type": "string",
               "required": true
            },
            {
               "in": "query",
               "name": "customerCode",
               "description": "Customer number",
               "type": "string",
               "required": true
            },
            {
               "in": "header",
               "name": "accept",
               "description": "Advertises which content types expressed as MIME types the client is able to understand.",
               "type": "string"
            },
            {
               "in": "header",
               "name": "accept-language",
               "description": "Advertises which languages and locale variant the client is able to understand.",
               "type": "string",
               "required": true
            },
            {
               "in": "header",
               "name": "app-code",
               "description": "Advertises which application is requesting the information.",
               "type": "string",
               "required": true
            },
            {
               "in": "header",
               "name": "jwt",
               "description": "JSON Web Token JWT, represent claims to be transferred between two parties RFC 7519.",
               "type": "string",
               "required": true
            },
            {
               "in": "header",
               "name": "Authorization",
               "description": "Access Token",
               "type": "string",
               "required": true
            }
         ]
      }},
      "/financialdocuments/{documentId}/relateddocuments/{documentType}": {"get": {
         "produces": ["application/json"],
         "description": "Get type of documents by document id",
         "operationId": "/financialdocuments/{documentId}/relateddocuments/{documentType} typeOfDocumentByDocumentId",
         "responses": {
            "200": {
               "examples": {"application/json": {"codes": {
                  "type": "array",
                  "items": {
                     "type": "object",
                     "properties": {"documentCode": {"type": "string"}}
                  }
               }}},
               "description": "Succesful Response"
            },
            "500": {
               "examples": {"application/json": {
                  "moreInformation": {"type": "string"},
                  "httpMessage": {"type": "string"},
                  "reasonCode": {"type": "string"},
                  "httpCode": {"type": "string"}
               }},
               "description": "Internal Error"
            }
         },
         "parameters": [
            {
               "in": "path",
               "name": "documentId",
               "description": "Document Id",
               "type": "integer",
               "required": true
            },
            {
               "in": "path",
               "name": "documentType",
               "description": "Type of Document",
               "type": "string",
               "required": true
            },
            {
               "in": "header",
               "name": "accept",
               "description": "Advertises which content types expressed as MIME types the client is able to understand.",
               "type": "string"
            },
            {
               "in": "header",
               "name": "accept-language",
               "description": "Advertises which languages and locale variant the client is able to understand.",
               "type": "string",
               "required": true
            },
            {
               "in": "header",
               "name": "app-code",
               "description": "Advertises which application is requesting the information.",
               "type": "string",
               "required": true
            },
            {
               "in": "header",
               "name": "jwt",
               "description": "JSON Web Token JWT, represent claims to be transferred between two parties RFC 7519.",
               "type": "string",
               "required": true
            },
            {
               "in": "header",
               "name": "Authorization",
               "description": "Access Token",
               "type": "string",
               "required": true
            }
         ]
      }},
      "/ticketreport": {"get": {
         "produces": ["application/json"],
         "description": "Get the files of tickets report",
         "operationId": "/ticketreport getTicketReport",
         "responses": {
            "200": {
               "examples": {"application/json": {"invoices": {
                  "type": "array",
                  "items": {
                     "type": "object",
                     "properties": {
                        "documentCode": {"type": "string"},
                        "blobDocumentIdPDF": {"type": "number"},
                        "tickets": {
                           "type": "array",
                           "items": {
                              "type": "object",
                              "properties": {
                                 "statusTicket": {"type": "number"},
                                 "files": {
                                    "type": "array",
                                    "items": {
                                       "type": "object",
                                       "properties": {
                                          "docStatus": {"type": "number"},
                                          "documentTypeCode": {"type": "string"},
                                          "customerReference": {"type": "string"},
                                          "blobDocumentId": {"type": "number"}
                                       }
                                    }
                                 },
                                 "ticketCode": {"type": "string"}
                              }
                           }
                        },
                        "referenceNumber": {"type": "string"},
                        "documentId": {"type": "string"},
                        "blobDocumentIdXML": {"type": "number"},
                        "invoiceStatus": {"type": "number"}
                     }
                  }
               }}},
               "description": "Succesful Response"
            },
            "500": {
               "examples": {"application/json": {
                  "moreInformation": {"type": "string"},
                  "httpMessage": {"type": "string"},
                  "reasonCode": {"type": "string"},
                  "httpCode": {"type": "string"}
               }},
               "description": "Internal Error"
            }
         },
         "parameters": [
            {
               "in": "query",
               "name": "countryCode",
               "type": "string"
            },
            {
               "in": "query",
               "name": "customerCode",
               "type": "string"
            },
            {
               "in": "query",
               "name": "jobSiteCode",
               "type": "string"
            },
            {
               "in": "query",
               "name": "documentId",
               "type": "string"
            },
            {
               "in": "query",
               "name": "dateFrom",
               "type": "string"
            },
            {
               "in": "query",
               "name": "dateTo",
               "type": "string"
            },
            {
               "in": "header",
               "name": "accept",
               "description": "Advertises which content types expressed as MIME types the client is able to understand.",
               "type": "string"
            },
            {
               "in": "header",
               "name": "accept-language",
               "description": "Advertises which languages and locale variant the client is able to understand.",
               "type": "string",
               "required": true
            },
            {
               "in": "header",
               "name": "app-code",
               "description": "Advertises which application is requesting the information.",
               "type": "string",
               "required": true
            },
            {
               "in": "header",
               "name": "jwt",
               "description": "JSON Web Token JWT, represent claims to be transferred between two parties RFC 7519.",
               "type": "string",
               "required": true
            },
            {
               "in": "header",
               "name": "Authorization",
               "description": "Access Token",
               "type": "string",
               "required": true
            }
         ]
      }}
   },
   "x-servers": [
      {"url": "https://www.cemexgo.com"},
      {"url": "https://api.cemexgo.com"},
      {"url": "https://eu.cemexgo.com"}
   ],
   "host": "www.cemexgo.com",
   "schemes": ["https"],
   "securityDefinitions": {
      "apiKeyQuery": {
         "in": "query",
         "name": "subscription-key",
         "type": "apiKey"
      },
      "apiKeyHeader": {
         "in": "header",
         "name": "Ocp-Apim-Subscription-Key",
         "type": "apiKey"
      }
   },
   "swagger": "2.0",
   "info": {
      "description": "AccountSummary #Merged with financialdocuments_1.5.0.yaml #Merged with legalentity_1.4.0.yaml #Merged with accountsummary_1.2.0.yaml",
      "title": "[arm] Accounts Receivable Management v1",
      "version": "1.0"
   }
}
