{
   "security": [
      {"apiKeyHeader": []},
      {"apiKeyQuery": []}
   ],
   "basePath": "/v4/cm",
   "paths": {
      "/alerts/viewed": {"patch": {
         "produces": ["application/json"],
         "description": "Update the status when some Driver Console Dispatcher see the alert\r\n\r\n| AlertStatusId |   AlertStatusDesc     |\r\n|---------------|-----------------------|\r\n|   1           | Alert has been sent   |\r\n|   2           | Alert has been read   |\r\n",
         "operationId": "/alerts/viewed PatchAlerts",
         "responses": {"200": {"description": "OK"}},
         "parameters": [
            {
               "in": "header",
               "name": "accept",
               "description": "Advertises which content types expressed as MIME types the client is able to understand.",
               "type": "string"
            },
            {
               "in": "header",
               "name": "accept-language",
               "description": "Advertises which languages and locale variant the client is able to understand.",
               "type": "string",
               "required": true
            },
            {
               "in": "header",
               "name": "app-code",
               "description": "Advertises which application is requesting the information.",
               "type": "string",
               "required": true
            },
            {
               "in": "header",
               "name": "jwt",
               "description": "JSON Web Token JWT, represent claims to be transferred between two parties RFC 7519.",
               "type": "string",
               "required": true
            },
            {
               "in": "header",
               "name": "Authorization",
               "description": "Access Token",
               "type": "string",
               "required": true
            },
            {
               "schema": {"example": "{\"alerts\":{\"type\":\"array\",\"items\":{\"type\":\"object\",\"properties\":{\"alertId\":{\"type\":\"integer\"},\"alertType\":{\"type\":\"object\",\"properties\":{\"alertTypeId\":{\"type\":\"integer\",\"enum\":[1,2,3]},\"alertTypeDesc\":{\"type\":\"string\"}}},\"alertTime\":{\"type\":\"string\"},\"driver\":{\"type\":\"object\",\"properties\":{\"driverId\":{\"type\":\"integer\"},\"driverDesc\":{\"type\":\"string\"}}},\"ticket\":{\"type\":\"object\",\"properties\":{\"ticketId\":{\"type\":\"integer\"},\"ticketCode\":{\"type\":\"string\"}}},\"truck\":{\"type\":\"object\",\"properties\":{\"truckId\":{\"type\":\"integer\"},\"truckPlate\":{\"type\":\"string\"},\"truckDesc\":{\"type\":\"string\"}}},\"viewedBy\":{\"type\":\"object\",\"properties\":{\"userId\":{\"type\":\"integer\"},\"userAccount\":{\"type\":\"string\"}}},\"viewedTime\":{\"type\":\"string\"},\"alertStatus\":{\"type\":\"object\",\"properties\":{\"alertStatusId\":{\"type\":\"integer\",\"enum\":[1,2]},\"alertStatusDesc\":{\"type\":\"string\"}}},\"latitude\":{\"type\":\"string\"},\"longitude\":{\"type\":\"string\"},\"serviceTime\":{\"type\":\"integer\"},\"waitingTime\":{\"type\":\"integer\"},\"alertValue\":{\"type\":\"integer\"}}}}}"},
               "in": "body",
               "name": "body",
               "description": "List of alerts id"
            }
         ],
         "consumes": ["application/json"]
      }},
      "/hints": {"get": {
         "produces": ["application/json"],
         "operationId": "/hints getApplicationHints",
         "responses": {
            "200": {
               "examples": {"application/json": {"hints": {
                  "type": "array",
                  "items": {
                     "type": "object",
                     "properties": {
                        "hint": {"type": "string"},
                        "document": {
                           "type": "object",
                           "properties": {"guid": {"type": "string"}}
                        },
                        "title": {"type": "string"},
                        "order": {"type": "integer"}
                     }
                  }
               }}},
               "description": "Successful response"
            },
            "500": {
               "examples": {"application/json": {
                  "code": {"type": "integer"},
                  "message": {"type": "string"}
               }},
               "description": "Internal Error"
            }
         },
         "parameters": [
            {
               "in": "query",
               "name": "topic",
               "description": "The topic for what the hint is related",
               "type": "string",
               "required": true
            },
            {
               "in": "header",
               "name": "accept",
               "description": "Advertises which content types expressed as MIME types the client is able to understand.",
               "type": "string"
            },
            {
               "in": "header",
               "name": "accept-language",
               "description": "Advertises which languages and locale variant the client is able to understand.",
               "type": "string",
               "required": true
            },
            {
               "in": "header",
               "name": "app-code",
               "description": "Advertises which application is requesting the information.",
               "type": "string",
               "required": true
            },
            {
               "in": "header",
               "name": "jwt",
               "description": "JSON Web Token JWT, represent claims to be transferred between two parties RFC 7519.",
               "type": "string",
               "required": true
            },
            {
               "in": "header",
               "name": "Authorization",
               "description": "Access Token",
               "type": "string",
               "required": true
            }
         ]
      }},
      "/mails/{email}/send": {"put": {
         "produces": ["application/json"],
         "operationId": "/mails/{email}/send putMail",
         "responses": {
            "200": {"description": "OK"},
            "500": {"description": "Internal server error"}
         },
         "parameters": [
            {
               "in": "path",
               "name": "email",
               "description": "Contact email",
               "type": "string",
               "required": true
            },
            {
               "in": "query",
               "name": "type",
               "description": "Terms and Condition Informaton type to be retrive by the API",
               "type": "string",
               "required": true
            },
            {
               "in": "query",
               "name": "ticketId",
               "description": "Ticket unique identifier",
               "type": "integer",
               "required": true
            },
            {
               "in": "query",
               "name": "truckId",
               "description": "truckId",
               "type": "string"
            },
            {
               "in": "query",
               "name": "reportDate",
               "description": "reportDate",
               "type": "string"
            },
            {
               "in": "query",
               "name": "initialDate",
               "description": "initialDate",
               "type": "string"
            },
            {
               "in": "query",
               "name": "finalDate",
               "description": "finalDate",
               "type": "string"
            },
            {
               "in": "header",
               "name": "accept",
               "description": "Advertises which content types expressed as MIME types the client is able to understand.",
               "type": "string"
            },
            {
               "in": "header",
               "name": "accept-language",
               "description": "Advertises which languages and locale variant the client is able to understand.",
               "type": "string",
               "required": true
            },
            {
               "in": "header",
               "name": "app-code",
               "description": "Advertises which application is requesting the information.",
               "type": "string",
               "required": true
            },
            {
               "in": "header",
               "name": "jwt",
               "description": "JSON Web Token JWT, represent claims to be transferred between two parties RFC 7519.",
               "type": "string",
               "required": true
            },
            {
               "in": "header",
               "name": "Authorization",
               "description": "Access Token",
               "type": "string",
               "required": true
            }
         ]
      }},
      "/alerts": {
         "post": {
            "produces": ["application/json"],
            "description": "Create an alert that is sended by the Driver App\r\n\r\n| AlertType |       Description     |\r\n|-----------|-----------------------|\r\n|   1       | Speeding Alert        |\r\n|   2       | Hour of Service Alert |\r\n|   3       | Waiting Time Alert    |\r\n",
            "operationId": "/alerts PostAlert",
            "responses": {"201": {"description": "Alert created"}},
            "parameters": [
               {
                  "in": "header",
                  "name": "accept",
                  "description": "Advertises which content types expressed as MIME types the client is able to understand.",
                  "type": "string"
               },
               {
                  "in": "header",
                  "name": "accept-language",
                  "description": "Advertises which languages and locale variant the client is able to understand.",
                  "type": "string",
                  "required": true
               },
               {
                  "in": "header",
                  "name": "app-code",
                  "description": "Advertises which application is requesting the information.",
                  "type": "string",
                  "required": true
               },
               {
                  "in": "header",
                  "name": "jwt",
                  "description": "JSON Web Token JWT, represent claims to be transferred between two parties RFC 7519.",
                  "type": "string",
                  "required": true
               },
               {
                  "in": "header",
                  "name": "Authorization",
                  "description": "Access Token",
                  "type": "string",
                  "required": true
               },
               {
                  "schema": {"example": "{\"alertId\":{\"type\":\"integer\"},\"alertType\":{\"type\":\"object\",\"properties\":{\"alertTypeId\":{\"type\":\"integer\",\"enum\":[1,2,3]},\"alertTypeDesc\":{\"type\":\"string\"}}},\"alertTime\":{\"type\":\"string\"},\"driver\":{\"type\":\"object\",\"properties\":{\"driverId\":{\"type\":\"integer\"},\"driverDesc\":{\"type\":\"string\"}}},\"ticket\":{\"type\":\"object\",\"properties\":{\"ticketId\":{\"type\":\"integer\"},\"ticketCode\":{\"type\":\"string\"}}},\"truck\":{\"type\":\"object\",\"properties\":{\"truckId\":{\"type\":\"integer\"},\"truckPlate\":{\"type\":\"string\"},\"truckDesc\":{\"type\":\"string\"}}},\"viewedBy\":{\"type\":\"object\",\"properties\":{\"userId\":{\"type\":\"integer\"},\"userAccount\":{\"type\":\"string\"}}},\"viewedTime\":{\"type\":\"string\"},\"alertStatus\":{\"type\":\"object\",\"properties\":{\"alertStatusId\":{\"type\":\"integer\",\"enum\":[1,2]},\"alertStatusDesc\":{\"type\":\"string\"}}},\"latitude\":{\"type\":\"string\"},\"longitude\":{\"type\":\"string\"},\"serviceTime\":{\"type\":\"integer\"},\"waitingTime\":{\"type\":\"integer\"},\"alertValue\":{\"type\":\"integer\"}}"},
                  "in": "body",
                  "name": "body"
               }
            ],
            "consumes": ["application/json"]
         },
         "get": {
            "produces": ["application/json"],
            "description": "Retrieve all the alerts that will be viewed by the Driver Console Dispatcher between a couple of dates and this search can be filtered by ticket id.",
            "operationId": "/alerts GetAlerts",
            "responses": {
               "200": {
                  "examples": {"application/json": {"alerts": {
                     "type": "array",
                     "items": {
                        "type": "object",
                        "properties": {
                           "alertStatus": {
                              "type": "object",
                              "properties": {
                                 "alertStatusId": {
                                    "type": "integer",
                                    "enum": [
                                       1,
                                       2
                                    ]
                                 },
                                 "alertStatusDesc": {"type": "string"}
                              }
                           },
                           "alertType": {
                              "type": "object",
                              "properties": {
                                 "alertTypeId": {
                                    "type": "integer",
                                    "enum": [
                                       1,
                                       2,
                                       3
                                    ]
                                 },
                                 "alertTypeDesc": {"type": "string"}
                              }
                           },
                           "ticket": {
                              "type": "object",
                              "properties": {
                                 "ticketCode": {"type": "string"},
                                 "ticketId": {"type": "integer"}
                              }
                           },
                           "truck": {
                              "type": "object",
                              "properties": {
                                 "truckId": {"type": "integer"},
                                 "truckPlate": {"type": "string"},
                                 "truckDesc": {"type": "string"}
                              }
                           },
                           "latitude": {"type": "string"},
                           "waitingTime": {"type": "integer"},
                           "serviceTime": {"type": "integer"},
                           "driver": {
                              "type": "object",
                              "properties": {
                                 "driverId": {"type": "integer"},
                                 "driverDesc": {"type": "string"}
                              }
                           },
                           "viewedBy": {
                              "type": "object",
                              "properties": {
                                 "userAccount": {"type": "string"},
                                 "userId": {"type": "integer"}
                              }
                           },
                           "alertId": {"type": "integer"},
                           "viewedTime": {"type": "string"},
                           "alertTime": {"type": "string"},
                           "alertValue": {"type": "integer"},
                           "longitude": {"type": "string"}
                        }
                     }
                  }}},
                  "description": "Successful response"
               },
               "500": {
                  "examples": {"application/json": {"message": {"type": "string"}}},
                  "description": "Internal Error"
               }
            },
            "parameters": [
               {
                  "in": "query",
                  "name": "dateFrom",
                  "description": "Initial date for the search",
                  "type": "string",
                  "required": true
               },
               {
                  "in": "query",
                  "name": "dateTo",
                  "description": "Final date for the search",
                  "type": "string",
                  "required": true
               },
               {
                  "in": "query",
                  "name": "ticketId",
                  "description": "ticket Id",
                  "type": "string"
               },
               {
                  "in": "header",
                  "name": "accept",
                  "description": "Advertises which content types expressed as MIME types the client is able to understand.",
                  "type": "string"
               },
               {
                  "in": "header",
                  "name": "accept-language",
                  "description": "Advertises which languages and locale variant the client is able to understand.",
                  "type": "string",
                  "required": true
               },
               {
                  "in": "header",
                  "name": "app-code",
                  "description": "Advertises which application is requesting the information.",
                  "type": "string",
                  "required": true
               },
               {
                  "in": "header",
                  "name": "jwt",
                  "description": "JSON Web Token JWT, represent claims to be transferred between two parties RFC 7519.",
                  "type": "string",
                  "required": true
               },
               {
                  "in": "header",
                  "name": "Authorization",
                  "description": "Access Token",
                  "type": "string",
                  "required": true
               }
            ]
         }
      },
      "/jobsites/{jobsiteId}/emails": {"get": {
         "produces": ["application/json"],
         "description": "Get contacts of the jobsites by jobsite Id \r\n",
         "operationId": "/jobsites/{jobsiteId}/emails getContactsByJobsiteId",
         "responses": {
            "200": {
               "examples": {"application/json": {
                  "emails": {
                     "type": "array",
                     "items": {
                        "type": "object",
                        "properties": {"email": {"type": "string"}}
                     }
                  },
                  "new-property-1": {"type": "string"},
                  "termsandconditions": {
                     "type": "array",
                     "items": {
                        "type": "object",
                        "properties": {
                           "title": {"type": "string"},
                           "content": {"type": "string"},
                           "order": {"type": "integer"}
                        }
                     }
                  }
               }},
               "description": "Successful response"
            },
            "500": {
               "examples": {"application/json": {
                  "code": {"type": "integer"},
                  "message": {"type": "string"}
               }},
               "description": "Internal Server Error"
            }
         },
         "parameters": [
            {
               "in": "path",
               "name": "jobsiteId",
               "description": "Jobsite Id",
               "type": "integer",
               "required": true
            },
            {
               "in": "header",
               "name": "accept",
               "description": "Advertises which content types expressed as MIME types the client is able to understand.",
               "type": "string"
            },
            {
               "in": "header",
               "name": "accept-language",
               "description": "Advertises which languages and locale variant the client is able to understand.",
               "type": "string",
               "required": true
            },
            {
               "in": "header",
               "name": "app-code",
               "description": "Advertises which application is requesting the information.",
               "type": "string",
               "required": true
            },
            {
               "in": "header",
               "name": "jwt",
               "description": "JSON Web Token JWT, represent claims to be transferred between two parties RFC 7519.",
               "type": "string",
               "required": true
            },
            {
               "in": "header",
               "name": "Authorization",
               "description": "Access Token",
               "type": "string",
               "required": true
            }
         ]
      }}
   },
   "x-servers": [
      {"url": "https://www.cemexgo.com"},
      {"url": "https://api.cemexgo.com"},
      {"url": "https://eu.cemexgo.com"}
   ],
   "host": "www.cemexgo.com",
   "schemes": ["https"],
   "securityDefinitions": {
      "apiKeyQuery": {
         "in": "query",
         "name": "subscription-key",
         "type": "apiKey"
      },
      "apiKeyHeader": {
         "in": "header",
         "name": "Ocp-Apim-Subscription-Key",
         "type": "apiKey"
      }
   },
   "swagger": "2.0",
   "info": {
      "description": "API in charge of the alerts management, both all the alerts that are generated by the DriverApp and the alerts that will be viewed by the driver console dispatcher. #Merged with communicationutilities_4.0.0.yaml #Merged with hintsmanagement_4.0.0.yaml #Merged with alertmanagement_4.1.0.yaml",
      "title": "[cm] Communication Management v4",
      "version": "1.0"
   }
}
