{
   "security": [
      {"apiKeyHeader": []},
      {"apiKeyQuery": []}
   ],
   "basePath": "/v4/rep",
   "paths": {
      "/orders": {"get": {
         "produces": ["application/json"],
         "description": "Retrieves the orders by driverCode, TruckPlate and between a couple of dates.",
         "operationId": "/orders GetOrdersReport",
         "responses": {
            "200": {
               "examples": {"application/json": {
                  "reportPeriod": {"type": "string"},
                  "reportResults": {
                     "type": "array",
                     "items": {
                        "type": "object",
                        "properties": {
                           "hourOfServiceReports": {
                              "type": "array",
                              "items": {
                                 "type": "object",
                                 "properties": {
                                    "driverCode": {"type": "string"},
                                    "totalHours": {"type": "integer"},
                                    "hourOfServices": {
                                       "type": "array",
                                       "items": {
                                          "type": "object",
                                          "properties": {
                                             "shiftDate": {"type": "string"},
                                             "hourOfService": {"type": "integer"}
                                          }
                                       }
                                    },
                                    "driverDesc": {"type": "string"}
                                 }
                              }
                           },
                           "regionCode": {"type": "string"},
                           "waitingTimeReports": {
                              "type": "array",
                              "items": {
                                 "type": "object",
                                 "properties": {
                                    "load": {"type": "string"},
                                    "customerCode": {"type": "integer"},
                                    "waitingTime": {"type": "string"},
                                    "orderCode": {"type": "integer"},
                                    "deliveryDate": {"type": "string"},
                                    "customerDesc": {"type": "string"},
                                    "ticketCode": {"type": "integer"}
                                 }
                              }
                           },
                           "plantDesc": {"type": "string"},
                           "perTripStatusReports": {
                              "type": "array",
                              "items": {
                                 "type": "object",
                                 "properties": {
                                    "truckEvents": {
                                       "type": "array",
                                       "items": {
                                          "type": "object",
                                          "properties": {
                                             "truckEventDesc": {"type": "integer"},
                                             "eventDate": {"type": "string"}
                                          }
                                       }
                                    },
                                    "truckPlate": {"type": "string"},
                                    "ticketCode": {"type": "integer"}
                                 }
                              }
                           },
                           "plantId": {"type": "integer"},
                           "speedingAlertReports": {
                              "type": "array",
                              "items": {
                                 "type": "object",
                                 "properties": {
                                    "driverCode": {"type": "integer"},
                                    "truckPlate": {"type": "integer"},
                                    "alertTime": {"type": "string"},
                                    "driverDesc": {"type": "string"},
                                    "speed": {"type": "string"}
                                 }
                              }
                           },
                           "orderCode": {"type": "string"},
                           "plantCode": {"type": "string"}
                        }
                     }
                  },
                  "orders": {
                     "type": "array",
                     "items": {
                        "type": "object",
                        "properties": {
                           "tickets": {
                              "type": "array",
                              "items": {
                                 "type": "object",
                                 "properties": {
                                    "shipment": {
                                       "type": "object",
                                       "properties": {"driver": {
                                          "type": "object",
                                          "properties": {
                                             "driverCode": {"type": "string"},
                                             "driverId": {"type": "integer"},
                                             "assignation": {
                                                "type": "object",
                                                "properties": {"truck": {
                                                   "type": "object",
                                                   "properties": {
                                                      "truckId": {"type": "integer"},
                                                      "truckPlate": {"type": "string"},
                                                      "truckDesc": {"type": "string"},
                                                      "equipmentCode": {"type": "string"}
                                                   }
                                                }}
                                             },
                                             "driverDesc": {"type": "string"}
                                          }
                                       }}
                                    },
                                    "deliveryDate": {"type": "string"},
                                    "ticketCode": {"type": "string"},
                                    "ticketId": {"type": "integer"}
                                 }
                              }
                           },
                           "orderId": {"type": "integer"},
                           "orderCode": {"type": "string"}
                        }
                     }
                  },
                  "customers": {
                     "type": "array",
                     "items": {
                        "type": "object",
                        "properties": {
                           "countryCode": {"type": "string"},
                           "customerId": {"type": "integer"},
                           "customerCode": {"type": "string"},
                           "customerDesc": {"type": "string"},
                           "email": {"type": "string"}
                        }
                     }
                  }
               }},
               "description": "Successful response"
            },
            "500": {"description": "Internal Error"}
         },
         "parameters": [
            {
               "in": "query",
               "name": "plantId",
               "description": "array with the Id's of the Plants that are monitored by de Driver Dispatcher",
               "type": "string"
            },
            {
               "in": "query",
               "name": "orderCode",
               "description": "Order Code",
               "type": "integer"
            },
            {
               "in": "query",
               "name": "driverCode",
               "description": "Driver code",
               "type": "integer"
            },
            {
               "in": "query",
               "name": "truckPlate",
               "description": "Truck Plate",
               "type": "string"
            },
            {
               "in": "query",
               "name": "dateFrom",
               "description": "Initial date for the search",
               "type": "string"
            },
            {
               "in": "query",
               "name": "dateTo",
               "description": "Final date for the search",
               "type": "string"
            },
            {
               "in": "query",
               "name": "include",
               "description": "Field that is used for Map History Report whom can include the ticket structure",
               "type": "integer"
            },
            {
               "in": "query",
               "name": "reportType",
               "type": "string"
            },
            {
               "in": "query",
               "name": "hourFrom",
               "description": "Initial hour for the search",
               "type": "string"
            },
            {
               "in": "query",
               "name": "hourTo",
               "description": "Final hour for the search",
               "type": "string"
            },
            {
               "in": "header",
               "name": "accept",
               "description": "Advertises which content types expressed as MIME types the client is able to understand.",
               "type": "string"
            },
            {
               "in": "header",
               "name": "accept-language",
               "description": "Advertises which languages and locale variant the client is able to understand.",
               "type": "string",
               "required": true
            },
            {
               "in": "header",
               "name": "app-code",
               "description": "Advertises which application is requesting the information.",
               "type": "string",
               "required": true
            },
            {
               "in": "header",
               "name": "jwt",
               "description": "JSON Web Token JWT, represent claims to be transferred between two parties RFC 7519.",
               "type": "string",
               "required": true
            },
            {
               "in": "header",
               "name": "Authorization",
               "description": "Access Token",
               "type": "string",
               "required": true
            }
         ]
      }},
      "/customers/orders/issues": {"get": {
         "produces": ["application/json"],
         "operationId": "/customers/orders/issues GetAllIssues",
         "responses": {
            "200": {
               "examples": {"application/json": {
                  "type": "array",
                  "items": {"$ref": "#/definitions/Report"}
               }},
               "description": ""
            },
            "500": {"description": ""}
         },
         "parameters": [
            {
               "in": "header",
               "name": "accept",
               "description": "Advertises which content types expressed as MIME types the client is able to understand.",
               "type": "string"
            },
            {
               "in": "header",
               "name": "accept-language",
               "description": "Advertises which languages and locale variant the client is able to understand.",
               "type": "string",
               "required": true
            },
            {
               "in": "header",
               "name": "app-code",
               "description": "Advertises which application is requesting the information.",
               "type": "string",
               "required": true
            },
            {
               "in": "header",
               "name": "jwt",
               "description": "JSON Web Token JWT, represent claims to be transferred between two parties RFC 7519.",
               "type": "string",
               "required": true
            },
            {
               "in": "header",
               "name": "Authorization",
               "description": "Access Token",
               "type": "string",
               "required": true
            }
         ]
      }},
      "/hourofservices": {"get": {
         "produces": ["application/json"],
         "description": "Retrieves the hourofservices reports by PlantId and between a couple of dates.",
         "operationId": "/hourofservices GetHourofServicesReport",
         "responses": {
            "200": {
               "examples": {"application/json": {
                  "reportPeriod": {"type": "string"},
                  "reportResults": {
                     "type": "array",
                     "items": {
                        "type": "object",
                        "properties": {
                           "hourOfServiceReports": {
                              "type": "array",
                              "items": {
                                 "type": "object",
                                 "properties": {
                                    "driverCode": {"type": "string"},
                                    "totalHours": {"type": "integer"},
                                    "hourOfServices": {
                                       "type": "array",
                                       "items": {
                                          "type": "object",
                                          "properties": {
                                             "shiftDate": {"type": "string"},
                                             "hourOfService": {"type": "integer"}
                                          }
                                       }
                                    },
                                    "driverDesc": {"type": "string"}
                                 }
                              }
                           },
                           "regionCode": {"type": "string"},
                           "waitingTimeReports": {
                              "type": "array",
                              "items": {
                                 "type": "object",
                                 "properties": {
                                    "load": {"type": "string"},
                                    "customerCode": {"type": "integer"},
                                    "waitingTime": {"type": "string"},
                                    "orderCode": {"type": "integer"},
                                    "deliveryDate": {"type": "string"},
                                    "customerDesc": {"type": "string"},
                                    "ticketCode": {"type": "integer"}
                                 }
                              }
                           },
                           "plantDesc": {"type": "string"},
                           "perTripStatusReports": {
                              "type": "array",
                              "items": {
                                 "type": "object",
                                 "properties": {
                                    "truckEvents": {
                                       "type": "array",
                                       "items": {
                                          "type": "object",
                                          "properties": {
                                             "truckEventDesc": {"type": "integer"},
                                             "eventDate": {"type": "string"}
                                          }
                                       }
                                    },
                                    "truckPlate": {"type": "string"},
                                    "ticketCode": {"type": "integer"}
                                 }
                              }
                           },
                           "plantId": {"type": "integer"},
                           "speedingAlertReports": {
                              "type": "array",
                              "items": {
                                 "type": "object",
                                 "properties": {
                                    "driverCode": {"type": "integer"},
                                    "truckPlate": {"type": "integer"},
                                    "alertTime": {"type": "string"},
                                    "driverDesc": {"type": "string"},
                                    "speed": {"type": "string"}
                                 }
                              }
                           },
                           "orderCode": {"type": "string"},
                           "plantCode": {"type": "string"}
                        }
                     }
                  },
                  "orders": {
                     "type": "array",
                     "items": {
                        "type": "object",
                        "properties": {
                           "tickets": {
                              "type": "array",
                              "items": {
                                 "type": "object",
                                 "properties": {
                                    "shipment": {
                                       "type": "object",
                                       "properties": {"driver": {
                                          "type": "object",
                                          "properties": {
                                             "driverCode": {"type": "string"},
                                             "driverId": {"type": "integer"},
                                             "assignation": {
                                                "type": "object",
                                                "properties": {"truck": {
                                                   "type": "object",
                                                   "properties": {
                                                      "truckId": {"type": "integer"},
                                                      "truckPlate": {"type": "string"},
                                                      "truckDesc": {"type": "string"},
                                                      "equipmentCode": {"type": "string"}
                                                   }
                                                }}
                                             },
                                             "driverDesc": {"type": "string"}
                                          }
                                       }}
                                    },
                                    "deliveryDate": {"type": "string"},
                                    "ticketCode": {"type": "string"},
                                    "ticketId": {"type": "integer"}
                                 }
                              }
                           },
                           "orderId": {"type": "integer"},
                           "orderCode": {"type": "string"}
                        }
                     }
                  },
                  "customers": {
                     "type": "array",
                     "items": {
                        "type": "object",
                        "properties": {
                           "countryCode": {"type": "string"},
                           "customerId": {"type": "integer"},
                           "customerCode": {"type": "string"},
                           "customerDesc": {"type": "string"},
                           "email": {"type": "string"}
                        }
                     }
                  }
               }},
               "description": "Successful response"
            },
            "500": {"description": "Internal Error"}
         },
         "parameters": [
            {
               "in": "query",
               "name": "plantId",
               "description": "array with the Id's of the Plants that are monitored by de Driver Dispatcher",
               "type": "string"
            },
            {
               "in": "query",
               "name": "dateFrom",
               "description": "Initial date for the search",
               "type": "string"
            },
            {
               "in": "query",
               "name": "dateTo",
               "description": "Final date for the search",
               "type": "string"
            },
            {
               "in": "header",
               "name": "accept",
               "description": "Advertises which content types expressed as MIME types the client is able to understand.",
               "type": "string"
            },
            {
               "in": "header",
               "name": "accept-language",
               "description": "Advertises which languages and locale variant the client is able to understand.",
               "type": "string",
               "required": true
            },
            {
               "in": "header",
               "name": "app-code",
               "description": "Advertises which application is requesting the information.",
               "type": "string",
               "required": true
            },
            {
               "in": "header",
               "name": "jwt",
               "description": "JSON Web Token JWT, represent claims to be transferred between two parties RFC 7519.",
               "type": "string",
               "required": true
            },
            {
               "in": "header",
               "name": "Authorization",
               "description": "Access Token",
               "type": "string",
               "required": true
            }
         ]
      }},
      "/waitingtimes": {"get": {
         "produces": ["application/json"],
         "description": "Retrieves the WaitingTimes Reports by PlantId and between a couple of dates.",
         "operationId": "/waitingtimes GetWaitingTimesReport",
         "responses": {
            "200": {
               "examples": {"application/json": {
                  "reportPeriod": {"type": "string"},
                  "reportResults": {
                     "type": "array",
                     "items": {
                        "type": "object",
                        "properties": {
                           "hourOfServiceReports": {
                              "type": "array",
                              "items": {
                                 "type": "object",
                                 "properties": {
                                    "driverCode": {"type": "string"},
                                    "totalHours": {"type": "integer"},
                                    "hourOfServices": {
                                       "type": "array",
                                       "items": {
                                          "type": "object",
                                          "properties": {
                                             "shiftDate": {"type": "string"},
                                             "hourOfService": {"type": "integer"}
                                          }
                                       }
                                    },
                                    "driverDesc": {"type": "string"}
                                 }
                              }
                           },
                           "regionCode": {"type": "string"},
                           "waitingTimeReports": {
                              "type": "array",
                              "items": {
                                 "type": "object",
                                 "properties": {
                                    "load": {"type": "string"},
                                    "customerCode": {"type": "integer"},
                                    "waitingTime": {"type": "string"},
                                    "orderCode": {"type": "integer"},
                                    "deliveryDate": {"type": "string"},
                                    "customerDesc": {"type": "string"},
                                    "ticketCode": {"type": "integer"}
                                 }
                              }
                           },
                           "plantDesc": {"type": "string"},
                           "perTripStatusReports": {
                              "type": "array",
                              "items": {
                                 "type": "object",
                                 "properties": {
                                    "truckEvents": {
                                       "type": "array",
                                       "items": {
                                          "type": "object",
                                          "properties": {
                                             "truckEventDesc": {"type": "integer"},
                                             "eventDate": {"type": "string"}
                                          }
                                       }
                                    },
                                    "truckPlate": {"type": "string"},
                                    "ticketCode": {"type": "integer"}
                                 }
                              }
                           },
                           "plantId": {"type": "integer"},
                           "speedingAlertReports": {
                              "type": "array",
                              "items": {
                                 "type": "object",
                                 "properties": {
                                    "driverCode": {"type": "integer"},
                                    "truckPlate": {"type": "integer"},
                                    "alertTime": {"type": "string"},
                                    "driverDesc": {"type": "string"},
                                    "speed": {"type": "string"}
                                 }
                              }
                           },
                           "orderCode": {"type": "string"},
                           "plantCode": {"type": "string"}
                        }
                     }
                  },
                  "orders": {
                     "type": "array",
                     "items": {
                        "type": "object",
                        "properties": {
                           "tickets": {
                              "type": "array",
                              "items": {
                                 "type": "object",
                                 "properties": {
                                    "shipment": {
                                       "type": "object",
                                       "properties": {"driver": {
                                          "type": "object",
                                          "properties": {
                                             "driverCode": {"type": "string"},
                                             "driverId": {"type": "integer"},
                                             "assignation": {
                                                "type": "object",
                                                "properties": {"truck": {
                                                   "type": "object",
                                                   "properties": {
                                                      "truckId": {"type": "integer"},
                                                      "truckPlate": {"type": "string"},
                                                      "truckDesc": {"type": "string"},
                                                      "equipmentCode": {"type": "string"}
                                                   }
                                                }}
                                             },
                                             "driverDesc": {"type": "string"}
                                          }
                                       }}
                                    },
                                    "deliveryDate": {"type": "string"},
                                    "ticketCode": {"type": "string"},
                                    "ticketId": {"type": "integer"}
                                 }
                              }
                           },
                           "orderId": {"type": "integer"},
                           "orderCode": {"type": "string"}
                        }
                     }
                  },
                  "customers": {
                     "type": "array",
                     "items": {
                        "type": "object",
                        "properties": {
                           "countryCode": {"type": "string"},
                           "customerId": {"type": "integer"},
                           "customerCode": {"type": "string"},
                           "customerDesc": {"type": "string"},
                           "email": {"type": "string"}
                        }
                     }
                  }
               }},
               "description": "Successful response"
            },
            "500": {"description": "Internal Error"}
         },
         "parameters": [
            {
               "in": "query",
               "name": "plantId",
               "description": "array with the Id's of the Plants that are monitored by de Driver Dispatcher",
               "type": "string"
            },
            {
               "in": "query",
               "name": "dateFrom",
               "description": "Initial date for the search",
               "type": "string"
            },
            {
               "in": "query",
               "name": "dateTo",
               "description": "Final date for the search",
               "type": "string"
            },
            {
               "in": "query",
               "name": "customerId",
               "description": "Id of the customer",
               "type": "integer"
            },
            {
               "in": "query",
               "name": "orderId",
               "description": "Id of the order",
               "type": "integer"
            },
            {
               "in": "query",
               "name": "orderBy",
               "description": "The way in that will be ordered",
               "type": "string"
            },
            {
               "in": "header",
               "name": "accept",
               "description": "Advertises which content types expressed as MIME types the client is able to understand.",
               "type": "string"
            },
            {
               "in": "header",
               "name": "accept-language",
               "description": "Advertises which languages and locale variant the client is able to understand.",
               "type": "string",
               "required": true
            },
            {
               "in": "header",
               "name": "app-code",
               "description": "Advertises which application is requesting the information.",
               "type": "string",
               "required": true
            },
            {
               "in": "header",
               "name": "jwt",
               "description": "JSON Web Token JWT, represent claims to be transferred between two parties RFC 7519.",
               "type": "string",
               "required": true
            },
            {
               "in": "header",
               "name": "Authorization",
               "description": "Access Token",
               "type": "string",
               "required": true
            }
         ]
      }},
      "/speedings": {"get": {
         "produces": ["application/json"],
         "description": "Retrieves the speeding reports by PlantId and between a couple of dates.",
         "operationId": "/speedings GetSpeedingsReport",
         "responses": {
            "200": {
               "examples": {"application/json": {
                  "reportPeriod": {"type": "string"},
                  "reportResults": {
                     "type": "array",
                     "items": {
                        "type": "object",
                        "properties": {
                           "hourOfServiceReports": {
                              "type": "array",
                              "items": {
                                 "type": "object",
                                 "properties": {
                                    "driverCode": {"type": "string"},
                                    "totalHours": {"type": "integer"},
                                    "hourOfServices": {
                                       "type": "array",
                                       "items": {
                                          "type": "object",
                                          "properties": {
                                             "shiftDate": {"type": "string"},
                                             "hourOfService": {"type": "integer"}
                                          }
                                       }
                                    },
                                    "driverDesc": {"type": "string"}
                                 }
                              }
                           },
                           "regionCode": {"type": "string"},
                           "waitingTimeReports": {
                              "type": "array",
                              "items": {
                                 "type": "object",
                                 "properties": {
                                    "load": {"type": "string"},
                                    "customerCode": {"type": "integer"},
                                    "waitingTime": {"type": "string"},
                                    "orderCode": {"type": "integer"},
                                    "deliveryDate": {"type": "string"},
                                    "customerDesc": {"type": "string"},
                                    "ticketCode": {"type": "integer"}
                                 }
                              }
                           },
                           "plantDesc": {"type": "string"},
                           "perTripStatusReports": {
                              "type": "array",
                              "items": {
                                 "type": "object",
                                 "properties": {
                                    "truckEvents": {
                                       "type": "array",
                                       "items": {
                                          "type": "object",
                                          "properties": {
                                             "truckEventDesc": {"type": "integer"},
                                             "eventDate": {"type": "string"}
                                          }
                                       }
                                    },
                                    "truckPlate": {"type": "string"},
                                    "ticketCode": {"type": "integer"}
                                 }
                              }
                           },
                           "plantId": {"type": "integer"},
                           "speedingAlertReports": {
                              "type": "array",
                              "items": {
                                 "type": "object",
                                 "properties": {
                                    "driverCode": {"type": "integer"},
                                    "truckPlate": {"type": "integer"},
                                    "alertTime": {"type": "string"},
                                    "driverDesc": {"type": "string"},
                                    "speed": {"type": "string"}
                                 }
                              }
                           },
                           "orderCode": {"type": "string"},
                           "plantCode": {"type": "string"}
                        }
                     }
                  },
                  "orders": {
                     "type": "array",
                     "items": {
                        "type": "object",
                        "properties": {
                           "tickets": {
                              "type": "array",
                              "items": {
                                 "type": "object",
                                 "properties": {
                                    "shipment": {
                                       "type": "object",
                                       "properties": {"driver": {
                                          "type": "object",
                                          "properties": {
                                             "driverCode": {"type": "string"},
                                             "driverId": {"type": "integer"},
                                             "assignation": {
                                                "type": "object",
                                                "properties": {"truck": {
                                                   "type": "object",
                                                   "properties": {
                                                      "truckId": {"type": "integer"},
                                                      "truckPlate": {"type": "string"},
                                                      "truckDesc": {"type": "string"},
                                                      "equipmentCode": {"type": "string"}
                                                   }
                                                }}
                                             },
                                             "driverDesc": {"type": "string"}
                                          }
                                       }}
                                    },
                                    "deliveryDate": {"type": "string"},
                                    "ticketCode": {"type": "string"},
                                    "ticketId": {"type": "integer"}
                                 }
                              }
                           },
                           "orderId": {"type": "integer"},
                           "orderCode": {"type": "string"}
                        }
                     }
                  },
                  "customers": {
                     "type": "array",
                     "items": {
                        "type": "object",
                        "properties": {
                           "countryCode": {"type": "string"},
                           "customerId": {"type": "integer"},
                           "customerCode": {"type": "string"},
                           "customerDesc": {"type": "string"},
                           "email": {"type": "string"}
                        }
                     }
                  }
               }},
               "description": "Successful response"
            },
            "500": {"description": "Internal Error"}
         },
         "parameters": [
            {
               "in": "query",
               "name": "plantId",
               "description": "array with the Id's of the Plants that are monitored by de Driver Dispatcher",
               "type": "string"
            },
            {
               "in": "query",
               "name": "dateFrom",
               "description": "Initial date for the search",
               "type": "string"
            },
            {
               "in": "query",
               "name": "dateTo",
               "description": "Final date for the search",
               "type": "string"
            },
            {
               "in": "query",
               "name": "orderBy",
               "description": "The way in that will be ordered",
               "type": "string"
            },
            {
               "in": "header",
               "name": "accept",
               "description": "Advertises which content types expressed as MIME types the client is able to understand.",
               "type": "string"
            },
            {
               "in": "header",
               "name": "accept-language",
               "description": "Advertises which languages and locale variant the client is able to understand.",
               "type": "string",
               "required": true
            },
            {
               "in": "header",
               "name": "app-code",
               "description": "Advertises which application is requesting the information.",
               "type": "string",
               "required": true
            },
            {
               "in": "header",
               "name": "jwt",
               "description": "JSON Web Token JWT, represent claims to be transferred between two parties RFC 7519.",
               "type": "string",
               "required": true
            },
            {
               "in": "header",
               "name": "Authorization",
               "description": "Access Token",
               "type": "string",
               "required": true
            }
         ]
      }},
      "/orders/issues/{issueId}": {"get": {
         "produces": ["application/json"],
         "operationId": "/orders/issues/{issueId} GetIssuebyId",
         "responses": {
            "200": {
               "examples": {"application/json": {
                  "dateTime": {"type": "string"},
                  "issueType": {"type": "string"},
                  "issueId": {"type": "string"},
                  "comments": {"type": "string"},
                  "statusDesc": {"type": "string"},
                  "attachments": {"$ref": "#/definitions/Attachment"},
                  "orderId": {"type": "string"},
                  "responses": {
                     "type": "array",
                     "items": {"$ref": "#/definitions/Response"}
                  },
                  "priority": {"type": "string"},
                  "ticketCode": {"type": "string"}
               }},
               "description": ""
            },
            "500": {"description": ""}
         },
         "parameters": [
            {
               "in": "path",
               "name": "issueId",
               "description": "",
               "type": "string",
               "required": true
            },
            {
               "in": "header",
               "name": "accept",
               "description": "Advertises which content types expressed as MIME types the client is able to understand.",
               "type": "string"
            },
            {
               "in": "header",
               "name": "accept-language",
               "description": "Advertises which languages and locale variant the client is able to understand.",
               "type": "string",
               "required": true
            },
            {
               "in": "header",
               "name": "app-code",
               "description": "Advertises which application is requesting the information.",
               "type": "string",
               "required": true
            },
            {
               "in": "header",
               "name": "jwt",
               "description": "JSON Web Token JWT, represent claims to be transferred between two parties RFC 7519.",
               "type": "string",
               "required": true
            },
            {
               "in": "header",
               "name": "Authorization",
               "description": "Access Token",
               "type": "string",
               "required": true
            }
         ]
      }},
      "/customers": {"get": {
         "produces": ["application/json"],
         "description": "Retrieves the customers by CustomerCode, PlantId and between a couple of dates.",
         "operationId": "/customers GetCustomersReport",
         "responses": {
            "200": {
               "examples": {"application/json": {
                  "reportPeriod": {"type": "string"},
                  "reportResults": {
                     "type": "array",
                     "items": {
                        "type": "object",
                        "properties": {
                           "hourOfServiceReports": {
                              "type": "array",
                              "items": {
                                 "type": "object",
                                 "properties": {
                                    "driverCode": {"type": "string"},
                                    "totalHours": {"type": "integer"},
                                    "hourOfServices": {
                                       "type": "array",
                                       "items": {
                                          "type": "object",
                                          "properties": {
                                             "shiftDate": {"type": "string"},
                                             "hourOfService": {"type": "integer"}
                                          }
                                       }
                                    },
                                    "driverDesc": {"type": "string"}
                                 }
                              }
                           },
                           "regionCode": {"type": "string"},
                           "waitingTimeReports": {
                              "type": "array",
                              "items": {
                                 "type": "object",
                                 "properties": {
                                    "load": {"type": "string"},
                                    "customerCode": {"type": "integer"},
                                    "waitingTime": {"type": "string"},
                                    "orderCode": {"type": "integer"},
                                    "deliveryDate": {"type": "string"},
                                    "customerDesc": {"type": "string"},
                                    "ticketCode": {"type": "integer"}
                                 }
                              }
                           },
                           "plantDesc": {"type": "string"},
                           "perTripStatusReports": {
                              "type": "array",
                              "items": {
                                 "type": "object",
                                 "properties": {
                                    "truckEvents": {
                                       "type": "array",
                                       "items": {
                                          "type": "object",
                                          "properties": {
                                             "truckEventDesc": {"type": "integer"},
                                             "eventDate": {"type": "string"}
                                          }
                                       }
                                    },
                                    "truckPlate": {"type": "string"},
                                    "ticketCode": {"type": "integer"}
                                 }
                              }
                           },
                           "plantId": {"type": "integer"},
                           "speedingAlertReports": {
                              "type": "array",
                              "items": {
                                 "type": "object",
                                 "properties": {
                                    "driverCode": {"type": "integer"},
                                    "truckPlate": {"type": "integer"},
                                    "alertTime": {"type": "string"},
                                    "driverDesc": {"type": "string"},
                                    "speed": {"type": "string"}
                                 }
                              }
                           },
                           "orderCode": {"type": "string"},
                           "plantCode": {"type": "string"}
                        }
                     }
                  },
                  "orders": {
                     "type": "array",
                     "items": {
                        "type": "object",
                        "properties": {
                           "tickets": {
                              "type": "array",
                              "items": {
                                 "type": "object",
                                 "properties": {
                                    "shipment": {
                                       "type": "object",
                                       "properties": {"driver": {
                                          "type": "object",
                                          "properties": {
                                             "driverCode": {"type": "string"},
                                             "driverId": {"type": "integer"},
                                             "assignation": {
                                                "type": "object",
                                                "properties": {"truck": {
                                                   "type": "object",
                                                   "properties": {
                                                      "truckId": {"type": "integer"},
                                                      "truckPlate": {"type": "string"},
                                                      "truckDesc": {"type": "string"},
                                                      "equipmentCode": {"type": "string"}
                                                   }
                                                }}
                                             },
                                             "driverDesc": {"type": "string"}
                                          }
                                       }}
                                    },
                                    "deliveryDate": {"type": "string"},
                                    "ticketCode": {"type": "string"},
                                    "ticketId": {"type": "integer"}
                                 }
                              }
                           },
                           "orderId": {"type": "integer"},
                           "orderCode": {"type": "string"}
                        }
                     }
                  },
                  "customers": {
                     "type": "array",
                     "items": {
                        "type": "object",
                        "properties": {
                           "countryCode": {"type": "string"},
                           "customerId": {"type": "integer"},
                           "customerCode": {"type": "string"},
                           "customerDesc": {"type": "string"},
                           "email": {"type": "string"}
                        }
                     }
                  }
               }},
               "description": "Successful response"
            },
            "500": {"description": "Internal Error"}
         },
         "parameters": [
            {
               "in": "query",
               "name": "customerCode",
               "description": "Customer Code",
               "type": "integer"
            },
            {
               "in": "query",
               "name": "dateFrom",
               "description": "Initial date for the search",
               "type": "string"
            },
            {
               "in": "query",
               "name": "dateTo",
               "description": "Final date for the search",
               "type": "string"
            },
            {
               "in": "query",
               "name": "plantId",
               "description": "array with the Id's of the Plants that are monitored by de Driver Dispatcher",
               "type": "string"
            },
            {
               "in": "header",
               "name": "accept",
               "description": "Advertises which content types expressed as MIME types the client is able to understand.",
               "type": "string"
            },
            {
               "in": "header",
               "name": "accept-language",
               "description": "Advertises which languages and locale variant the client is able to understand.",
               "type": "string",
               "required": true
            },
            {
               "in": "header",
               "name": "app-code",
               "description": "Advertises which application is requesting the information.",
               "type": "string",
               "required": true
            },
            {
               "in": "header",
               "name": "jwt",
               "description": "JSON Web Token JWT, represent claims to be transferred between two parties RFC 7519.",
               "type": "string",
               "required": true
            },
            {
               "in": "header",
               "name": "Authorization",
               "description": "Access Token",
               "type": "string",
               "required": true
            }
         ]
      }},
      "/pertripstatuses": {"get": {
         "produces": ["application/json"],
         "description": "Retrieves the pertripstatuses reports by PlantId and between a couple of dates.",
         "operationId": "/pertripstatuses GetPerTripStatusesReport",
         "responses": {
            "200": {
               "examples": {"application/json": {
                  "reportPeriod": {"type": "string"},
                  "reportResults": {
                     "type": "array",
                     "items": {
                        "type": "object",
                        "properties": {
                           "hourOfServiceReports": {
                              "type": "array",
                              "items": {
                                 "type": "object",
                                 "properties": {
                                    "driverCode": {"type": "string"},
                                    "totalHours": {"type": "integer"},
                                    "hourOfServices": {
                                       "type": "array",
                                       "items": {
                                          "type": "object",
                                          "properties": {
                                             "shiftDate": {"type": "string"},
                                             "hourOfService": {"type": "integer"}
                                          }
                                       }
                                    },
                                    "driverDesc": {"type": "string"}
                                 }
                              }
                           },
                           "regionCode": {"type": "string"},
                           "waitingTimeReports": {
                              "type": "array",
                              "items": {
                                 "type": "object",
                                 "properties": {
                                    "load": {"type": "string"},
                                    "customerCode": {"type": "integer"},
                                    "waitingTime": {"type": "string"},
                                    "orderCode": {"type": "integer"},
                                    "deliveryDate": {"type": "string"},
                                    "customerDesc": {"type": "string"},
                                    "ticketCode": {"type": "integer"}
                                 }
                              }
                           },
                           "plantDesc": {"type": "string"},
                           "perTripStatusReports": {
                              "type": "array",
                              "items": {
                                 "type": "object",
                                 "properties": {
                                    "truckEvents": {
                                       "type": "array",
                                       "items": {
                                          "type": "object",
                                          "properties": {
                                             "truckEventDesc": {"type": "integer"},
                                             "eventDate": {"type": "string"}
                                          }
                                       }
                                    },
                                    "truckPlate": {"type": "string"},
                                    "ticketCode": {"type": "integer"}
                                 }
                              }
                           },
                           "plantId": {"type": "integer"},
                           "speedingAlertReports": {
                              "type": "array",
                              "items": {
                                 "type": "object",
                                 "properties": {
                                    "driverCode": {"type": "integer"},
                                    "truckPlate": {"type": "integer"},
                                    "alertTime": {"type": "string"},
                                    "driverDesc": {"type": "string"},
                                    "speed": {"type": "string"}
                                 }
                              }
                           },
                           "orderCode": {"type": "string"},
                           "plantCode": {"type": "string"}
                        }
                     }
                  },
                  "orders": {
                     "type": "array",
                     "items": {
                        "type": "object",
                        "properties": {
                           "tickets": {
                              "type": "array",
                              "items": {
                                 "type": "object",
                                 "properties": {
                                    "shipment": {
                                       "type": "object",
                                       "properties": {"driver": {
                                          "type": "object",
                                          "properties": {
                                             "driverCode": {"type": "string"},
                                             "driverId": {"type": "integer"},
                                             "assignation": {
                                                "type": "object",
                                                "properties": {"truck": {
                                                   "type": "object",
                                                   "properties": {
                                                      "truckId": {"type": "integer"},
                                                      "truckPlate": {"type": "string"},
                                                      "truckDesc": {"type": "string"},
                                                      "equipmentCode": {"type": "string"}
                                                   }
                                                }}
                                             },
                                             "driverDesc": {"type": "string"}
                                          }
                                       }}
                                    },
                                    "deliveryDate": {"type": "string"},
                                    "ticketCode": {"type": "string"},
                                    "ticketId": {"type": "integer"}
                                 }
                              }
                           },
                           "orderId": {"type": "integer"},
                           "orderCode": {"type": "string"}
                        }
                     }
                  },
                  "customers": {
                     "type": "array",
                     "items": {
                        "type": "object",
                        "properties": {
                           "countryCode": {"type": "string"},
                           "customerId": {"type": "integer"},
                           "customerCode": {"type": "string"},
                           "customerDesc": {"type": "string"},
                           "email": {"type": "string"}
                        }
                     }
                  }
               }},
               "description": "Successful response"
            },
            "500": {"description": "Internal Error"}
         },
         "parameters": [
            {
               "in": "query",
               "name": "plantId",
               "description": "array with the Id's of the Plants that are monitored by de Driver Dispatcher",
               "type": "string"
            },
            {
               "in": "query",
               "name": "orderId",
               "description": "Id of the order",
               "type": "integer"
            },
            {
               "in": "query",
               "name": "orderBy",
               "description": "The way in that will be ordered",
               "type": "string"
            },
            {
               "in": "query",
               "name": "dateFrom",
               "description": "Initial date for the search",
               "type": "string"
            },
            {
               "in": "query",
               "name": "dateTo",
               "description": "Final date for the search",
               "type": "string"
            },
            {
               "in": "header",
               "name": "accept",
               "description": "Advertises which content types expressed as MIME types the client is able to understand.",
               "type": "string"
            },
            {
               "in": "header",
               "name": "accept-language",
               "description": "Advertises which languages and locale variant the client is able to understand.",
               "type": "string",
               "required": true
            },
            {
               "in": "header",
               "name": "app-code",
               "description": "Advertises which application is requesting the information.",
               "type": "string",
               "required": true
            },
            {
               "in": "header",
               "name": "jwt",
               "description": "JSON Web Token JWT, represent claims to be transferred between two parties RFC 7519.",
               "type": "string",
               "required": true
            },
            {
               "in": "header",
               "name": "Authorization",
               "description": "Access Token",
               "type": "string",
               "required": true
            }
         ]
      }},
      "/customers/orders/{orderid}/issues": {"post": {
         "operationId": "/customers/orders/{orderid}/issues PostOrderIdIssues",
         "responses": {
            "200": {"description": ""},
            "500": {"description": ""}
         },
         "parameters": [
            {
               "in": "path",
               "name": "orderid",
               "description": "",
               "type": "string",
               "required": true
            },
            {
               "in": "header",
               "name": "accept",
               "description": "Advertises which content types expressed as MIME types the client is able to understand.",
               "type": "string"
            },
            {
               "in": "header",
               "name": "accept-language",
               "description": "Advertises which languages and locale variant the client is able to understand.",
               "type": "string",
               "required": true
            },
            {
               "in": "header",
               "name": "app-code",
               "description": "Advertises which application is requesting the information.",
               "type": "string",
               "required": true
            },
            {
               "in": "header",
               "name": "jwt",
               "description": "JSON Web Token JWT, represent claims to be transferred between two parties RFC 7519.",
               "type": "string",
               "required": true
            },
            {
               "in": "header",
               "name": "Authorization",
               "description": "Access Token",
               "type": "string",
               "required": true
            },
            {
               "schema": {"example": "{\r\n\t\"orderId\": {\r\n\t\t\"type\": \"string\"\r\n\t},\r\n\t\"ticketCode\": {\r\n\t\t\"type\": \"string\"\r\n\t},\r\n\t\"issueId\": {\r\n\t\t\"type\": \"string\"\r\n\t},\r\n\t\"dateTime\": {\r\n\t\t\"type\": \"string\"\r\n\t},\r\n\t\"comments\": {\r\n\t\t\"type\": \"string\"\r\n\t},\r\n\t\"statusDesc\": {\r\n\t\t\"type\": \"string\"\r\n\t},\r\n\t\"issueType\": {\r\n\t\t\"type\": \"string\"\r\n\t},\r\n\t\"priority\": {\r\n\t\t\"type\": \"string\"\r\n\t},\r\n\t\"responses\": {\r\n\t\t\"type\": \"array\",\r\n\t\t\"items\": {\r\n\t\t\t\"$ref\": \"#/definitions/Response\"\r\n\t\t}\r\n\t},\r\n\t\"attachments\": {\r\n\t\t\"$ref\": \"#/definitions/Attachment\"\r\n\t}\r\n}"},
               "in": "body",
               "name": "body"
            }
         ],
         "consumes": ["application/json"]
      }}
   },
   "x-servers": [
      {"url": "https://www.cemexgo.com"},
      {"url": "https://api.cemexgo.com"},
      {"url": "https://eu.cemexgo.com"}
   ],
   "host": "www.cemexgo.com",
   "schemes": ["https"],
   "securityDefinitions": {
      "apiKeyQuery": {
         "in": "query",
         "name": "subscription-key",
         "type": "apiKey"
      },
      "apiKeyHeader": {
         "in": "header",
         "name": "Ocp-Apim-Subscription-Key",
         "type": "apiKey"
      }
   },
   "swagger": "2.0",
   "info": {
      "description": "API used for the reports speeding, Hours of Service and Waiting Times that are managed on the Driver-Web-Console. #Merged with consolereport_4.0.0.yaml",
      "title": "[rep] Reporting v4",
      "version": "1.0"
   }
}
