{
   "security": [
      {"apiKeyHeader": []},
      {"apiKeyQuery": []}
   ],
   "basePath": "/v2/bl",
   "paths": {
      "/businesslines": {"get": {
         "produces": ["application/json"],
         "operationId": "/businesslines getBusinessLines",
         "responses": {
            "200": {
               "examples": {"application/json": {
                  "count": {
                     "format": "int32",
                     "type": "integer"
                  },
                  "links": {
                     "additionalProperties": false,
                     "properties": {
                        "next": {"type": "string"},
                        "previous": {"type": "string"},
                        "configuration": {"type": "string"},
                        "self": {"type": "string"}
                     }
                  },
                  "totalCount": {
                     "format": "int32",
                     "type": "integer"
                  },
                  "businesslines": {
                     "type": "array",
                     "items": {
                        "additionalProperties": false,
                        "properties": {
                           "businessLineDesc": {"type": "string"},
                           "businessLineCode": {"type": "string"},
                           "links": {
                              "additionalProperties": false,
                              "properties": {
                                 "next": {"type": "string"},
                                 "previous": {"type": "string"},
                                 "configuration": {"type": "string"},
                                 "self": {"type": "string"}
                              }
                           },
                           "businessLineId": {
                              "format": "int32",
                              "type": "integer"
                           }
                        }
                     }
                  }
               }},
               "description": "Successful response"
            },
            "401": {
               "examples": {"application/json": {"message": {"type": "string"}}},
               "description": "Unauthorized"
            },
            "500": {
               "examples": {"application/json": {"message": {"type": "string"}}},
               "description": "Internal server error"
            },
            "204": {
               "examples": {"application/json": {"message": {"type": "string"}}},
               "description": "No Content"
            }
         },
         "parameters": [
            {
               "in": "query",
               "name": "orderBy",
               "description": "QueryString used to order the array response by a specific attribute or criteria",
               "type": "string"
            },
            {
               "in": "query",
               "name": "offsetId",
               "description": "Optional parameter used on pagination defines the initial index to be fetch",
               "type": "integer"
            },
            {
               "in": "query",
               "name": "page",
               "description": "Optional parameter used on pagination defines the pagination page to be fetch",
               "type": "integer"
            },
            {
               "in": "query",
               "name": "fetch",
               "description": "Optional parameter used on pagination defines the records to be fetch",
               "type": "integer"
            },
            {
               "in": "query",
               "name": "limit",
               "description": "Optional parameter used on pagination defines maximum no of records to be fetch",
               "type": "integer"
            },
            {
               "in": "header",
               "name": "accept",
               "description": "Advertises which content types expressed as MIME types the client is able to understand.",
               "type": "string"
            },
            {
               "in": "header",
               "name": "accept-language",
               "description": "Advertises which languages and locale variant the client is able to understand.",
               "type": "string",
               "required": true
            },
            {
               "in": "header",
               "name": "app-code",
               "description": "Advertises which application is requesting the information.",
               "type": "string",
               "required": true
            },
            {
               "in": "header",
               "name": "jwt",
               "description": "JSON Web Token JWT, represent claims to be transferred between two parties RFC 7519.",
               "type": "string",
               "required": true
            },
            {
               "in": "header",
               "name": "Authorization",
               "description": "Access Token",
               "type": "string",
               "required": true
            }
         ]
      }},
      "/businesslineconfigurations/{businessLineConfigurationId}": {"get": {
         "produces": ["application/json"],
         "operationId": "/businesslineconfigurations/{businessLineConfigurationId} getBusinessLineConfigurationById",
         "responses": {
            "200": {
               "examples": {"application/json": {
                  "businessLineConfigurationId": {
                     "format": "int32",
                     "type": "integer"
                  },
                  "businessLine": {
                     "additionalProperties": false,
                     "properties": {
                        "businessLineDesc": {"type": "string"},
                        "businessLineCode": {"type": "string"},
                        "links": {
                           "additionalProperties": false,
                           "properties": {
                              "next": {"type": "string"},
                              "previous": {"type": "string"},
                              "configuration": {"type": "string"},
                              "self": {"type": "string"}
                           }
                        },
                        "businessLineId": {
                           "format": "int32",
                           "type": "integer"
                        }
                     }
                  },
                  "maximumDeliveryWeightUnit": {
                     "additionalProperties": false,
                     "properties": {"unitCode": {"type": "string"}}
                  },
                  "maximumVehicleVolumeUnit": {
                     "additionalProperties": false,
                     "properties": {"unitCode": {"type": "string"}}
                  },
                  "minimumLotDeliveryUnit": {
                     "additionalProperties": false,
                     "properties": {"unitCode": {"type": "string"}}
                  },
                  "links": {
                     "additionalProperties": false,
                     "properties": {
                        "next": {"type": "string"},
                        "previous": {"type": "string"},
                        "configuration": {"type": "string"},
                        "self": {"type": "string"}
                     }
                  },
                  "maximumDeliveryVolumeUnit": {
                     "additionalProperties": false,
                     "properties": {"unitCode": {"type": "string"}}
                  },
                  "maximumVechileWeightUnit": {
                     "additionalProperties": false,
                     "properties": {"unitCode": {"type": "string"}}
                  }
               }},
               "description": "Successful response"
            },
            "401": {
               "examples": {"application/json": {"message": {"type": "string"}}},
               "description": "Unauthorized"
            },
            "500": {
               "examples": {"application/json": {"message": {"type": "string"}}},
               "description": "Internal server error"
            },
            "204": {
               "examples": {"application/json": {"message": {"type": "string"}}},
               "description": "No Content"
            }
         },
         "parameters": [
            {
               "in": "path",
               "name": "businessLineConfigurationId",
               "type": "integer",
               "required": true
            },
            {
               "in": "header",
               "name": "accept",
               "description": "Advertises which content types expressed as MIME types the client is able to understand.",
               "type": "string"
            },
            {
               "in": "header",
               "name": "accept-language",
               "description": "Advertises which languages and locale variant the client is able to understand.",
               "type": "string",
               "required": true
            },
            {
               "in": "header",
               "name": "app-code",
               "description": "Advertises which application is requesting the information.",
               "type": "string",
               "required": true
            },
            {
               "in": "header",
               "name": "jwt",
               "description": "JSON Web Token JWT, represent claims to be transferred between two parties RFC 7519.",
               "type": "string",
               "required": true
            },
            {
               "in": "header",
               "name": "Authorization",
               "description": "Access Token",
               "type": "string",
               "required": true
            }
         ]
      }},
      "/businesslines/{businessLineId}": {"get": {
         "produces": ["application/json"],
         "operationId": "/businesslines/{businessLineId} getBusinessLineById",
         "responses": {
            "200": {
               "examples": {"application/json": {
                  "businessLineDesc": {"type": "string"},
                  "businessLineCode": {"type": "string"},
                  "links": {
                     "additionalProperties": false,
                     "properties": {
                        "next": {"type": "string"},
                        "previous": {"type": "string"},
                        "configuration": {"type": "string"},
                        "self": {"type": "string"}
                     }
                  },
                  "businessLineId": {
                     "format": "int32",
                     "type": "integer"
                  }
               }},
               "description": "Successful response"
            },
            "401": {
               "examples": {"application/json": {"message": {"type": "string"}}},
               "description": "Unauthorized"
            },
            "500": {
               "examples": {"application/json": {"message": {"type": "string"}}},
               "description": "Internal server error"
            },
            "204": {
               "examples": {"application/json": {"message": {"type": "string"}}},
               "description": "No Content"
            }
         },
         "parameters": [
            {
               "in": "path",
               "name": "businessLineId",
               "type": "integer",
               "required": true
            },
            {
               "in": "header",
               "name": "accept",
               "description": "Advertises which content types expressed as MIME types the client is able to understand.",
               "type": "string"
            },
            {
               "in": "header",
               "name": "accept-language",
               "description": "Advertises which languages and locale variant the client is able to understand.",
               "type": "string",
               "required": true
            },
            {
               "in": "header",
               "name": "app-code",
               "description": "Advertises which application is requesting the information.",
               "type": "string",
               "required": true
            },
            {
               "in": "header",
               "name": "jwt",
               "description": "JSON Web Token JWT, represent claims to be transferred between two parties RFC 7519.",
               "type": "string",
               "required": true
            },
            {
               "in": "header",
               "name": "Authorization",
               "description": "Access Token",
               "type": "string",
               "required": true
            }
         ]
      }},
      "/businesslineconfigurations": {"get": {
         "produces": ["application/json"],
         "operationId": "/businesslineconfigurations getBusinessLineConfigurations",
         "responses": {
            "200": {
               "examples": {"application/json": {
                  "businesslineConfigurations": {
                     "type": "array",
                     "items": {
                        "additionalProperties": false,
                        "properties": {
                           "businessLineConfigurationId": {
                              "format": "int32",
                              "type": "integer"
                           },
                           "businessLine": {
                              "additionalProperties": false,
                              "properties": {
                                 "businessLineDesc": {"type": "string"},
                                 "businessLineCode": {"type": "string"},
                                 "links": {
                                    "additionalProperties": false,
                                    "properties": {
                                       "next": {"type": "string"},
                                       "previous": {"type": "string"},
                                       "configuration": {"type": "string"},
                                       "self": {"type": "string"}
                                    }
                                 },
                                 "businessLineId": {
                                    "format": "int32",
                                    "type": "integer"
                                 }
                              }
                           },
                           "maximumDeliveryWeightUnit": {
                              "additionalProperties": false,
                              "properties": {"unitCode": {"type": "string"}}
                           },
                           "maximumVehicleVolumeUnit": {
                              "additionalProperties": false,
                              "properties": {"unitCode": {"type": "string"}}
                           },
                           "minimumLotDeliveryUnit": {
                              "additionalProperties": false,
                              "properties": {"unitCode": {"type": "string"}}
                           },
                           "links": {
                              "additionalProperties": false,
                              "properties": {
                                 "next": {"type": "string"},
                                 "previous": {"type": "string"},
                                 "configuration": {"type": "string"},
                                 "self": {"type": "string"}
                              }
                           },
                           "maximumDeliveryVolumeUnit": {
                              "additionalProperties": false,
                              "properties": {"unitCode": {"type": "string"}}
                           },
                           "maximumVechileWeightUnit": {
                              "additionalProperties": false,
                              "properties": {"unitCode": {"type": "string"}}
                           }
                        }
                     }
                  },
                  "count": {
                     "format": "int32",
                     "type": "integer"
                  },
                  "links": {
                     "additionalProperties": false,
                     "properties": {
                        "next": {"type": "string"},
                        "previous": {"type": "string"},
                        "configuration": {"type": "string"},
                        "self": {"type": "string"}
                     }
                  },
                  "totalCount": {
                     "format": "int32",
                     "type": "integer"
                  }
               }},
               "description": "Successful response"
            },
            "401": {
               "examples": {"application/json": {"message": {"type": "string"}}},
               "description": "Unauthorized"
            },
            "500": {
               "examples": {"application/json": {"message": {"type": "string"}}},
               "description": "Internal server error"
            },
            "204": {
               "examples": {"application/json": {"message": {"type": "string"}}},
               "description": "No Content"
            }
         },
         "parameters": [
            {
               "in": "query",
               "name": "orderBy",
               "description": "QueryString used to order the array response by a specific attribute or criteria",
               "type": "string"
            },
            {
               "in": "query",
               "name": "offsetId",
               "description": "Optional parameter used on pagination defines the initial index to be fetch",
               "type": "integer"
            },
            {
               "in": "query",
               "name": "page",
               "description": "Optional parameter used on pagination defines the pagination page to be fetch",
               "type": "integer"
            },
            {
               "in": "query",
               "name": "fetch",
               "description": "Optional parameter used on pagination defines the records to be fetch",
               "type": "integer"
            },
            {
               "in": "query",
               "name": "limit",
               "description": "Optional parameter used on pagination defines maximum no of records to be fetch",
               "type": "integer"
            },
            {
               "in": "header",
               "name": "accept",
               "description": "Advertises which content types expressed as MIME types the client is able to understand.",
               "type": "string"
            },
            {
               "in": "header",
               "name": "accept-language",
               "description": "Advertises which languages and locale variant the client is able to understand.",
               "type": "string",
               "required": true
            },
            {
               "in": "header",
               "name": "app-code",
               "description": "Advertises which application is requesting the information.",
               "type": "string",
               "required": true
            },
            {
               "in": "header",
               "name": "jwt",
               "description": "JSON Web Token JWT, represent claims to be transferred between two parties RFC 7519.",
               "type": "string",
               "required": true
            },
            {
               "in": "header",
               "name": "Authorization",
               "description": "Access Token",
               "type": "string",
               "required": true
            }
         ]
      }}
   },
   "x-servers": [
      {"url": "https://www.cemexgo.com"},
      {"url": "https://api.cemexgo.com"},
      {"url": "https://eu.cemexgo.com"}
   ],
   "host": "www.cemexgo.com",
   "schemes": ["https"],
   "securityDefinitions": {
      "apiKeyQuery": {
         "in": "query",
         "name": "subscription-key",
         "type": "apiKey"
      },
      "apiKeyHeader": {
         "in": "header",
         "name": "Ocp-Apim-Subscription-Key",
         "type": "apiKey"
      }
   },
   "swagger": "2.0",
   "info": {
      "title": "[bl] Business Line v2",
      "version": "1.0"
   }
}
